{"term": "中古小姐", "tdh": "2020020709", "tdate": "20200207", "links": [{"url": "https://tw.nextmgz.com/realtimenews/news/490798", "t": "200207 1440", "title": "〈兩罩說法〉中古小姐暗諷范瑋琪撈千萬愛裝熟陳建州護妻槓上：行為太惡劣 - 台灣壹週刊"}, {"url": "https://ent.ltn.com.tw/news/breakingnews/3056304", "t": "200203 1800", "title": "太假掰！范瑋琪私下愛裝熟 網紅爆「撈千萬露狗樣」內幕 - 自由時報電子報"}, {"url": "https://stars.udn.com/star/story/10091/4309970", "t": "200129 1600", "title": "飆罵狗官道歉救火失敗 她揭密范瑋琪假掰真相 - udn 聯合新聞網"}, {"url": "https://www.setn.com/e/news.aspx?newsid=684967", "t": "200207 0600", "title": "范瑋琪遭酸「撈千萬露X樣」 陳建州不忍開譙：請妳自重| 娛樂星聞 - 三立新聞網"}, {"url": "https://tw.news.yahoo.com/%E6%9B%9D%E5%A5%B3%E6%98%9F%E6%92%88%E5%8D%83%E8%90%AC%E6%84%9B%E8%A3%9D%E7%86%9F-%E5%81%87%E6%8E%B0%E7%8B%97%E6%A8%A3-%E6%97%85%E6%97%A5%E4%BD%9C%E5%AE%B6%E9%BB%9E%E5%90%8D-%E5%B0%8D-%E5%B0%B1%E6%98%AF%E5%A5%B9-042646326.html", "t": "200204 1226", "title": "曝女星撈千萬愛裝熟「假掰狗樣」 旅日作家點名「對！就是她」 - Yahoo奇摩新聞"}, {"url": "https://www.hk01.com/%E5%8D%B3%E6%99%82%E5%A8%9B%E6%A8%82/427693/%E5%8F%B0%E5%A5%B3%E4%BD%9C%E5%AE%B6%E5%98%B2%E7%82%BA%E5%8D%83%E8%90%AC%E4%BB%A3%E8%A8%80%E8%B2%BB%E9%9C%B2-%E7%8B%97%E6%A8%A3-%E7%B6%B2%E5%8F%8B%E6%8E%A8%E6%B8%AC%E7%9F%9B%E9%A0%AD%E7%9B%B4%E6%8C%87%E8%8C%83%E7%91%8B%E7%90%AA", "t": "200129 1600", "title": "台女作家嘲為千萬代言費露「狗樣」 網友推測矛頭直指范瑋琪 - 香港01"}, {"url": "https://www.chinatimes.com/realtimenews/20200204001569-260404", "t": "200204 0934", "title": "爆女星撈千萬私下假掰狗樣 旅日作家直接公開她是誰！ - 中時電子報 Chinatimes.com"}, {"url": "https://tw.news.yahoo.com/%E9%8F%A1%E6%96%87%E5%8C%96%E6%9B%B8%E8%A9%95-%E5%B0%87%E8%BD%89%E5%9E%8B-%E7%B3%BB%E5%88%97%E5%BC%8F%E5%B0%88%E9%A1%8C%E8%88%87%E7%B6%93%E5%85%B8%E6%9B%B8%E7%B1%8D%E5%B0%8E%E8%AE%80%E5%B0%87%E6%96%BC-%E9%8F%A1%E5%A5%BD%E8%81%BD-%E8%81%B2%E9%9F%B3%E5%B9%B3%E5%8F%B0%E6%8E%A8%E5%87%BA-023606491.html", "t": "200207 1036", "title": "〈鏡文化書評〉將轉型 系列式專題與經典書籍導讀將於《鏡好聽》聲音平台推出 - Yahoo奇摩新聞"}, {"url": "https://www.chinapress.com.my/20200204/%E8%8C%83%E7%8E%AE%E7%90%AA%E8%A2%AB%E7%88%86%E7%A7%81%E4%B8%8B%E7%88%B1%E8%A3%85%E7%86%9F/", "t": "200204 1509", "title": "范玮琪被爆私下爱装熟 - China Press"}, {"url": "http://www.sohu.com/a/371176080_114941", "t": "200207 0950", "title": "陈建州为护妻狂怼网红被网友嘲讽\"柿子只捡软的捏\"_陈沂 - 搜狐"}, {"url": "https://tw.news.yahoo.com/video/%E5%A8%9B%E6%A8%82%E9%80%8F%E8%A6%96-%E8%AA%AA-%E5%8F%A3%E5%A5%BD%E9%BB%98%E7%89%87-%E5%91%A8%E9%98%B2%E6%AD%A3%E8%A1%8C%E6%AD%A1%E7%AC%91%E9%87%8D%E7%8F%BE%E9%9B%BB%E5%BD%B1%E6%B5%81%E8%AE%8A-233000400.html", "t": "200126 1600", "title": "娛樂透視》說一口好默片 周防正行歡笑重現電影流變 - Yahoo奇摩新聞"}, {"url": "https://tw.news.yahoo.com/video/%E8%87%B4%E6%95%AC%E9%86%AB%E8%AD%B7%E5%93%A1-%E6%8C%A8%E8%BD%9F-%E6%AD%90%E9%99%BD%E5%A8%9C%E5%A8%9C%E9%81%AD%E5%97%86%E8%B9%AD%E7%86%B1%E5%BA%A6-071708572.html", "t": "200125 1600", "title": "「致敬醫護員」挨轟！ 歐陽娜娜遭嗆蹭熱度 - Yahoo奇摩新聞"}, {"url": "https://tw.news.yahoo.com/video/%E8%8B%B1%E6%A5%AD%E9%81%94%E5%B0%BE%E7%89%99%E7%8D%8E%E9%87%915%E5%8D%83%E8%90%AC-%E8%97%9D%E4%BA%BA%E9%83%AD%E9%9D%9C%E7%BE%8E%E8%81%B2%E5%8A%A0%E6%8C%81-010203150.html", "t": "200120 1600", "title": "英業達尾牙獎金5千萬 藝人郭靜美聲加持 - Yahoo奇摩新聞"}, {"url": "https://tw.news.yahoo.com/a-lin%E7%8B%82%E7%98%A6%E7%A9%BF%E6%8B%96%E9%9E%8B%E8%A2%AB%E7%8B%82%E7%9E%AA%E6%B5%B7%E8%8A%AC%E7%98%A6%E4%BA%8610%E5%85%AC%E6%96%A4%E5%95%A6-130349745.html", "t": "200118 1600", "title": "A-Lin狂瘦「穿拖鞋」被狂瞪 海芬：10公斤啦 - Yahoo奇摩新聞"}, {"url": "https://tw.news.yahoo.com/video/%E7%BE%8E%E9%B3%B3%E5%A7%90%E7%99%BB%E6%AF%8F%E6%97%A5%E9%83%B5%E5%A0%B1-%E5%87%8D%E9%BD%A1%E9%AB%94%E6%85%8B%E9%A9%9A%E8%89%B7%E5%A4%96%E5%AA%92-043016648.html", "t": "200117 1600", "title": "美鳳姐登每日郵報！ 凍齡體態驚艷外媒 - Yahoo奇摩新聞"}, {"url": "https://tw.news.yahoo.com/video/%E6%9E%97%E4%BF%8A%E5%82%91%E8%81%AF%E6%89%8B%E5%AD%AB%E7%87%95%E5%A7%BF-%E5%89%B5%E4%BD%9C%E6%AD%8C%E6%9B%B2%E8%87%B4%E6%95%AC-%E5%89%8D%E7%B7%9A%E9%86%AB%E8%AD%B7-070812676.html", "t": "200128 1600", "title": "林俊傑聯手孫燕姿 創作歌曲致敬「前線醫護」 - Yahoo奇摩新聞"}, {"url": "https://tw.news.yahoo.com/%E8%83%BD%E5%94%B1%E4%B9%9F%E8%83%BD%E6%BC%94-exo-suho-%E8%A6%AA%E8%87%AA%E7%82%BA%E6%96%B0%E5%8A%87-u-040200593.html", "t": "200131 1202", "title": "能唱也能演！EXO Suho 親自為新劇《How Are U Bread》唱 OST - Yahoo奇摩新聞"}, {"url": "https://tw.news.yahoo.com/%E9%84%A7%E7%B4%AB%E6%A3%8B%E6%AD%8C%E6%9B%B2%E6%8E%A5%E5%94%B1%E6%8C%91%E6%88%B0-%E9%A9%9A%E8%A6%8B%E7%B2%89%E7%B5%B2%E5%A5%BD%E6%AD%8C%E5%96%89-092504129.html", "t": "200110 1600", "title": "鄧紫棋歌曲接唱挑戰 驚見粉絲好歌喉 - Yahoo奇摩新聞"}, {"url": "https://www.setn.com/News.aspx?NewsID=526442", "t": "190413 1500", "title": "愛酸人者 知名作家：這種「自卑感重」是未爆彈獲網激賞 - 三立新聞網"}, {"url": "https://tw.news.yahoo.com/%E6%80%A5%E8%91%97%E8%A6%8B%E5%AE%B6%E9%95%B73-%E8%A2%AB%E4%BB%96%E5%80%91%E7%96%BC%E7%9C%9F%E5%B9%B8%E7%A6%8F-%E5%B9%AB%E5%BF%99%E8%83%8C%E5%8C%85%E5%A4%A7%E4%B8%88%E5%A4%AB-155035503.html", "t": "200114 1600", "title": "【急著見家長3】被他們疼真幸福 幫忙背包大丈夫 - Yahoo奇摩新聞"}], "summary": "2011年度香港小姐競選（第39屆）是電視廣播有限公司舉辦的選美活動，在2011年8月7日於新界將軍澳電視廣播城一號錄影廠舉行。本年度口號為「一一尋夢 美麗與智慧並重」。"}
{"term": "地震", "tdh": "2020020709", "tdate": "20200207", "links": [{"url": "https://www.ettoday.net/news/20200206/1639848.htm", "t": "200206 1956", "title": "快訊／本州東部外海規模5.6地震！關東有感 網：好噁心的搖法 - ETtoday"}, {"url": "https://udn.com/news/story/7266/4320077", "t": "200204 0129", "title": "花蓮海域01：02地震 規模4.9 - udn 聯合新聞網"}, {"url": "https://news.ltn.com.tw/news/life/breakingnews/3055651", "t": "200203 0820", "title": "士林區地震雙北皆有感 地震深度僅5公里 - 自由電子報市場動態"}, {"url": "https://www.cna.com.tw/news/firstnews/202002035002.aspx", "t": "200203 0831", "title": "台北士林規模2.9地震 雙北有感 - 中央社即時新聞"}, {"url": "https://www.secretchina.com/news/b5/2020/02/07/921901.html", "t": "200207 0902", "title": "天災加人禍唐山大地震預報被隱瞞封鎖(圖) - 紅朝歲月 - 看中國新聞網"}, {"url": "https://udn.com/news/story/7266/4317989", "t": "200203 0855", "title": "深度5公里…台北市士林區規模2.9地震 雙北震度2級 - udn 聯合新聞網"}, {"url": "https://news.ltn.com.tw/news/life/paper/1349720", "t": "200205 0304", "title": "台灣鯛「浮頭」 民眾懷疑預警地震 - 自由時報電子報"}, {"url": "https://www.chinatimes.com/realtimenews/20200204000874-260405", "t": "200204 0123", "title": "花蓮凌晨 01：02規模4.9地震 最大震度4級 - 中時電子報 Chinatimes.com"}, {"url": "https://www.setn.com/news.aspx?NewsID=682184", "t": "200203 0832", "title": "8:19地震！震央台北士林規模2.9 台北人超有感 - 三立新聞網"}, {"url": "https://www.rti.org.tw/news/view/id/2049571", "t": "200128 1600", "title": "台南地震規模4.1 最大震度3級 - 中央廣播電台"}, {"url": "https://news.ltn.com.tw/news/life/breakingnews/3051131", "t": "200128 1600", "title": "地牛翻身！18:05台南規模4.1地震 最大震度3級 - 自由電子報市場動態"}, {"url": "https://hk.appledaily.com/finance/20200207/R6FOJYGAWTGATLTD7IH4SJTEPY/", "t": "200207 0310", "title": "【智取大市】日本大地震翻版市- 晉佳 - 香港蘋果日報"}, {"url": "http://www.chinesetoday.com/big/article/1281572", "t": "200207 0012", "title": "菲律賓南部發生6.1級地震 - 國際日報"}, {"url": "https://money.udn.com/money/story/5603/4318016", "t": "200203 0912", "title": "成都凌晨5.1地震 深度21公里震感強烈 - 經濟日報"}, {"url": "https://www.ettoday.net/news/20200202/1614924.htm", "t": "200202 2355", "title": "快訊／23:49抖一下！宜蘭4.3有感地震晃2秒 北台灣網友驚：螢幕甩了幾下 - ETtoday"}, {"url": "https://www.chinatimes.com/realtimenews/20200203001181-260405", "t": "200203 0828", "title": "天龍國地震！8：19 台北市士林區規模2.9地震 最大震度信義區2級 - 中時電子報 Chinatimes.com"}, {"url": "https://www.chinatimes.com/realtimenews/20200204002796-260404", "t": "200204 1345", "title": "遇肺炎又碰5.1地震 張靚穎心慌點開家人群組超傻眼 - 中時電子報 Chinatimes.com"}, {"url": "https://udn.com/news/story/7266/4276317?from=udn-hotnews_ch2", "t": "200109 1600", "title": "花蓮近海凌晨規模4.4地震最大震度3級| 聯合新聞網 - udn 聯合新聞網"}, {"url": "https://www.chinatimes.com/realtimenews/20200128002089-260405", "t": "200128 1600", "title": "台南晚間規模4地震 氣象局：地表破碎帶能量釋放 - 中時電子報 Chinatimes.com"}, {"url": "https://www.setn.com/News.aspx?NewsID=682838", "t": "200204 0120", "title": "暗夜驚天一搖！花蓮凌晨發生地震 芮氏規模4.9 - 三立新聞網"}], "summary": "地震是地球表層或表層下的振動所造成的地面震動，可由自然現象如地殼運動、火山活動及隕石撞擊引起，亦可由人為活動如地下核試驗造成，不過歷史上主要的災害性地震都由地殼的突然運動所造成。地震的影響力涵蓋岩石圈及水圈──當地震發生時，可能會連帶引發地表斷裂、大地震動、土壤液化、山崩、餘震、海嘯、甚至是火山活動，並影響人類的生存及活動。\n地震產生的原因是因為地殼在板塊運動的過程中累積應力，當地殼無法繼續累積應力時，地殼會破裂，釋放出地震波，使地面發生震動，地震可由地震儀透過對地震波的觀察來量測，地震規模表示地震所釋放出來的能量大小，地震烈度指地震在該地點造成的震動程度，地震的發生處稱為震源，其投影至地表的位置為震央。\n並非世界上所有的地區都會發生地震。地震與火山分布一樣，主要集中在板塊相互作用的地區。目前世界上主要分為三個頻繁發生地震的「地震帶」：環太平洋地震帶（佔80%）、從地中海一路向東延伸至喜馬拉雅山區和印尼的歐亞地震帶、位於各大洋中洋脊的中洋脊地震帶。並不是所有地震都發生在以上三個地震帶，另外有一小部分大地震發生在板塊內部，主要集中在大的活動斷層帶及其附近地區，例如1976年的中国河北唐山大地震。"}
{"term": "進口口罩", "tdh": "2020020709", "tdate": "20200207", "links": [{"url": "https://talk.ltn.com.tw/article/paper/1350260", "t": "200207 0530", "title": "自由廣場》貿易商說話：口罩不是你想進口就進口 - 自由電子報 自由評論網 - 自由評論網"}, {"url": "https://technews.tw/2020/02/06/taiwan-epidemic-prevention-materials-rely-on-imports-from-china/", "t": "200206 1534", "title": "不僅口罩，消毒劑等防疫物資進口都仰賴中國 - 科技新報 TechNews"}, {"url": "https://tw.news.yahoo.com/%E5%8D%B3%E8%B5%B7%E9%96%8B%E6%94%BE%E6%B0%91%E7%9C%BE%E9%80%B2%E5%8F%A3%E5%8F%A3%E7%BD%A9-%E6%AF%8F%E4%BA%BA1%E5%8D%83%E7%89%87%E9%99%90%E8%87%AA%E7%94%A8-141749465.html", "t": "200206 2217", "title": "即起開放民眾進口口罩 每人1千片限自用 - Yahoo奇摩新聞"}, {"url": "https://ec.ltn.com.tw/article/breakingnews/3060106", "t": "200206 1856", "title": "口罩進口就好？ 政府全球動員僅採購到10萬片 - 自由時報電子報"}, {"url": "https://www.chinatimes.com/realtimenews/20200206004738-260409", "t": "200206 1928", "title": "因應疫情 大陸進口口罩3.28億只、日產1480.6萬只 - 中時電子報 Chinatimes.com"}, {"url": "https://ec.ltn.com.tw/article/breakingnews/3056346", "t": "200203 1851", "title": "口罩一片難求！我國口罩最仰賴中國 1月自中國進口年減631萬片 - 自由時報電子報"}, {"url": "https://udn.com/news/story/7238/4319399", "t": "200203 2118", "title": "台灣1月口罩進口年減逾1成9成3仰賴中國| 聯合新聞網：最懂你的新聞網站 - udn 聯合新聞網"}, {"url": "https://tw.news.yahoo.com/%E8%97%A5%E5%B1%80%E5%9B%A4%E7%A9%8D%E9%BB%91%E5%BF%83%E5%8F%A3%E7%BD%A9-%E4%B8%8A%E6%B8%B8%E5%B7%A5%E5%BB%A0%E7%A8%B1%E5%BE%9E%E4%B8%AD%E5%9C%8B%E9%80%B2%E5%8F%A3-023339911.html", "t": "200207 1033", "title": "藥局囤積黑心口罩 上游工廠稱從中國進口 - Yahoo奇摩"}, {"url": "https://technews.tw/2020/01/28/tw-masks-export-issue/", "t": "200128 1600", "title": "口罩禁出口爭議，攤開數據台進口貨九成來自中國 - 科技新報 TechNews"}, {"url": "https://www.cna.com.tw/news/firstnews/202001280111.aspx", "t": "200128 1600", "title": "口罩禁出口爭議 攤開數據台進口貨9成來自中國 - 中央社即時新聞"}, {"url": "https://www.chinatimes.com/realtimenews/20200205003422-260405", "t": "200205 1559", "title": "每月自陸進口200萬片口罩供醫用 台中業者：已斷貨 - 中時電子報 Chinatimes.com"}, {"url": "https://news.ltn.com.tw/news/life/breakingnews/3059971", "t": "200206 1723", "title": "武漢肺炎》民眾即起可進口防疫醫療器材自用 可解除口罩荒 - 自由時報電子報"}, {"url": "https://www.wealth.com.tw/home/articles/24178", "t": "200205 1806", "title": "從數字看懂台灣口罩之亂的真相 - 財訊"}, {"url": "https://news.ltn.com.tw/news/politics/breakingnews/3057288", "t": "200204 1918", "title": "武漢肺炎》周錫瑋稱「口罩缺貨進口就好」 林俊憲轟：無知 - 自由時報電子報"}, {"url": "https://ec.ltn.com.tw/article/breakingnews/3060933", "t": "200207 1526", "title": "口罩荒竟引發衛生紙之亂2.0 經部：誤會大了 - 自由時報電子報"}, {"url": "https://ec.ltn.com.tw/article/breakingnews/3060046", "t": "200206 1820", "title": "台灣口罩為何不夠用？口罩廠董座一句話突破盲腸 - 自由時報電子報"}, {"url": "https://udn.com/news/story/7934/4321524", "t": "200204 1746", "title": "松本清日本進口口罩最低1片3元！搶買排隊人龍塞爆門市 - udn 聯合新聞網"}, {"url": "https://ec.ltn.com.tw/article/breakingnews/3060056", "t": "200206 1815", "title": "《獨家》攜帶口罩入境 關務署：1000個以下免申請 - 自由時報電子報"}, {"url": "https://www.fda.gov.tw/TC/siteContent.aspx?sid=11139", "t": "200203 1120", "title": "嚴重特殊傳染性肺炎(武漢肺炎)口罩Q&A - 嚴重特殊傳染性肺炎(武漢肺炎)口罩Q&A - 衛生福利部食品藥物管理署"}, {"url": "https://www.setn.com/News.aspx?NewsID=683132", "t": "200204 1534", "title": "「口罩不夠進口就好啦！」林俊憲狠酸周錫瑋：狀況外的無知 - 三立新聞網"}], "summary": "周錫瑋  （1958年3月11日－），出生於彰化縣，曾任臺灣省議會議員、立法委員、臺北縣縣長（末任，後改制為新北市市長）。輔仁大學大眾傳播系學士，美國南加州大学公共行政、企业管理雙碩士。\n最初代表中國國民黨當選立法委員，後隨宋楚瑜成立親民黨並連任立委，重返國民黨後當選最後一屆臺北縣縣長。2019年2月26日宣布參選2020年中華民國總統選舉。"}
{"term": "恭碩良", "tdh": "2020020709", "tdate": "20200207", "links": [{"url": "https://stars.udn.com/star/story/10092/4328098", "t": "200207 1206", "title": "港媒爆恭碩良劈腿混血妹 林憶蓮不願三角纏鬥終放手 - udn 噓！星聞"}, {"url": "https://www.chinatimes.com/realtimenews/20200206003911-260404", "t": "200206 1649", "title": "林憶蓮驚爆分手恭碩良 經記人證實已一年多 - 中時電子報 Chinatimes.com"}, {"url": "https://hk.appledaily.com/entertainment/20200207/LBWKDVWHNDRTHQAHCWGIFXE27E/", "t": "200207 0224", "title": "傳恭碩良有新歡「悲傷選擇分手」 憶蓮8年姊弟戀玩完 - 蘋果日報"}, {"url": "https://hk.celebrity.yahoo.com/8-%E5%B9%B4%E5%A7%8A%E5%BC%9F%E6%88%80%E7%8E%A9%E5%AE%8C%E6%9E%97%E6%86%B6%E8%93%AE%E5%90%8C%E6%81%AD%E7%A2%A9%E8%89%AF%E7%A7%98%E5%AF%86%E5%88%86%E6%89%8B-091609389.html", "t": "200206 1716", "title": "8年姊弟戀玩完！林憶蓮同恭碩良秘密分手 - 雅虎香港新聞"}, {"url": "https://tw.news.yahoo.com/8-%E5%B9%B4%E5%A7%8A%E5%BC%9F%E6%88%80%E6%83%85%E6%96%B7-%E6%9E%97%E6%86%B6%E8%93%AE%E8%AD%89%E5%AF%A6%E5%88%86%E6%89%8B%E6%81%AD%E7%A2%A9%E8%89%AF-083858714.html", "t": "200206 1638", "title": "8年姊弟戀情斷！ 林憶蓮證實分手恭碩良 - Yahoo奇摩新聞"}, {"url": "https://www.mirrormedia.mg/story/20200206ent021", "t": "200206 1818", "title": "又一對佳偶分了！ 林憶蓮情斷交往8年的恭碩良 - 鏡週刊 - 鏡週刊"}, {"url": "http://www.orangenews.hk/officelady/system/2020/02/06/010139047.shtml", "t": "200206 1732", "title": "姊弟戀玩完！林憶蓮與恭碩良結束8年情 - 橙新聞"}, {"url": "https://www.bastillepost.com/hongkong/article/5864138-%E6%9E%97%E6%86%B6%E8%93%AE%E6%81%AD%E7%A2%A9%E8%89%AF%E7%B5%90%E6%9D%9F%E5%85%AB%E5%B9%B4%E6%83%85-%E5%A4%A9%E5%90%8E%E6%84%9F%E6%83%85%E8%B7%AF%E7%A2%B0%E7%81%B0%E4%B8%89%E5%8D%81%E4%BA%94%E5%B9%B4?current_cat=4", "t": "200206 1826", "title": "林憶蓮恭碩良結束八年情天后感情路碰灰三十五年| 娛圈事 - 巴士的報"}, {"url": "https://hk.on.cc/hk/bkn/cnt/entertainment/20200205/bkn-20200205152645506-0205_00862_001.html", "t": "200205 1539", "title": "武漢肺炎疫情影響恭碩良澳門騷延期 - on.cc東網"}, {"url": "https://www.chinapress.com.my/20200206/%E6%9E%97%E5%BF%86%E8%8E%B2%E6%81%AD%E7%A1%95%E8%89%AF8%E5%B9%B4%E5%A7%90%E5%BC%9F%E6%81%8B%E7%8E%A9%E5%AE%8C/", "t": "200206 2300", "title": "林忆莲恭硕良8年姐弟恋玩完 - China Press"}, {"url": "http://www.hxnews.com/news/yl/ylxw/202002/06/1857477.shtml", "t": "200206 1901", "title": "林忆莲恭硕良分手原因林忆莲男友恭硕良出轨了吗林忆莲回应全文_娱乐新闻_娱乐星闻_新闻中心_海峡网 - 海峡都市报"}, {"url": "https://hk.celebrity.yahoo.com/%E8%B3%AD%E5%9F%8E%E9%96%8B%E9%A8%B7%E7%88%86%E6%BB%BF%E8%B6%85%E6%84%9F%E5%8B%95-%E5%9F%8E%E5%9F%8E%E9%97%9C%E5%BF%83%E7%96%AB%E6%83%85-%E7%82%BA%E6%B8%AF%E4%BA%BA%E6%89%93%E6%B0%A3-220324569.html", "t": "200206 0603", "title": "賭城開騷爆滿超感動城城關心疫情為港人打氣 - 雅虎香港新聞"}, {"url": "https://www.singtao.ca/4078108/2020-02-06/post-%E6%9D%8E%E6%99%9F%E7%B4%A0%E9%A1%8F%E5%87%BA%E9%8F%A1%E5%94%B1%E6%AD%8C-%E8%A2%AB2%E6%AD%B2%E5%85%92%E5%AD%90%E3%80%8C%E5%98%B2%E7%AC%91%E3%80%8D/", "t": "200206 1624", "title": "李晟素顏出鏡唱歌被2歲兒子「嘲笑」 - 加拿大星島日報"}, {"url": "https://www.singtao.ca/4067791/2020-01-30/news-%E3%80%90%E6%AD%A6%E6%BC%A2%E8%82%BA%E7%82%8E%E3%80%91%E5%81%95%E5%A6%BB%E6%8D%90300%E8%90%AC%E4%BA%BA%E6%B0%91%E5%B9%A3%E5%8A%A9%E9%98%B2%E7%96%AB+%E5%91%A8%E6%9D%B0%E5%80%AB%E9%A6%99%E6%B8%AF%E9%A8%B7%E6%9A%AB%E5%BB%B6%E8%87%B311%E6%9C%88%E8%88%89%E8%A1%8C/", "t": "200131 1414", "title": "【武漢肺炎】偕妻捐300萬人民幣助防疫周杰倫香港騷暫延至11月舉行 - 加拿大星島日報"}, {"url": "https://tw.news.yahoo.com/video/%E5%AE%89%E5%BF%83%E4%BA%9E-%E5%AE%8B%E6%9F%8F%E7%B7%AF%E6%9C%89%E4%BE%86%E9%9B%BB-%E4%B8%8D%E6%80%95%E7%8E%8B%E6%B7%A8%E5%90%83%E9%86%8B-004950088.html", "t": "200206 0857", "title": "安心亞 宋柏緯有來電 不怕王淨吃醋 - Yahoo奇摩新聞"}, {"url": "https://www.singtao.ca/4067708/2020-01-30/news-%E3%80%90%E6%AD%A6%E6%BC%A2%E8%82%BA%E7%82%8E%E3%80%91%E5%AE%B6%E4%BA%BA%E4%B8%AD%E4%BC%8F%E8%B2%B7%E6%9C%AA%E4%BE%86%E5%8F%A3%E7%BD%A9+%E6%9E%97%E7%86%B9%E7%9E%B3%E8%87%AA%E7%88%86%E5%80%8B%E8%82%BA%E6%9C%89%E4%BA%8B%E5%B1%AC%E9%AB%98%E5%8D%B1%E4%B8%80%E6%97%8F/", "t": "200131 1327", "title": "【武漢肺炎】家人中伏買未來口罩林熹瞳自爆個肺有事屬高危一族 - 加拿大星島日報"}, {"url": "https://www.singtao.ca/4069587/2020-01-31/news-%E3%80%8A%E7%9A%86%E5%A4%A7%E6%AD%A1%E5%96%9C%E3%80%8B%E5%8D%81%E5%A4%9A%E5%BE%8C%E5%B9%B4%E5%86%8D%E8%A6%8B%E9%9D%A2+%E9%8D%BE%E5%98%89%E6%AC%A3%E8%AE%9A%E5%8A%89%E6%84%B7%E5%A8%81%E7%B4%B3%E5%A3%AB%E5%96%84%E8%89%AF%E6%B2%92%E8%AE%8A%E9%81%8E/", "t": "200201 1440", "title": "《皆大歡喜》十多後年再見面鍾嘉欣讚劉愷威紳士善良沒變過 - 加拿大星島日報"}, {"url": "https://www.singtao.ca/4060164/2020-01-26/news-%E3%80%90%E9%AB%98%E6%AF%94%E5%A2%AE%E6%A9%9F%E4%BA%A1%E3%80%91%E6%88%BF%E7%A5%96%E5%90%8D%E9%86%89%E9%85%92%E5%93%80%E6%82%BC+%E6%9E%97%E7%86%99%E8%95%BE%E9%9B%A3%E4%BB%A5%E6%8E%A5%E5%8F%97/", "t": "200126 1600", "title": "【高比墮機亡】房祖名醉酒哀悼林熙蕾難以接受 - 加拿大星島日報"}, {"url": "https://www.singtao.ca/4053739/2020-01-23/news-%E3%80%90%E5%9A%87%E4%BA%BA%E3%80%8A%E5%87%B6%E6%AB%83%E3%80%8B%E3%80%91%E9%A6%96%E5%BA%A6%E6%8C%91%E6%88%B0%E6%81%90%E6%80%96%E7%89%87++%E6%B2%B3%E6%AD%A3%E5%AE%87%E5%80%8B%E5%A5%B3%E7%95%80%E8%A1%A3%E6%AB%83%E9%A3%9F%E5%92%97/", "t": "200123 1600", "title": "【嚇人《凶櫃》】首度挑戰恐怖片河正宇個女畀衣櫃食咗 - 加拿大星島日報"}, {"url": "https://www.singtao.ca/4064115/2020-01-29/news-%E3%80%90%E6%AD%A6%E6%BC%A2%E8%82%BA%E7%82%8E%E3%80%91%E3%80%8A2020%E5%9C%8B%E9%9A%9B%E4%B8%AD%E8%8F%AF%E5%B0%8F%E5%A7%90%E7%AB%B6%E9%81%B8%E3%80%8B%E5%AE%A3%E4%BD%88%E5%BB%B6%E6%9C%9F/", "t": "200129 1600", "title": "【武漢肺炎】《2020國際中華小姐競選》宣佈延期 - 加拿大星島日報"}], "summary": "恭碩良（Joventino Couto Remotigue, Jun Kung，1977年8月18日－），又名李尊傑、李祖倫，澳門土生葡人，是香港、澳門創作歌手、鼓手及唱片監製。目前以創作歌手的形象，在澳門、香港及中國大陸發展。"}
{"term": "湖人 火箭", "tdh": "2020020709", "tdate": "20200207", "links": [{"url": "https://nba.udn.com/nba/story/6780/4328465", "t": "200207 1413", "title": "衛少砍41分助火箭升空 新援末節攻守俱佳克湖人 - NBA 台灣 | 聯合新聞網"}, {"url": "https://sports.ltn.com.tw/news/breakingnews/3060428", "t": "200207 1534", "title": "衛少狂轟41分、無中鋒火箭擊敗湖人 今日NBA戰績 - 自由時報電子報"}, {"url": "https://tw.sports.yahoo.com/news/nba-%E6%A5%B5%E8%87%B4%E5%B0%8F%E7%90%83%E5%A5%8F%E6%95%88-%E7%81%AB%E7%AE%AD%E5%8A%9B%E5%85%8B%E6%B9%96%E4%BA%BA-065032207.html", "t": "200207 1450", "title": "NBA／極致小球奏效 火箭力克湖人 - Yahoo奇摩運動"}, {"url": "https://nba.udn.com/nba/story/6780/4323271", "t": "200205 1319", "title": "詹姆斯外線連發超越布萊恩 湖人痛宰馬刺 - NBA 台灣 | 聯合新聞網"}, {"url": "https://www.sportsv.net/articles/71366", "t": "200205 1529", "title": "Clint Capela交易案-淺談火箭死亡五小 - 運動視界 Sports Vision"}, {"url": "https://nba.udn.com/nba/story/6780/4297789", "t": "200120 1600", "title": "火箭苦吞3連敗 衛少：保持正向 - NBA 台灣 | 聯合新聞網"}, {"url": "https://nba.udn.com/nba/story/6780/4296686", "t": "200119 1600", "title": "MVP連線繳69分無用 詹皇領湖人再讓火箭失速 - NBA 台灣 | 聯合新聞網"}, {"url": "https://nba.udn.com/nba/story/10718/4327071", "t": "200207 0700", "title": "爭冠強隊難作交易火箭與76人小賭補強| NBA 台灣 - NBA 台灣 | 聯合新聞網"}, {"url": "https://udn.com/news/story/7002/4295090", "t": "200118 1600", "title": "NBA／湖人教頭少AD很焦慮 對戰火箭可能回歸 - NBA 台灣 | 聯合新聞網"}, {"url": "https://nba.udn.com/nba/story/12608/4299672", "t": "200121 1600", "title": "是紙老虎還是真有料？火箭MVP雙星實驗挫敗？ - NBA 台灣 | 聯合新聞網"}, {"url": "https://nba.udn.com/nba/story/6780/4327732", "t": "200207 0904", "title": "明星賽隊長選秀 詹皇、安戴托昆波隊陣容確定 - NBA 台灣 | 聯合新聞網"}, {"url": "https://www.chinatimes.com/realtimenews/20200207001698-260403", "t": "200207 1026", "title": "NBA》湖人差點送走庫茲馬 尼克太貪告吹 - 中時電子報 Chinatimes.com"}, {"url": "https://udn.com/news/story/7002/4292362", "t": "200117 1600", "title": "哈登、衛少各打各的火箭團隊問題愈來愈多| 聯合新聞網：最懂你的新聞網站 - NBA 台灣 | 聯合新聞網"}, {"url": "https://www.chinatimes.com/realtimenews/20200114002787-260403", "t": "200114 1600", "title": "《時來運轉》單場暨場中投注 NBA湖人火箭對轟 - 中時電子報 Chinatimes.com"}, {"url": "https://tw.appledaily.com/sports/20200207/LOQMQUUGP6R3FCEAVVXDDH7IYU/", "t": "200207 1405", "title": "【NBA全紀錄】今日5場賽事火箭「死亡5小」勝湖人 - 台灣蘋果日報"}, {"url": "https://www.sportsv.net/articles/71363", "t": "200205 1422", "title": "火箭的現在，與老鷹、灰狼的未來---火箭、灰狼、老鷹、金塊四隊交易 - 運動視界 Sports Vision"}, {"url": "https://nba.udn.com/nba/story/6780/4327809", "t": "200207 1016", "title": "被交易至騎士 佐蒙德：更意識到這只是生意 - NBA 台灣 | 聯合新聞網"}, {"url": "https://udn.com/news/story/11313/4312938", "t": "200130 2359", "title": "NBA／8年生涯首次大三元 里拉德：非追逐的目標 - udn 聯合新聞網"}, {"url": "https://sports.ltn.com.tw/news/breakingnews/3060447", "t": "200207 0857", "title": "NBA》東契奇攜手詹皇！全明星賽兩隊名單出爐 - 自由時報電子報"}, {"url": "https://nba.udn.com/nba/story/6780/4295515", "t": "200118 1600", "title": "威廉森首戰受矚目 金塊火箭之戰全美直播遭取消 - NBA 台灣 | 聯合新聞網"}], "summary": "洛杉磯湖人（英語：Los Angeles Lakers）是一支位於美國加利福尼亞州洛杉磯的NBA籃球隊，分屬於西區的太平洋組，主場為斯台普斯中心。拥有悠久且辉煌历史，其前身为明尼阿波利斯湖人（Minneapolis Lakers），在明尼阿波利斯时期获得过5个总冠军，1959年球队迁至洛杉矶後，获得11次NBA总冠军，至今合計共奪得16次總冠軍，仅次於波士顿凯尔特人的17次。"}
{"term": "陽明大學", "tdh": "2020020709", "tdate": "20200207", "links": [{"url": "https://health.udn.com/health/story/120951/4327587", "t": "200207 0009", "title": "感染就賠100萬！陽明校長開祭品文盼口罩留需要的人| 專家觀點| 武漢肺炎 - udn 元氣網"}, {"url": "https://money.udn.com/money/story/11800/4300318", "t": "200121 1600", "title": "陽明大學團隊發現代謝益生菌 可降低體脂肪累積 - 經濟日報"}, {"url": "http://globalnewstv.com.tw/202002/96054/", "t": "200206 1957", "title": "突破! 陽明交大北榮聯手研發快篩試劑 - 寰宇新聞網"}, {"url": "https://times.hinet.net/mobile/news/22749722", "t": "200121 1600", "title": "亞洲大學商設系國際生參訪陽明大學復健實驗室 - HiNet 新聞社群"}, {"url": "https://tw.news.yahoo.com/%E9%98%B2%E7%96%AB%E5%8A%9F%E8%87%A3%E9%82%84%E6%9C%89%E4%BB%96-%E8%8E%8A%E4%BA%BA%E7%A5%A5%E8%B6%85%E5%BC%B7%E8%83%8C%E6%99%AF%E6%9B%9D%E5%85%89-102010762.html", "t": "200205 2225", "title": "防疫功臣還有他！莊人祥超強背景曝光 - Yahoo奇摩新聞"}, {"url": "https://www.cna.com.tw/news/aipl/202002070168.aspx", "t": "200207 1500", "title": "美專家肯定台灣防疫 陳副總統盼民眾要有信心 - 中央社即時新聞"}, {"url": "https://tw.news.yahoo.com/%E9%99%BD%E6%98%8E%E5%A4%A7%E5%AD%B8%E9%99%84%E8%A8%AD%E9%86%AB%E9%99%A2%E5%B1%85%E5%AE%B6%E8%AD%B7%E7%90%86%E6%89%80%E8%BE%A6%E6%96%B0%E6%B0%91%E6%A8%82%E6%99%BA%E6%93%9A%E9%BB%9E%E6%88%90%E6%9E%9C%E5%B1%95-091732991.html", "t": "200117 1600", "title": "陽明大學附設醫院居家護理所辦新民樂智據點成果展 - Yahoo奇摩新聞"}, {"url": "https://www.ettoday.net/news/20200203/1636617.htm", "t": "200203 2011", "title": "不斷更新／義守大學3/2開學集中管理陸生14天！各縣市「寒輔暫停」一次看 - ETtoday"}, {"url": "https://news.ltn.com.tw/news/life/paper/1350164", "t": "200207 0530", "title": "武漢肺炎》瑞德西韋新藥 台大醫院將申請引進 - 自由時報電子報"}, {"url": "https://heho.com.tw/archives/66918", "t": "200206 1751", "title": "武漢肺炎/人傳人後進化病毒「驚人突變」！專家：防疫更困難 - Heho健康"}, {"url": "https://news.ltn.com.tw/news/life/breakingnews/3060570", "t": "200207 1114", "title": "武漢肺炎》醫院酒精整瓶被帶走 羅東博愛籲要有公德心 - 自由時報電子報"}, {"url": "https://www.gvm.com.tw/article/70468", "t": "200113 1600", "title": "「國內留學」正夯！不必出國也能當交換學生 - 遠見雜誌"}, {"url": "https://news.sina.com.tw/article/20200205/34145640.html", "t": "200205 1556", "title": "防疫漏洞？醫院外滿地用過口罩宜衛生局長說話了-生活新聞 - 臺灣新浪網"}, {"url": "https://tw.appledaily.com/life/20200203/33HPKK6XRB4I72JZTUAILAKJLM/", "t": "200203 1705", "title": "【武漢肺炎】同步防疫！ 台大系統3校、陽明延至3/2開學 - 台灣蘋果日報"}, {"url": "https://tw.news.yahoo.com/%E6%AD%A6%E6%BC%A2%E8%82%BA%E7%82%8E%E8%A1%9D%E6%93%8A-%E4%BB%8A%E5%A2%9E22%E6%A0%A1%E5%AE%A3%E5%B8%833-2%E9%96%8B%E5%AD%B8-%E6%94%BF%E5%A4%A7%E7%AD%89%E6%A0%A12-25-105718705.html", "t": "200204 1938", "title": "武漢肺炎衝擊／今增22校宣布3/2開學 政大等校2/25 - Yahoo奇摩新聞"}, {"url": "https://www.mirrormedia.mg/story/20200206soc001", "t": "200206 0943", "title": "【全民防疫】醫院外廢棄口罩丟滿地 民眾憂成防疫漏洞 - 鏡週刊 - 鏡週刊"}, {"url": "https://www.ettoday.net/news/20200204/1638027.htm", "t": "200204 1959", "title": "中山大學傑出一手！神操作吃掉2連假 網看傻：我全都要！ - ETtoday"}, {"url": "https://times.hinet.net/news/22762576", "t": "200201 0900", "title": "武漢肺炎被列為國際公衛緊急事件，對台灣有什麼影響？ - HiNet 新聞社群"}, {"url": "https://udn.com/news/story/7314/4317172", "t": "200202 1645", "title": "期刊是隱匿武漢肺炎疫情共犯？學者：期刊和中國學者都應踹共 - udn 聯合新聞網"}, {"url": "https://udn.com/news/story/6885/4222529", "t": "191212 1600", "title": "唐心北記過只撤一半？陽明大學：查到的處分都撤除 - udn 聯合新聞網"}], "summary": "國立陽明大學（英語：National Yang Ming University），前身為「國立陽明醫學院」，是中華民國第一所，也是現時唯一一所，以醫學教育為主之國立大學，位於臺北市北投區，以醫學、生命科學、生物科技研究為主要研究領域。現設有醫學院、生物醫學暨工程學院、生命科學院、護理學院、牙醫學院、人文與社會科學院及藥物科學院，共計有7個學院、11個學士班（含1個學士學位學程及1個不分系）、33個碩士班（含3個碩士學位學程）、4個碩士在職專班（含1個碩士在職學位學程），以及31個博士班（含8個博士學位學程），並有5間大型教學醫院（臺北榮總、臺中榮總、高雄榮總、臺北市立聯合醫院、亞東醫院）及1間附設醫院（陽大附醫）。\n2000年，陽明大學成為「台灣聯合大學系統」創始成員之一。2002年，與國立政治大學、臺北市立聯合醫院締結學術結盟，成立「聯盟醫療系統」，並組成「政陽團隊」開設臺灣心智科學腦造影中心。陽明大學在各項指標排名中，皆榜上有名，在生醫領域內更有著深厚的學術基礎2019年9月18日，國立陽明大學及國立交通大學兩校校務會議皆通過合併計畫書，預計將合併為「國立陽明交通大學」（National Yang-Ming Chiao Tung University, YMCT），簡稱陽明交大，其合併計畫書將送教育部審查。　"}
{"term": "國台辦", "tdh": "2020020709", "tdate": "20200207", "links": [{"url": "https://www.cna.com.tw/news/firstnews/202002070025.aspx", "t": "200207 0853", "title": "國台辦稱助近千人返台3天飛5航班 陸委會：急就章 - 中央社即時新聞"}, {"url": "https://talk.ltn.com.tw/article/breakingnews/3060366", "t": "200207 0936", "title": "胡，怎麼說》以疫謀獨？木馬屠城！中國國台辦還在哈囉鬼扯！ - 自由電子報 自由評論網 - 自由時報電子報"}, {"url": "https://tw.news.yahoo.com/video/%E5%9C%8B%E5%8F%B0%E8%BE%A6-%E6%9D%B1%E8%88%AA%E7%94%B3%E8%AB%8B3%E5%A4%A9%E5%9F%B7%E9%A3%9B5%E8%88%AA%E7%8F%AD-979%E4%BA%BA%E8%BF%94%E5%8F%B0%E5%90%8D%E5%96%AE%E5%B7%B2%E6%8F%90%E4%BA%A4-054421888.html", "t": "200207 1357", "title": "國台辦：東航申請3天執飛5航班 979人返台名單已提交 - Yahoo奇摩新聞"}, {"url": "https://www.setn.com/News.aspx?NewsID=685203", "t": "200207 1247", "title": "返台民眾驚爆「根本沒檢疫」國台辦竟回：任務完成群組解散 - 三立新聞網"}, {"url": "https://udn.com/news/story/7331/4326677", "t": "200206 1929", "title": "國台辦：賴清德訪美 「台獨」卑鄙伎倆遭人唾棄 - udn 聯合新聞網"}, {"url": "https://www.chinatimes.com/realtimenews/20200205002929-260407", "t": "200205 1449", "title": "第2班武漢包機生變 國民黨：應由國台辦與陸委會溝通 - 中時電子報 Chinatimes.com"}, {"url": "https://newtalk.tw/news/view/2020-02-05/362246", "t": "200205 1106", "title": "國台辦要民進黨停止炒作陳柏惟嗆：中共還有心力反過頭批台灣？ | 政治 - 新頭殼"}, {"url": "https://news.ltn.com.tw/news/world/breakingnews/3060627", "t": "200207 1332", "title": "武漢肺炎》首批包機返台成員爆：沒抽血檢疫就登機、名單國台辦通知 - 自由電子報市場動態"}, {"url": "https://newtalk.tw/news/view/2020-01-29/359261", "t": "200129 1600", "title": "國台辦未同意讓台撤僑范雲：中共眼中的台灣人就只有統戰價值| 政治 - 新頭殼"}, {"url": "https://ent.ltn.com.tw/news/breakingnews/3058629", "t": "200205 1758", "title": "批徐正文與國台辦胡搞返台包機 黃光芹：偷渡者應原機遣返 - 自由娛樂"}, {"url": "https://www.chinatimes.com/realtimenews/20200204002480-260409", "t": "200204 1303", "title": "國台辦：民進黨應停止以疫情為藉口的政治炒作 - 中時電子報"}, {"url": "https://tw.news.yahoo.com/%E5%8C%85%E6%A9%9F%E6%92%A4%E6%AD%A6%E6%BC%A2%E5%8F%B0%E8%83%9E-%E5%9C%8B%E5%8F%B0%E8%BE%A6%E7%B5%A6%E4%BA%86%E8%BB%9F%E9%87%98%E5%AD%90-063009631.html", "t": "200128 1600", "title": "包機撤武漢台胞？ 國台辦給了軟釘子 - Yahoo奇摩新聞"}, {"url": "https://news.ltn.com.tw/news/politics/breakingnews/3041002", "t": "200115 1600", "title": "被問「恐中牌」奏效…中國國台辦尷尬不回應 - 自由時報電子報"}, {"url": "https://news.ltn.com.tw/news/politics/breakingnews/3044215", "t": "200118 1600", "title": "國台辦「台灣前途由中國人決定」 王世堅一句話嗆爆 - 自由時報電子報"}, {"url": "https://www.mirrormedia.mg/story/20200130edi004", "t": "200129 1600", "title": "【疫情擴散】國台辦未同意撤僑 范雲：把在武漢台灣人當人質？ - 鏡週刊 - 鏡週刊"}, {"url": "https://www.ntdtv.com/b5/2020/01/12/a102751037.html", "t": "200112 1600", "title": "國台辦主任劉結一將被撤換？線索已送中紀委 - NTDTV"}, {"url": "https://www.storm.mg/article/2197885", "t": "200118 1600", "title": "國台辦前副主任王在希：未來4年兩岸關係「冷對抗」，北京5項作法應對台灣現況 - 風傳媒"}, {"url": "https://news.ltn.com.tw/news/politics/breakingnews/3043990", "t": "200118 1600", "title": "將對台商秋後算帳？傳國台辦嗆：挺藍綠絕對有「差別待遇」 - 自由時報電子報"}, {"url": "https://news.ltn.com.tw/news/politics/breakingnews/3038107", "t": "200111 1600", "title": "李戡諷國台辦「哭暈在廁所」 微博帳號竟「被消失」 - 自由時報電子報"}, {"url": "https://news.ltn.com.tw/news/politics/paper/1346396", "t": "200116 1600", "title": "小檔案》台企聯 國台辦是背後靠山 - 自由時報電子報"}], "summary": "中共中央台湾工作办公室（简称中共中央台办、中央台办或中台办）和国务院台湾事务办公室（简称国务院台办或国台办）为一个机构两块牌子，列入中共中央直属机构序列。是中央对台工作领导小组的办事机构。是贯彻执行中共中央、国务院确定的对台工作的方针政策的机构。在不同情况使用不同名称，如对在中國大陆投資的台商及工作的台籍工人称“国台办”，对在中华民国政党使用“中共中央台湾工作办公室”的名义。"}
{"term": "吳欣岱", "tdh": "2020020709", "tdate": "20200207", "links": [{"url": "https://udn.com/news/story/120940/4328089", "t": "200207 1204", "title": "基進黨不分區提名人 發起醫護連署支持政府防疫底線 - udn 聯合新聞網"}, {"url": "https://www.chinatimes.com/realtimenews/20200207003238-260407", "t": "200207 1556", "title": "罷韓擺桌遭驅趕 基進前不分區吳欣岱推堅守防疫連署 - 中時電子報"}, {"url": "https://newtalk.tw/news/view/2020-01-12/353681", "t": "200112 1600", "title": "陳增芝觀點》國民黨還要拖延第二次「土斷」嗎？ | 政治 - 新頭殼"}, {"url": "https://taronews.tw/2020/01/10/583891/", "t": "200110 1600", "title": "台灣基進選前之夜衝破萬人吳音寧呼籲政黨票投5號台灣基進 - 芋傳媒 TaroNews"}, {"url": "https://www.setn.com/News.aspx?NewsID=669833", "t": "200110 1600", "title": "力挺3Q陳柏惟…吳音寧：台派與中國的最大對決！ - 三立新聞網"}, {"url": "https://m.ltn.com.tw/news/politics/breakingnews/3059149", "t": "200206 0817", "title": "「還有貼紙嗎」？台灣基進今晚瑞豐夜市送罷韓貼紙 - 自由時報電子報"}, {"url": "https://tw.mobi.yahoo.com/news/%E8%B2%A0%E5%A3%93%E9%9A%94%E9%9B%A2%E5%83%851100%E5%BA%8A-%E9%86%AB%E8%AD%B7%E9%80%A3%E7%BD%B2%E5%AE%88%E4%BD%8F%E5%BA%95%E7%B7%9A-%E6%8B%92%E7%84%A1%E9%99%90%E5%8C%85%E6%A9%9F-084702646.html", "t": "200207 1647", "title": "負壓隔離僅1100床 醫護連署守住底線：拒無限包機 - Yahoo奇摩"}, {"url": "https://newtalk.tw/news/view/2019-12-28/346840", "t": "191228 1600", "title": "郭台銘酸洪慈庸忙著生小孩基進黨吳欣岱抱不平| 政治 - 新頭殼"}, {"url": "https://news.ltn.com.tw/news/politics/breakingnews/3003352", "t": "191209 1600", "title": "國民黨道歉卻稱女警「怪阿姨」 吳欣岱：沒看過如此無恥政黨 - 自由時報電子報"}, {"url": "https://newtalk.tw/news/view/2019-12-02/334491", "t": "191202 1600", "title": "台灣基進不分區醫師嗆滕西華：動用立委喬病床| 政治 - 新頭殼"}, {"url": "https://www.setn.com/News.aspx?NewsID=659781", "t": "191224 1600", "title": "94要客訴／這樣估票很準？台灣基進吳欣岱：我看門診 - 三立新聞網"}, {"url": "https://taronews.tw/2019/11/26/541193/", "t": "191126 1600", "title": "盼翻轉男性沙文台灣基進吳欣岱：解放全台陳佩琪 - 芋傳媒 TaroNews"}, {"url": "https://www.dwnews.com/%E5%8F%B0%E6%B9%BE/60167527/%E5%8F%B0%E7%8B%AC%E6%94%BF%E5%85%9A%E5%A5%B3%E5%8C%BB%E5%B8%88%E5%8F%91%E8%B5%B7%E5%8C%BB%E6%8A%A4%E8%BF%9E%E7%BD%B2%E6%8B%92%E7%BB%9D%E6%97%A0%E9%99%90%E5%88%B6%E5%8C%85%E6%9C%BA%E8%BF%94%E5%8F%B0", "t": "200207 1650", "title": "台独政党女医师发起医护连署“拒绝无限制包机返台” - 多维新闻网"}, {"url": "https://taronews.tw/2019/11/23/538723/", "t": "191123 1600", "title": "柯文哲高雄掃街台灣基進醫生嗆：高雄不缺檳榔政客 - 芋傳媒 TaroNews"}, {"url": "https://newtalk.tw/news/view/2019-11-14/326867", "t": "191114 1600", "title": "台灣基進公布不分區名單第三名留空努力爭取「正確人選」 | 政治 - 新頭殼"}, {"url": "https://tw.appledaily.com/politics/20191226/3XG2KZOTCM26MA45FHMZGCWR5I/", "t": "191226 1600", "title": "爸媽是韓粉！「韓粉家屬」吳欣岱被出征後不氣了 - 台灣蘋果日報"}, {"url": "https://www.ettoday.net/news/20200204/1637556.htm", "t": "200204 1154", "title": "雲端最前線／公開收容所引恐慌？200多人武漢包機返台 - ETtoday 新聞雲"}, {"url": "https://news.ltn.com.tw/news/politics/breakingnews/3017839", "t": "191222 1600", "title": "韓國瑜抱嬰兒害狂哭仍造勢 美女醫批：氣憤與難過 - 自由時報電子報"}, {"url": "https://www.setn.com/News.aspx?NewsID=659029", "t": "191223 1600", "title": "被韓國瑜捧吻女嬰痛哭！美女醫師建議：抱孩前先洗手 - 三立新聞網"}, {"url": "https://living.taronews.tw/2019/11/21/536033/", "t": "191121 1600", "title": "柯文哲又失言稱抗議者「精神分裂」醫師砲轟：柯才有三大分裂 - 芋傳媒 TaroNews"}], "summary": "馬岱（183年－?），司隸右扶風茂陵人，中國三国蜀漢重要將領，馬騰的侄輩，馬超的堂弟，官至蜀漢平北将军，封陈仓侯。"}
{"term": "Andrew Wiggins", "tdh": "2020020709", "tdate": "20200207", "links": [{"url": "https://www.sportsv.net/articles/71422", "t": "200207 1239", "title": "Wiggins真的那麼不堪嗎:談勇士灰狼交易案 - 運動視界 Sports Vision"}, {"url": "https://www.sportsv.net/articles/69215", "t": "191116 1600", "title": "不一樣的狼嚎：Andrew Wiggins 做了什麼迎來爆發？ - 運動視界 Sports Vision"}, {"url": "https://www.sportsv.net/articles/55811", "t": "180921 1500", "title": "Wiggins如何讓人失望？ 他曾被認為是攻防無上限的天才。 - 運動視界"}], "summary": "安德鲁·威金斯（英語：Andrew Wiggins，1995年2月23日－），加拿大职业篮球运动员，現效於NBA金州勇士，綽號「圍巾」「枸杞哥」「養生曼巴」。在2014年NBA选秀上，他以第1顺位被克里夫兰骑士选中，成为继安东尼·贝内特之后第二位加拿大籍狀元，隨後被交易至明尼蘇達灰狼以交換凱文·洛夫。他不但被誉为自勒布朗·詹姆士後最強的高中球员，而且更被譽爲NBA明日之星\n最愛打養生籃球。結果在2014-15年賽季一如外界所料，奪得NBA年度最佳新秀。安德鲁·威金斯同時也是加拿大國家男子籃球隊的成員。"}
{"term": "李俊俋", "tdh": "2020020709", "tdate": "20200207", "links": [{"url": "https://www.cna.com.tw/news/firstnews/202002065012.aspx", "t": "200206 2025", "title": "李俊俋接總統府副秘書長 負責與立委溝通 - cna.com"}, {"url": "http://www.rti.org.tw/news/view/id/2050659", "t": "200206 1852", "title": "總統府發布人事李俊俋任副祕書長 - 中央廣播電台"}, {"url": "https://www.storm.mg/article/2205156", "t": "200125 1600", "title": "民進黨團最「坦」的立委 李俊俋卸任前再抛憲改議題 - 風傳媒"}, {"url": "https://www.chinatimes.com/realtimenews/20200112002068-260407", "t": "200112 1600", "title": "民進黨立委李俊俋 拋蔡英文歷史定位 - 中時電子報 Chinatimes.com"}, {"url": "https://news.ltn.com.tw/news/politics/breakingnews/3046095", "t": "200120 1600", "title": "聲請憲法法庭審理統促黨？李俊俋：有些莫名 - 自由時報電子報"}, {"url": "https://www.chinatimes.com/realtimenews/20200204002699-260407", "t": "200204 1336", "title": "蔡其昌點名為國服務 李俊俋這麼說….. - 中時電子報 Chinatimes.com"}, {"url": "https://news.cts.com.tw/cts/politics/202001/202001201988252.html", "t": "200120 1600", "title": "被點名入閣蕭美琴.李俊俋想先休息 - 華視新聞"}, {"url": "http://www.epochtimes.com/b5/20/1/8/n11777202.htm", "t": "200108 2129", "title": "本屆立院通過635法案 李俊俋籲：讓國會繼續過半 - 大紀元"}, {"url": "https://www.chinatimes.com/realtimenews/20200113001928-260407", "t": "200113 1600", "title": "綠委：今立院黨團協商討論臨時會時間 希望越快越好 - 中時電子報 Chinatimes.com"}, {"url": "https://udn.com/news/story/12702/4283790", "t": "200112 1600", "title": "蔡英文新任期內政 國家養等改革會做 - udn 聯合新聞網"}, {"url": "https://udn.com/news/story/11311/4291209", "t": "200116 1600", "title": "從政不靠爸 民進黨綠委多從助理做起 - udn 聯合新聞網"}, {"url": "https://udn.com/news/story/6656/4281782", "t": "200111 1600", "title": "民進黨嘉市立委候選人王美惠 自行宣布當選 - udn 聯合新聞網"}, {"url": "http://globalnewstv.com.tw/202001/94290/", "t": "200120 1600", "title": "蘇內閣將微調? 林靜儀李俊俋入閣呼聲高 - 寰宇新聞網"}, {"url": "https://www.storm.mg/article/1942233", "t": "191112 1600", "title": "未列不分區名單「不必找理由」 李俊俋等立委發表「畢業感言」 - 風傳媒"}, {"url": "https://www.nownews.com/news/20200111/3879246/", "t": "200111 1600", "title": "巷仔內／全壘打！嘉義3席民進黨全拿老將陳明文險勝| 2020大選專頁-最新消息 - NOWnews"}, {"url": "https://udn.com/news/story/6656/4277399", "t": "200109 1600", "title": "王立強案 綠委質疑蔡正元公布內容套招作假 - udn 聯合新聞網"}, {"url": "https://www.storm.mg/article/1986147", "t": "191124 1600", "title": "李俊俋初選落敗仍扛下黨團幹部 卓榮泰承諾「未來一定進執政團隊」 - 風傳媒"}, {"url": "https://udn.com/news/story/9261/4283330", "t": "200112 1600", "title": "民眾黨成第三大黨綠委：考驗新國會運作| 聯合新聞網：最懂你的新聞網站 - udn 聯合新聞網"}, {"url": "http://www.taihainet.com/news/twnews/twdnsz/2020-02-07/2353084.html", "t": "200207 0956", "title": "民进党前“立委”李俊俋接任蔡英文办公室副秘书长 - 台海网"}, {"url": "https://udn.com/news/story/7548/3776485", "t": "190425 1500", "title": "李俊俋立委初選落敗綠委：難以置信很難接受| 聯合新聞網：最懂你的新聞網站 - udn 聯合新聞網"}], "summary": "中華民國總統府副祕書長(2020年2月7日至今)李俊俋（Lee, Chun-Yi，1965年7月6日－），臺灣政治人物，出生於嘉義市，為民主進步黨黨籍，喬治華盛頓大學政治研究所博士班結業，曾經擔任擔任淡江大學兼任講師，行政院人事行政局參事，嘉義市副市長，銓敘部政務次長，總統府國策顧問兼憲改辦公室主任，2011年5月25日，李俊俋獲民主進步黨徵召，代表民進黨參選2012年立法委員選舉對上國民黨的時任立委江義雄，決戰嘉義市選區，最終以四百三十七票之差，險勝尋求連任的立委江義雄。\n李俊俋的父親是在陳水扁政府時代有「國師」之稱的憲法專家、臺大法律系教授李鴻禧教授。\n2016年1月16日，李俊俋代表民進黨角逐2016年立法委員選舉以7萬3,965票順利連任。\n2016年7月6日，立法院內政委員會審理刪除公寓大廈不得飼養動物規約的「公寓大廈管理條例部分條文修正草案」時表示「若真修法，住戶以後在公寓大廈內養牛、養豬怎麼辦？」2016年7月15日，對於南海仲裁案認定太平島是岩礁，李俊俋表示，太平島周邊海域不是我國經濟海域，仲裁對漁民暫不影響，不要用義和團方式解決問題，要真正面對國際情勢，我國宣稱有太平島主權，非常明確，但有無必要在此時宣稱200海里經濟海域，要有智慧。2019年4月25日，李俊俋在民進黨立委初選中以28.14%敗給現任嘉義市議員王美惠的34.33％，成為民進黨首位現任初選未過關的立委。2020年2月6日晚上，總統府宣布由前嘉義市立委李俊俋出任總統府副秘書長，並於2月7日凌晨0點起正式生效。"}
