{"term": "中古小姐", "tdh": "2020020710", "tdate": "20200207", "links": [{"url": "https://tw.nextmgz.com/realtimenews/news/490798", "t": "200207 1440", "title": "〈兩罩說法〉中古小姐暗諷范瑋琪撈千萬愛裝熟陳建州護妻槓上：行為太惡劣 - 台灣壹週刊"}, {"url": "https://ent.ltn.com.tw/news/breakingnews/3056304", "t": "200203 1800", "title": "太假掰！范瑋琪私下愛裝熟 網紅爆「撈千萬露狗樣」內幕 - 自由時報電子報"}, {"url": "https://stars.udn.com/star/story/10091/4309970", "t": "200129 1600", "title": "飆罵狗官道歉救火失敗 她揭密范瑋琪假掰真相 - udn 聯合新聞網"}, {"url": "https://tw.news.yahoo.com/%E6%9B%9D%E5%A5%B3%E6%98%9F%E6%92%88%E5%8D%83%E8%90%AC%E6%84%9B%E8%A3%9D%E7%86%9F-%E5%81%87%E6%8E%B0%E7%8B%97%E6%A8%A3-%E6%97%85%E6%97%A5%E4%BD%9C%E5%AE%B6%E9%BB%9E%E5%90%8D-%E5%B0%8D-%E5%B0%B1%E6%98%AF%E5%A5%B9-042646326.html", "t": "200204 1226", "title": "曝女星撈千萬愛裝熟「假掰狗樣」 旅日作家點名「對！就是她」 - Yahoo奇摩新聞"}, {"url": "https://www.hk01.com/%E5%8D%B3%E6%99%82%E5%A8%9B%E6%A8%82/427693/%E5%8F%B0%E5%A5%B3%E4%BD%9C%E5%AE%B6%E5%98%B2%E7%82%BA%E5%8D%83%E8%90%AC%E4%BB%A3%E8%A8%80%E8%B2%BB%E9%9C%B2-%E7%8B%97%E6%A8%A3-%E7%B6%B2%E5%8F%8B%E6%8E%A8%E6%B8%AC%E7%9F%9B%E9%A0%AD%E7%9B%B4%E6%8C%87%E8%8C%83%E7%91%8B%E7%90%AA", "t": "200129 1600", "title": "台女作家嘲為千萬代言費露「狗樣」 網友推測矛頭直指范瑋琪 - 香港01"}, {"url": "https://www.chinatimes.com/realtimenews/20200204001569-260404", "t": "200204 0934", "title": "爆女星撈千萬私下假掰狗樣 旅日作家直接公開她是誰！ - 中時電子報 Chinatimes.com"}, {"url": "https://tw.news.yahoo.com/%E9%8F%A1%E6%96%87%E5%8C%96%E6%9B%B8%E8%A9%95-%E5%B0%87%E8%BD%89%E5%9E%8B-%E7%B3%BB%E5%88%97%E5%BC%8F%E5%B0%88%E9%A1%8C%E8%88%87%E7%B6%93%E5%85%B8%E6%9B%B8%E7%B1%8D%E5%B0%8E%E8%AE%80%E5%B0%87%E6%96%BC-%E9%8F%A1%E5%A5%BD%E8%81%BD-%E8%81%B2%E9%9F%B3%E5%B9%B3%E5%8F%B0%E6%8E%A8%E5%87%BA-023606491.html", "t": "200207 1036", "title": "〈鏡文化書評〉將轉型 系列式專題與經典書籍導讀將於《鏡好聽》聲音平台推出 - Yahoo奇摩新聞"}, {"url": "https://www.chinapress.com.my/20200204/%E8%8C%83%E7%8E%AE%E7%90%AA%E8%A2%AB%E7%88%86%E7%A7%81%E4%B8%8B%E7%88%B1%E8%A3%85%E7%86%9F/", "t": "200204 1509", "title": "范玮琪被爆私下爱装熟 - China Press"}, {"url": "http://www.sohu.com/a/371176080_114941", "t": "200207 0950", "title": "陈建州为护妻狂怼网红被网友嘲讽\"柿子只捡软的捏\"_陈沂 - 搜狐"}, {"url": "https://tw.news.yahoo.com/video/%E5%A8%9B%E6%A8%82%E9%80%8F%E8%A6%96-%E8%AA%AA-%E5%8F%A3%E5%A5%BD%E9%BB%98%E7%89%87-%E5%91%A8%E9%98%B2%E6%AD%A3%E8%A1%8C%E6%AD%A1%E7%AC%91%E9%87%8D%E7%8F%BE%E9%9B%BB%E5%BD%B1%E6%B5%81%E8%AE%8A-233000400.html", "t": "200126 1600", "title": "娛樂透視》說一口好默片 周防正行歡笑重現電影流變 - Yahoo奇摩新聞"}, {"url": "https://tw.news.yahoo.com/video/%E8%87%B4%E6%95%AC%E9%86%AB%E8%AD%B7%E5%93%A1-%E6%8C%A8%E8%BD%9F-%E6%AD%90%E9%99%BD%E5%A8%9C%E5%A8%9C%E9%81%AD%E5%97%86%E8%B9%AD%E7%86%B1%E5%BA%A6-071708572.html", "t": "200125 1600", "title": "「致敬醫護員」挨轟！ 歐陽娜娜遭嗆蹭熱度 - Yahoo奇摩新聞"}, {"url": "https://tw.news.yahoo.com/video/%E8%8B%B1%E6%A5%AD%E9%81%94%E5%B0%BE%E7%89%99%E7%8D%8E%E9%87%915%E5%8D%83%E8%90%AC-%E8%97%9D%E4%BA%BA%E9%83%AD%E9%9D%9C%E7%BE%8E%E8%81%B2%E5%8A%A0%E6%8C%81-010203150.html", "t": "200120 1600", "title": "英業達尾牙獎金5千萬 藝人郭靜美聲加持 - Yahoo奇摩新聞"}, {"url": "https://tw.news.yahoo.com/a-lin%E7%8B%82%E7%98%A6%E7%A9%BF%E6%8B%96%E9%9E%8B%E8%A2%AB%E7%8B%82%E7%9E%AA%E6%B5%B7%E8%8A%AC%E7%98%A6%E4%BA%8610%E5%85%AC%E6%96%A4%E5%95%A6-130349745.html", "t": "200118 1600", "title": "A-Lin狂瘦「穿拖鞋」被狂瞪 海芬：10公斤啦 - Yahoo奇摩新聞"}, {"url": "https://tw.news.yahoo.com/video/%E7%BE%8E%E9%B3%B3%E5%A7%90%E7%99%BB%E6%AF%8F%E6%97%A5%E9%83%B5%E5%A0%B1-%E5%87%8D%E9%BD%A1%E9%AB%94%E6%85%8B%E9%A9%9A%E8%89%B7%E5%A4%96%E5%AA%92-043016648.html", "t": "200117 1600", "title": "美鳳姐登每日郵報！ 凍齡體態驚艷外媒 - Yahoo奇摩新聞"}, {"url": "https://tw.news.yahoo.com/video/%E6%9E%97%E4%BF%8A%E5%82%91%E8%81%AF%E6%89%8B%E5%AD%AB%E7%87%95%E5%A7%BF-%E5%89%B5%E4%BD%9C%E6%AD%8C%E6%9B%B2%E8%87%B4%E6%95%AC-%E5%89%8D%E7%B7%9A%E9%86%AB%E8%AD%B7-070812676.html", "t": "200128 1600", "title": "林俊傑聯手孫燕姿 創作歌曲致敬「前線醫護」 - Yahoo奇摩新聞"}, {"url": "https://tw.news.yahoo.com/ps4-%E6%98%A5%E7%AF%80%E8%B3%80%E5%B9%B4%E7%89%B9%E8%B3%A3%E9%96%8B%E8%B7%91-%E6%AD%BB%E4%BA%A1%E6%93%B1%E6%B7%BA-%E7%8F%BE%E4%BB%A3%E6%88%B0%E7%88%AD-%E7%A2%A7%E8%A1%80%E7%8B%82%E6%AE%BA2-093755242.html", "t": "200122 1600", "title": "PS4 春節賀年特賣開跑！《死亡擱淺》《現代戰爭》《碧血狂殺2》等強作打折 - Yahoo奇摩新聞"}, {"url": "https://tw.news.yahoo.com/%E5%9C%8B%E9%9A%9B%E6%A9%8B%E7%89%8C%E7%A4%BE-%E6%9D%8E%E6%9D%8F%E5%91%A8%E5%AD%9D%E5%AE%89%E5%8A%87%E4%B8%AD%E5%A4%9A%E6%AE%B5%E7%B2%BE%E5%BD%A9%E5%B0%8D%E6%89%8B%E6%88%B2-%E5%9C%96-084506643.html", "t": "200116 1600", "title": "國際橋牌社 李杏周孝安劇中多段精彩對手戲 (圖) - Yahoo奇摩新聞"}, {"url": "https://tw.news.yahoo.com/%E9%84%A7%E7%B4%AB%E6%A3%8B%E6%AD%8C%E6%9B%B2%E6%8E%A5%E5%94%B1%E6%8C%91%E6%88%B0-%E9%A9%9A%E8%A6%8B%E7%B2%89%E7%B5%B2%E5%A5%BD%E6%AD%8C%E5%96%89-092504129.html", "t": "200110 1600", "title": "鄧紫棋歌曲接唱挑戰 驚見粉絲好歌喉 - Yahoo奇摩新聞"}, {"url": "https://www.setn.com/News.aspx?NewsID=526442", "t": "190413 1500", "title": "愛酸人者 知名作家：這種「自卑感重」是未爆彈獲網激賞 - 三立新聞網"}, {"url": "https://www.marieclaire.com.tw/lifestyle/issue/40180", "t": "190108 1103", "title": "中古小姐：以去孤島生活的意志迎接新年度 - Marie Claire 美麗佳人"}], "summary": "2011年度香港小姐競選（第39屆）是電視廣播有限公司舉辦的選美活動，在2011年8月7日於新界將軍澳電視廣播城一號錄影廠舉行。本年度口號為「一一尋夢 美麗與智慧並重」。"}
{"term": "元宵節拜拜", "tdh": "2020020710", "tdate": "20200207", "links": [{"url": "https://tw.news.yahoo.com/%E4%BF%9D%E5%BA%87%E9%BC%A0%E4%BE%86%E5%AF%B6-%E5%85%83%E5%AE%B5%E7%A5%AD%E7%A5%96-%E6%8B%9C%E5%9C%B0%E5%9F%BA%E4%B8%BB%E6%95%99%E5%AD%B8-%E4%B8%8D%E6%B4%97%E9%AB%AE%E9%81%BF%E7%A0%B4%E8%B2%A1-111248250.html", "t": "200206 1912", "title": "保庇鼠來寶／元宵祭祖、拜地基主教學 不洗髮避破財！ - Yahoo奇摩新聞"}, {"url": "https://www.chinatimes.com/realtimenews/20200205000959-260405", "t": "200205 0617", "title": "元宵節求財怎麼拜？命理師曝一個動作財運大旺 - 中時電子報 Chinatimes.com"}, {"url": "https://www.inside.com.tw/tag/%E5%85%83%E5%AE%B5%E7%AF%80", "t": "200204 1907", "title": "元宵節- 最新文章 - INSIDE"}, {"url": "https://newtalk.tw/news/view/2020-02-06/362776", "t": "200206 1440", "title": "澎湖看超大米龜、黃金龜！縣府推「乞龜」地圖與在地人一起鬧元宵| 旅遊 - 新頭殼"}, {"url": "https://www.nownews.com/news/20200203/3914566/", "t": "200203 2240", "title": "保庇鼠來寶／元宵節大吉日 向天官大帝祈福還能這樣做 | 生活 - NOWnews"}, {"url": "https://www.setn.com/News.aspx?NewsID=672891", "t": "200115 1600", "title": "2020新春拜拜大寶典 初九、元宵 - 三立新聞網"}, {"url": "https://news.cts.com.tw/cts/entertain/202002/202002051989586.html", "t": "200205 2230", "title": "【台語珍輪轉】林玉珍竟在元宵偷蔥？ 原因揭曉... - 華視新聞"}, {"url": "https://news.ltn.com.tw/news/life/paper/1349194", "t": "200203 0530", "title": "內湖、社子夜弄土地公 元宵登場 - 自由時報電子報"}, {"url": "https://www.ntdtv.com/b5/2020/01/30/a102764397.html", "t": "200130 1431", "title": "過年紅包袋該丟嗎？專家這麼說(組圖) - NTDTV"}, {"url": "https://www.ettoday.net/news/20200130/1634347.htm", "t": "200130 1321", "title": "開工紅包「千萬別亂花」 民俗專家曝「2滾錢法」存起來：紅運爆發一整年 - ETtoday"}, {"url": "https://www.chinatimes.com/realtimenews/20200120004444-260405", "t": "200120 1600", "title": "走春到鹿港從除夕熱鬧到元宵 文武廟水舞燈光秀搶先看 - 中時電子報 Chinatimes.com"}, {"url": "https://tw.youcard.yahoo.com/cardstack/7669c280-3c0f-11ea-be29-59cccdaf438a/%E9%BC%A0%E5%B9%B4%E8%BF%8E%E8%B2%A1%E7%A5%9E%E4%BF%9D%E5%B9%B3%E5%AE%89%E6%80%8E%E9%BA%BC%E6%8B%9C%20%E9%81%8E%E5%B9%B4%E6%8B%9C%E6%8B%9C%E5%85%A8%E6%94%BB%E7%95%A5", "t": "191224 1600", "title": "鼠年迎財神保平安怎麼拜 過年拜拜全攻略 - Yahoo懶人卡"}, {"url": "https://www.cool3c.com/article/151491", "t": "200205 1232", "title": "2020台中燈會寶可夢活動整理：未知圖騰L、甜甜螢隨機出現 台中市區都有機會抓到 - Cool3c 癮科技"}, {"url": "https://travel.ettoday.net/article/1626406.htm", "t": "200125 1600", "title": "全台走春兩天一夜住房提案 拜拜祈福、看燈會入住文青旅店 - ETtoday"}, {"url": "https://tw.news.yahoo.com/%E7%BF%92%E4%BF%97%E7%99%BE%E7%A7%91-%E9%A6%99%E7%9A%84%E9%95%B7%E7%9F%AD%E4%B8%8D-%E6%A8%A3-%E7%A5%AD%E7%A5%9E-%E6%8B%9C%E7%A5%96%E5%85%88%E6%9C%89%E5%8D%80%E5%88%A5-144043681.html", "t": "200204 2240", "title": "習俗百科／香的長短不一樣！祭神、拜祖先有區別 - Yahoo奇摩新聞"}, {"url": "https://www.setn.com/News.aspx?NewsID=672886", "t": "200115 1600", "title": "2020新春拜拜大寶典 接神、開工 - 三立新聞網"}, {"url": "https://tw.news.yahoo.com/%E5%BF%AB%E8%A8%8A-%E9%98%B2%E5%A0%B5%E6%AD%A6%E6%BC%A2%E8%82%BA%E7%82%8E%E7%96%AB%E6%83%85-2%E6%9C%887%E6%97%A5%E7%BE%85%E6%9D%B1%E5%85%83%E5%AE%B5%E6%99%9A%E6%9C%83%E5%8F%96%E6%B6%88-024621502.html", "t": "200204 1046", "title": "快訊／防堵武漢肺炎疫情 2月7日羅東元宵晚會取消 - Yahoo奇摩新聞"}, {"url": "https://www.ntdtv.com/b5/2020/01/24/a102759846.html", "t": "200125 1600", "title": "初一到十五 迎新春 鬧元宵 年味十足！ - NTDTV"}, {"url": "https://news.housefun.com.tw/news/article/453194245623.html", "t": "200124 1600", "title": "命理師解鼠年運勢 屬兔人吉星照臨 - 好房網News"}, {"url": "https://www.chinatimes.com/realtimenews/20200124001514-260405", "t": "200124 1600", "title": "除夕也有「跨年晚會」 到台南聖母廟看煙火 - 中時電子報 Chinatimes.com"}], "summary": "臺灣的元宵節，亦稱為上元節，隨著17世紀的第一批漢人移民傳入，與新正、清明、端午、中元、中秋、重陽、冬至並列為漢人重要的傳統民俗節日。而隨著工商業的發達，與1980年代末期以來假日旅遊風氣的盛行，臺灣人慶祝元宵也因文化上的差異而和其他華人地區的元宵節有所區別，最具特色者即為各大城市舉辦的元宵燈會活動。"}
{"term": "進口口罩", "tdh": "2020020710", "tdate": "20200207", "links": [{"url": "https://talk.ltn.com.tw/article/paper/1350260", "t": "200207 0530", "title": "自由廣場》貿易商說話：口罩不是你想進口就進口 - 自由電子報 自由評論網 - 自由評論網"}, {"url": "https://tw.news.yahoo.com/%E5%8D%B3%E8%B5%B7%E9%96%8B%E6%94%BE%E6%B0%91%E7%9C%BE%E9%80%B2%E5%8F%A3%E5%8F%A3%E7%BD%A9-%E6%AF%8F%E4%BA%BA1%E5%8D%83%E7%89%87%E9%99%90%E8%87%AA%E7%94%A8-141749465.html", "t": "200206 2217", "title": "即起開放民眾進口口罩 每人1千片限自用 - Yahoo奇摩新聞"}, {"url": "https://technews.tw/2020/02/06/taiwan-epidemic-prevention-materials-rely-on-imports-from-china/", "t": "200206 1534", "title": "不僅口罩，消毒劑等防疫物資進口都仰賴中國 - 科技新報 TechNews"}, {"url": "https://www.chinatimes.com/realtimenews/20200206004738-260409", "t": "200206 1928", "title": "因應疫情 大陸進口口罩3.28億只、日產1480.6萬只 - 中時電子報 Chinatimes.com"}, {"url": "https://ec.ltn.com.tw/article/breakingnews/3056346", "t": "200203 1851", "title": "口罩一片難求！我國口罩最仰賴中國 1月自中國進口年減631萬片 - 自由時報電子報"}, {"url": "https://udn.com/news/story/7238/4319399", "t": "200203 2118", "title": "台灣1月口罩進口年減逾1成9成3仰賴中國| 聯合新聞網：最懂你的新聞網站 - udn 聯合新聞網"}, {"url": "https://tw.news.yahoo.com/%E8%97%A5%E5%B1%80%E5%9B%A4%E7%A9%8D%E9%BB%91%E5%BF%83%E5%8F%A3%E7%BD%A9-%E4%B8%8A%E6%B8%B8%E5%B7%A5%E5%BB%A0%E7%A8%B1%E5%BE%9E%E4%B8%AD%E5%9C%8B%E9%80%B2%E5%8F%A3-023339911.html", "t": "200207 1033", "title": "藥局囤積黑心口罩 上游工廠稱從中國進口 - Yahoo奇摩"}, {"url": "https://technews.tw/2020/01/28/tw-masks-export-issue/", "t": "200128 1600", "title": "口罩禁出口爭議，攤開數據台進口貨九成來自中國 - 科技新報 TechNews"}, {"url": "https://www.cna.com.tw/news/firstnews/202001280111.aspx", "t": "200128 1600", "title": "口罩禁出口爭議 攤開數據台進口貨9成來自中國 - 中央社即時新聞"}, {"url": "https://news.ltn.com.tw/news/life/breakingnews/3059971", "t": "200206 1723", "title": "武漢肺炎》民眾即起可進口防疫醫療器材自用 可解除口罩荒 - 自由時報電子報"}, {"url": "https://www.chinatimes.com/realtimenews/20200205003422-260405", "t": "200205 1559", "title": "每月自陸進口200萬片口罩供醫用 台中業者：已斷貨 - 中時電子報 Chinatimes.com"}, {"url": "https://ec.ltn.com.tw/article/breakingnews/3060933", "t": "200207 1526", "title": "口罩荒竟引發衛生紙之亂2.0 經部：誤會大了 - 自由時報電子報"}, {"url": "https://www.wealth.com.tw/home/articles/24178", "t": "200205 1806", "title": "從數字看懂台灣口罩之亂的真相 - 財訊"}, {"url": "https://news.ltn.com.tw/news/politics/breakingnews/3057288", "t": "200204 1918", "title": "武漢肺炎》周錫瑋稱「口罩缺貨進口就好」 林俊憲轟：無知 - 自由時報電子報"}, {"url": "https://ec.ltn.com.tw/article/breakingnews/3060046", "t": "200206 1820", "title": "台灣口罩為何不夠用？口罩廠董座一句話突破盲腸 - 自由時報電子報"}, {"url": "https://udn.com/news/story/7934/4321524", "t": "200204 1746", "title": "松本清日本進口口罩最低1片3元！搶買排隊人龍塞爆門市 - udn 聯合新聞網"}, {"url": "https://ec.ltn.com.tw/article/breakingnews/3060056", "t": "200206 1815", "title": "《獨家》攜帶口罩入境 關務署：1000個以下免申請 - 自由時報電子報"}, {"url": "https://www.setn.com/News.aspx?NewsID=683132", "t": "200204 1534", "title": "「口罩不夠進口就好啦！」林俊憲狠酸周錫瑋：狀況外的無知 - 三立新聞網"}, {"url": "https://www.fda.gov.tw/TC/siteContent.aspx?sid=11139", "t": "200203 1120", "title": "嚴重特殊傳染性肺炎(武漢肺炎)口罩Q&A - 嚴重特殊傳染性肺炎(武漢肺炎)口罩Q&A - 衛生福利部食品藥物管理署"}, {"url": "https://www.bbc.com/zhongwen/trad/chinese-news-51385714", "t": "200205 2117", "title": "武漢疫情：中國口罩大搶購如何擴散至全球 - BBC 中文网"}], "summary": "周錫瑋  （1958年3月11日－），出生於彰化縣，曾任臺灣省議會議員、立法委員、臺北縣縣長（末任，後改制為新北市市長）。輔仁大學大眾傳播系學士，美國南加州大学公共行政、企业管理雙碩士。\n最初代表中國國民黨當選立法委員，後隨宋楚瑜成立親民黨並連任立委，重返國民黨後當選最後一屆臺北縣縣長。2019年2月26日宣布參選2020年中華民國總統選舉。"}
{"term": "地震", "tdh": "2020020710", "tdate": "20200207", "links": [{"url": "https://www.ettoday.net/news/20200206/1639848.htm", "t": "200206 1956", "title": "快訊／本州東部外海規模5.6地震！關東有感 網：好噁心的搖法 - ETtoday"}, {"url": "https://udn.com/news/story/7266/4320077", "t": "200204 0129", "title": "花蓮海域01：02地震 規模4.9 - udn 聯合新聞網"}, {"url": "https://news.ltn.com.tw/news/life/breakingnews/3055651", "t": "200203 0820", "title": "士林區地震雙北皆有感 地震深度僅5公里 - 自由電子報市場動態"}, {"url": "https://www.cna.com.tw/news/firstnews/202002035002.aspx", "t": "200203 0831", "title": "台北士林規模2.9地震 雙北有感 - 中央社即時新聞"}, {"url": "https://www.secretchina.com/news/b5/2020/02/07/921901.html", "t": "200207 0902", "title": "天災加人禍唐山大地震預報被隱瞞封鎖(圖) - 紅朝歲月 - 看中國新聞網"}, {"url": "https://udn.com/news/story/7266/4317989", "t": "200203 0855", "title": "深度5公里…台北市士林區規模2.9地震 雙北震度2級 - udn 聯合新聞網"}, {"url": "https://news.ltn.com.tw/news/life/paper/1349720", "t": "200205 0304", "title": "台灣鯛「浮頭」 民眾懷疑預警地震 - 自由時報電子報"}, {"url": "https://www.chinatimes.com/realtimenews/20200204000874-260405", "t": "200204 0123", "title": "花蓮凌晨 01：02規模4.9地震 最大震度4級 - 中時電子報 Chinatimes.com"}, {"url": "https://www.setn.com/news.aspx?NewsID=682184", "t": "200203 0832", "title": "8:19地震！震央台北士林規模2.9 台北人超有感 - 三立新聞網"}, {"url": "https://www.rti.org.tw/news/view/id/2049571", "t": "200128 1600", "title": "台南地震規模4.1 最大震度3級 - 中央廣播電台"}, {"url": "https://news.ltn.com.tw/news/life/breakingnews/3051131", "t": "200128 1600", "title": "地牛翻身！18:05台南規模4.1地震 最大震度3級 - 自由電子報市場動態"}, {"url": "https://hk.appledaily.com/finance/20200207/R6FOJYGAWTGATLTD7IH4SJTEPY/", "t": "200207 0310", "title": "【智取大市】日本大地震翻版市- 晉佳 - 香港蘋果日報"}, {"url": "http://www.chinesetoday.com/big/article/1281572", "t": "200207 0012", "title": "菲律賓南部發生6.1級地震 - 國際日報"}, {"url": "https://money.udn.com/money/story/5603/4318016", "t": "200203 0912", "title": "成都凌晨5.1地震 深度21公里震感強烈 - 經濟日報"}, {"url": "https://www.ettoday.net/news/20200202/1614924.htm", "t": "200202 2355", "title": "快訊／23:49抖一下！宜蘭4.3有感地震晃2秒 北台灣網友驚：螢幕甩了幾下 - ETtoday"}, {"url": "http://hk.crntt.com/doc/7_0_105682568_1_0207174600.html", "t": "200207 1746", "title": "印尼巴布亞省發生5.0級地震 - 中評社"}, {"url": "https://www.chinatimes.com/realtimenews/20200203001181-260405", "t": "200203 0828", "title": "天龍國地震！8：19 台北市士林區規模2.9地震 最大震度信義區2級 - 中時電子報 Chinatimes.com"}, {"url": "https://www.chinatimes.com/realtimenews/20200204002796-260404", "t": "200204 1345", "title": "遇肺炎又碰5.1地震 張靚穎心慌點開家人群組超傻眼 - 中時電子報 Chinatimes.com"}, {"url": "https://udn.com/news/story/7266/4276317?from=udn-hotnews_ch2", "t": "200109 1600", "title": "花蓮近海凌晨規模4.4地震最大震度3級| 聯合新聞網 - udn 聯合新聞網"}, {"url": "https://www.chinatimes.com/realtimenews/20200128002089-260405", "t": "200128 1600", "title": "台南晚間規模4地震 氣象局：地表破碎帶能量釋放 - 中時電子報 Chinatimes.com"}], "summary": "地震是地球表層或表層下的振動所造成的地面震動，可由自然現象如地殼運動、火山活動及隕石撞擊引起，亦可由人為活動如地下核試驗造成，不過歷史上主要的災害性地震都由地殼的突然運動所造成。地震的影響力涵蓋岩石圈及水圈──當地震發生時，可能會連帶引發地表斷裂、大地震動、土壤液化、山崩、餘震、海嘯、甚至是火山活動，並影響人類的生存及活動。\n地震產生的原因是因為地殼在板塊運動的過程中累積應力，當地殼無法繼續累積應力時，地殼會破裂，釋放出地震波，使地面發生震動，地震可由地震儀透過對地震波的觀察來量測，地震規模表示地震所釋放出來的能量大小，地震烈度指地震在該地點造成的震動程度，地震的發生處稱為震源，其投影至地表的位置為震央。\n並非世界上所有的地區都會發生地震。地震與火山分布一樣，主要集中在板塊相互作用的地區。目前世界上主要分為三個頻繁發生地震的「地震帶」：環太平洋地震帶（佔80%）、從地中海一路向東延伸至喜馬拉雅山區和印尼的歐亞地震帶、位於各大洋中洋脊的中洋脊地震帶。並不是所有地震都發生在以上三個地震帶，另外有一小部分大地震發生在板塊內部，主要集中在大的活動斷層帶及其附近地區，例如1976年的中国河北唐山大地震。"}
{"term": "恭碩良", "tdh": "2020020710", "tdate": "20200207", "links": [{"url": "https://stars.udn.com/star/story/10092/4328098", "t": "200207 1206", "title": "港媒爆恭碩良劈腿混血妹 林憶蓮不願三角纏鬥終放手 - udn 噓！星聞"}, {"url": "https://www.chinatimes.com/realtimenews/20200206003911-260404", "t": "200206 1649", "title": "林憶蓮驚爆分手恭碩良 經記人證實已一年多 - 中時電子報 Chinatimes.com"}, {"url": "https://hk.appledaily.com/entertainment/20200207/LBWKDVWHNDRTHQAHCWGIFXE27E/", "t": "200207 0224", "title": "傳恭碩良有新歡「悲傷選擇分手」 憶蓮8年姊弟戀玩完 - 蘋果日報"}, {"url": "https://hk.celebrity.yahoo.com/8-%E5%B9%B4%E5%A7%8A%E5%BC%9F%E6%88%80%E7%8E%A9%E5%AE%8C%E6%9E%97%E6%86%B6%E8%93%AE%E5%90%8C%E6%81%AD%E7%A2%A9%E8%89%AF%E7%A7%98%E5%AF%86%E5%88%86%E6%89%8B-091609389.html", "t": "200206 1716", "title": "8年姊弟戀玩完！林憶蓮同恭碩良秘密分手 - 雅虎香港新聞"}, {"url": "https://tw.news.yahoo.com/8-%E5%B9%B4%E5%A7%8A%E5%BC%9F%E6%88%80%E6%83%85%E6%96%B7-%E6%9E%97%E6%86%B6%E8%93%AE%E8%AD%89%E5%AF%A6%E5%88%86%E6%89%8B%E6%81%AD%E7%A2%A9%E8%89%AF-083858714.html", "t": "200206 1638", "title": "8年姊弟戀情斷！ 林憶蓮證實分手恭碩良 - Yahoo奇摩新聞"}, {"url": "https://www.mirrormedia.mg/story/20200206ent021", "t": "200206 1818", "title": "又一對佳偶分了！ 林憶蓮情斷交往8年的恭碩良 - 鏡週刊 - 鏡週刊"}, {"url": "http://www.orangenews.hk/officelady/system/2020/02/06/010139047.shtml", "t": "200206 1732", "title": "姊弟戀玩完！林憶蓮與恭碩良結束8年情 - 橙新聞"}, {"url": "https://www.bastillepost.com/hongkong/article/5864138-%E6%9E%97%E6%86%B6%E8%93%AE%E6%81%AD%E7%A2%A9%E8%89%AF%E7%B5%90%E6%9D%9F%E5%85%AB%E5%B9%B4%E6%83%85-%E5%A4%A9%E5%90%8E%E6%84%9F%E6%83%85%E8%B7%AF%E7%A2%B0%E7%81%B0%E4%B8%89%E5%8D%81%E4%BA%94%E5%B9%B4?current_cat=4", "t": "200206 1826", "title": "林憶蓮恭碩良結束八年情天后感情路碰灰三十五年| 娛圈事 - 巴士的報"}, {"url": "https://hk.on.cc/hk/bkn/cnt/entertainment/20200205/bkn-20200205152645506-0205_00862_001.html", "t": "200205 1539", "title": "武漢肺炎疫情影響恭碩良澳門騷延期 - on.cc東網"}, {"url": "https://www.chinapress.com.my/20200206/%E6%9E%97%E5%BF%86%E8%8E%B2%E6%81%AD%E7%A1%95%E8%89%AF8%E5%B9%B4%E5%A7%90%E5%BC%9F%E6%81%8B%E7%8E%A9%E5%AE%8C/", "t": "200206 2300", "title": "林忆莲恭硕良8年姐弟恋玩完 - China Press"}, {"url": "http://www.hxnews.com/news/yl/ylxw/202002/06/1857477.shtml", "t": "200206 1901", "title": "林忆莲恭硕良分手原因林忆莲男友恭硕良出轨了吗林忆莲回应全文_娱乐新闻_娱乐星闻_新闻中心_海峡网 - 海峡都市报"}, {"url": "https://hk.celebrity.yahoo.com/%E8%B3%AD%E5%9F%8E%E9%96%8B%E9%A8%B7%E7%88%86%E6%BB%BF%E8%B6%85%E6%84%9F%E5%8B%95-%E5%9F%8E%E5%9F%8E%E9%97%9C%E5%BF%83%E7%96%AB%E6%83%85-%E7%82%BA%E6%B8%AF%E4%BA%BA%E6%89%93%E6%B0%A3-220324569.html", "t": "200206 0603", "title": "賭城開騷爆滿超感動城城關心疫情為港人打氣 - 雅虎香港新聞"}, {"url": "https://www.singtao.ca/4078108/2020-02-06/post-%E6%9D%8E%E6%99%9F%E7%B4%A0%E9%A1%8F%E5%87%BA%E9%8F%A1%E5%94%B1%E6%AD%8C-%E8%A2%AB2%E6%AD%B2%E5%85%92%E5%AD%90%E3%80%8C%E5%98%B2%E7%AC%91%E3%80%8D/", "t": "200206 1624", "title": "李晟素顏出鏡唱歌被2歲兒子「嘲笑」 - 加拿大星島日報"}, {"url": "https://www.singtao.ca/4067791/2020-01-30/news-%E3%80%90%E6%AD%A6%E6%BC%A2%E8%82%BA%E7%82%8E%E3%80%91%E5%81%95%E5%A6%BB%E6%8D%90300%E8%90%AC%E4%BA%BA%E6%B0%91%E5%B9%A3%E5%8A%A9%E9%98%B2%E7%96%AB+%E5%91%A8%E6%9D%B0%E5%80%AB%E9%A6%99%E6%B8%AF%E9%A8%B7%E6%9A%AB%E5%BB%B6%E8%87%B311%E6%9C%88%E8%88%89%E8%A1%8C/", "t": "200131 1414", "title": "【武漢肺炎】偕妻捐300萬人民幣助防疫周杰倫香港騷暫延至11月舉行 - 加拿大星島日報"}, {"url": "https://www.singtao.ca/4065807/2020-01-29/news-%E3%80%90%E5%8F%A3%E7%BD%A9%E8%8D%92%E3%80%91%E5%AF%B8%E9%AB%98%E6%BA%AB%E8%92%B8%E5%8F%A3%E7%BD%A9%E6%95%99%E5%A3%9E%E4%BA%BA%E3%80%80%E9%82%B5%E4%BB%B2%E8%A1%A1%EF%BC%9A%E6%96%87%E6%98%8E%E5%A2%9C%E8%90%BD%E7%9A%84%E6%82%B2%E5%8A%87/", "t": "200130 1533", "title": "【口罩荒】寸高溫蒸口罩教壞人邵仲衡：文明墜落的悲劇 - 加拿大星島日報"}, {"url": "https://tw.news.yahoo.com/video/%E5%AE%89%E5%BF%83%E4%BA%9E-%E5%AE%8B%E6%9F%8F%E7%B7%AF%E6%9C%89%E4%BE%86%E9%9B%BB-%E4%B8%8D%E6%80%95%E7%8E%8B%E6%B7%A8%E5%90%83%E9%86%8B-004950088.html", "t": "200206 0857", "title": "安心亞 宋柏緯有來電 不怕王淨吃醋 - Yahoo奇摩新聞"}, {"url": "https://www.singtao.ca/4069587/2020-01-31/news-%E3%80%8A%E7%9A%86%E5%A4%A7%E6%AD%A1%E5%96%9C%E3%80%8B%E5%8D%81%E5%A4%9A%E5%BE%8C%E5%B9%B4%E5%86%8D%E8%A6%8B%E9%9D%A2+%E9%8D%BE%E5%98%89%E6%AC%A3%E8%AE%9A%E5%8A%89%E6%84%B7%E5%A8%81%E7%B4%B3%E5%A3%AB%E5%96%84%E8%89%AF%E6%B2%92%E8%AE%8A%E9%81%8E/", "t": "200201 1440", "title": "《皆大歡喜》十多後年再見面鍾嘉欣讚劉愷威紳士善良沒變過 - 加拿大星島日報"}, {"url": "https://www.singtao.ca/4067708/2020-01-30/news-%E3%80%90%E6%AD%A6%E6%BC%A2%E8%82%BA%E7%82%8E%E3%80%91%E5%AE%B6%E4%BA%BA%E4%B8%AD%E4%BC%8F%E8%B2%B7%E6%9C%AA%E4%BE%86%E5%8F%A3%E7%BD%A9+%E6%9E%97%E7%86%B9%E7%9E%B3%E8%87%AA%E7%88%86%E5%80%8B%E8%82%BA%E6%9C%89%E4%BA%8B%E5%B1%AC%E9%AB%98%E5%8D%B1%E4%B8%80%E6%97%8F/", "t": "200131 1327", "title": "【武漢肺炎】家人中伏買未來口罩林熹瞳自爆個肺有事屬高危一族 - 加拿大星島日報"}, {"url": "https://www.singtao.ca/4060164/2020-01-26/news-%E3%80%90%E9%AB%98%E6%AF%94%E5%A2%AE%E6%A9%9F%E4%BA%A1%E3%80%91%E6%88%BF%E7%A5%96%E5%90%8D%E9%86%89%E9%85%92%E5%93%80%E6%82%BC+%E6%9E%97%E7%86%99%E8%95%BE%E9%9B%A3%E4%BB%A5%E6%8E%A5%E5%8F%97/", "t": "200126 1600", "title": "【高比墮機亡】房祖名醉酒哀悼林熙蕾難以接受 - 加拿大星島日報"}, {"url": "https://www.singtao.ca/4053739/2020-01-23/news-%E3%80%90%E5%9A%87%E4%BA%BA%E3%80%8A%E5%87%B6%E6%AB%83%E3%80%8B%E3%80%91%E9%A6%96%E5%BA%A6%E6%8C%91%E6%88%B0%E6%81%90%E6%80%96%E7%89%87++%E6%B2%B3%E6%AD%A3%E5%AE%87%E5%80%8B%E5%A5%B3%E7%95%80%E8%A1%A3%E6%AB%83%E9%A3%9F%E5%92%97/", "t": "200123 1600", "title": "【嚇人《凶櫃》】首度挑戰恐怖片河正宇個女畀衣櫃食咗 - 加拿大星島日報"}], "summary": "恭碩良（Joventino Couto Remotigue, Jun Kung，1977年8月18日－），又名李尊傑、李祖倫，澳門土生葡人，是香港、澳門創作歌手、鼓手及唱片監製。目前以創作歌手的形象，在澳門、香港及中國大陸發展。"}
{"term": "湖人 火箭", "tdh": "2020020710", "tdate": "20200207", "links": [{"url": "https://nba.udn.com/nba/story/6780/4328465", "t": "200207 1413", "title": "衛少砍41分助火箭升空 新援末節攻守俱佳克湖人 - NBA 台灣 | 聯合新聞網"}, {"url": "https://sports.ltn.com.tw/news/breakingnews/3060428", "t": "200207 1534", "title": "衛少狂轟41分、無中鋒火箭擊敗湖人 今日NBA戰績 - 自由時報電子報"}, {"url": "https://tw.sports.yahoo.com/news/nba-%E6%A5%B5%E8%87%B4%E5%B0%8F%E7%90%83%E5%A5%8F%E6%95%88-%E7%81%AB%E7%AE%AD%E5%8A%9B%E5%85%8B%E6%B9%96%E4%BA%BA-065032207.html", "t": "200207 1450", "title": "NBA／極致小球奏效 火箭力克湖人 - Yahoo奇摩運動"}, {"url": "https://nba.udn.com/nba/story/6780/4323271", "t": "200205 1319", "title": "詹姆斯外線連發超越布萊恩 湖人痛宰馬刺 - NBA 台灣 | 聯合新聞網"}, {"url": "https://www.sportsv.net/articles/71366", "t": "200205 1529", "title": "Clint Capela交易案-淺談火箭死亡五小 - 運動視界 Sports Vision"}, {"url": "https://nba.udn.com/nba/story/6780/4297789", "t": "200120 1600", "title": "火箭苦吞3連敗 衛少：保持正向 - NBA 台灣 | 聯合新聞網"}, {"url": "https://nba.udn.com/nba/story/6780/4296686", "t": "200119 1600", "title": "MVP連線繳69分無用 詹皇領湖人再讓火箭失速 - NBA 台灣 | 聯合新聞網"}, {"url": "https://nba.udn.com/nba/story/10718/4327071", "t": "200207 0700", "title": "爭冠強隊難作交易火箭與76人小賭補強| NBA 台灣 - NBA 台灣 | 聯合新聞網"}, {"url": "https://udn.com/news/story/7002/4295090", "t": "200118 1600", "title": "NBA／湖人教頭少AD很焦慮 對戰火箭可能回歸 - NBA 台灣 | 聯合新聞網"}, {"url": "https://nba.udn.com/nba/story/12608/4299672", "t": "200121 1600", "title": "是紙老虎還是真有料？火箭MVP雙星實驗挫敗？ - NBA 台灣 | 聯合新聞網"}, {"url": "https://nba.udn.com/nba/story/6780/4327732", "t": "200207 0904", "title": "明星賽隊長選秀 詹皇、安戴托昆波隊陣容確定 - NBA 台灣 | 聯合新聞網"}, {"url": "https://tw.sports.yahoo.com/news/%E7%90%83%E6%98%9F%E5%A4%A7%E9%A2%A8%E5%90%B9nba%E4%BA%A4%E6%98%93%E5%A4%A7%E9%99%90%E7%9A%84%E8%B4%8F%E5%AE%B6%E5%92%8C%E8%BC%B8%E5%AE%B6-020838482.html", "t": "200207 1008", "title": "球星大風吹！NBA交易大限的贏家和輸家 - Yahoo奇摩運動"}, {"url": "https://udn.com/news/story/7002/4327071", "t": "200207 0700", "title": "爭冠強隊難作交易火箭、76人小賭+金塊問號| 聯合新聞網：最懂你的新聞網站 - udn 聯合新聞網"}, {"url": "https://udn.com/news/story/7002/4292362", "t": "200117 1600", "title": "哈登、衛少各打各的火箭團隊問題愈來愈多| 聯合新聞網：最懂你的新聞網站 - NBA 台灣 | 聯合新聞網"}, {"url": "https://www.chinatimes.com/realtimenews/20200114002787-260403", "t": "200114 1600", "title": "《時來運轉》單場暨場中投注 NBA湖人火箭對轟 - 中時電子報 Chinatimes.com"}, {"url": "https://tw.appledaily.com/sports/20200207/LOQMQUUGP6R3FCEAVVXDDH7IYU/", "t": "200207 1405", "title": "【NBA全紀錄】今日5場賽事火箭「死亡5小」勝湖人 - 台灣蘋果日報"}, {"url": "https://www.sportsv.net/articles/71363", "t": "200205 1422", "title": "火箭的現在，與老鷹、灰狼的未來---火箭、灰狼、老鷹、金塊四隊交易 - 運動視界 Sports Vision"}, {"url": "https://nba.udn.com/nba/story/6780/4327809", "t": "200207 1016", "title": "被交易至騎士 佐蒙德：更意識到這只是生意 - NBA 台灣 | 聯合新聞網"}, {"url": "https://sports.ltn.com.tw/news/breakingnews/3060447", "t": "200207 0857", "title": "NBA》東契奇攜手詹皇！全明星賽兩隊名單出爐 - 自由時報電子報"}, {"url": "https://udn.com/news/story/11313/4312938", "t": "200130 2359", "title": "NBA／8年生涯首次大三元 里拉德：非追逐的目標 - udn 聯合新聞網"}], "summary": "洛杉磯湖人（英語：Los Angeles Lakers）是一支位於美國加利福尼亞州洛杉磯的NBA籃球隊，分屬於西區的太平洋組，主場為斯台普斯中心。拥有悠久且辉煌历史，其前身为明尼阿波利斯湖人（Minneapolis Lakers），在明尼阿波利斯时期获得过5个总冠军，1959年球队迁至洛杉矶後，获得11次NBA总冠军，至今合計共奪得16次總冠軍，仅次於波士顿凯尔特人的17次。"}
{"term": "陽明大學", "tdh": "2020020710", "tdate": "20200207", "links": [{"url": "https://health.udn.com/health/story/120951/4327587", "t": "200207 0009", "title": "感染就賠100萬！陽明校長開祭品文盼口罩留需要的人| 專家觀點| 武漢肺炎 - udn 元氣網"}, {"url": "https://money.udn.com/money/story/11800/4300318", "t": "200121 1600", "title": "陽明大學團隊發現代謝益生菌 可降低體脂肪累積 - 經濟日報"}, {"url": "http://globalnewstv.com.tw/202002/96054/", "t": "200206 1957", "title": "突破! 陽明交大北榮聯手研發快篩試劑 - 寰宇新聞網"}, {"url": "https://times.hinet.net/mobile/news/22749722", "t": "200121 1600", "title": "亞洲大學商設系國際生參訪陽明大學復健實驗室 - HiNet 新聞社群"}, {"url": "https://tw.news.yahoo.com/%E9%98%B2%E7%96%AB%E5%8A%9F%E8%87%A3%E9%82%84%E6%9C%89%E4%BB%96-%E8%8E%8A%E4%BA%BA%E7%A5%A5%E8%B6%85%E5%BC%B7%E8%83%8C%E6%99%AF%E6%9B%9D%E5%85%89-102010762.html", "t": "200205 2225", "title": "防疫功臣還有他！莊人祥超強背景曝光 - Yahoo奇摩新聞"}, {"url": "https://www.cna.com.tw/news/aipl/202002070168.aspx", "t": "200207 1500", "title": "美專家肯定台灣防疫 陳副總統盼民眾要有信心 - 中央社即時新聞"}, {"url": "https://tw.news.yahoo.com/%E9%99%BD%E6%98%8E%E5%A4%A7%E5%AD%B8%E9%99%84%E8%A8%AD%E9%86%AB%E9%99%A2%E5%B1%85%E5%AE%B6%E8%AD%B7%E7%90%86%E6%89%80%E8%BE%A6%E6%96%B0%E6%B0%91%E6%A8%82%E6%99%BA%E6%93%9A%E9%BB%9E%E6%88%90%E6%9E%9C%E5%B1%95-091732991.html", "t": "200117 1600", "title": "陽明大學附設醫院居家護理所辦新民樂智據點成果展 - Yahoo奇摩新聞"}, {"url": "https://www.ettoday.net/news/20200203/1636617.htm", "t": "200203 2011", "title": "不斷更新／義守大學3/2開學集中管理陸生14天！各縣市「寒輔暫停」一次看 - ETtoday"}, {"url": "https://news.ltn.com.tw/news/life/paper/1350164", "t": "200207 0530", "title": "武漢肺炎》瑞德西韋新藥 台大醫院將申請引進 - 自由時報電子報"}, {"url": "https://heho.com.tw/archives/66918", "t": "200206 1751", "title": "武漢肺炎/人傳人後進化病毒「驚人突變」！專家：防疫更困難 - Heho健康"}, {"url": "https://news.ltn.com.tw/news/life/breakingnews/3060570", "t": "200207 1114", "title": "武漢肺炎》醫院酒精整瓶被帶走 羅東博愛籲要有公德心 - 自由時報電子報"}, {"url": "https://www.gvm.com.tw/article/70468", "t": "200113 1600", "title": "「國內留學」正夯！不必出國也能當交換學生 - 遠見雜誌"}, {"url": "https://news.sina.com.tw/article/20200205/34145640.html", "t": "200205 1556", "title": "防疫漏洞？醫院外滿地用過口罩宜衛生局長說話了-生活新聞 - 臺灣新浪網"}, {"url": "https://tw.appledaily.com/life/20200203/33HPKK6XRB4I72JZTUAILAKJLM/", "t": "200203 1705", "title": "【武漢肺炎】同步防疫！ 台大系統3校、陽明延至3/2開學 - 台灣蘋果日報"}, {"url": "https://www.mirrormedia.mg/story/20200206soc001", "t": "200206 0943", "title": "【全民防疫】醫院外廢棄口罩丟滿地 民眾憂成防疫漏洞 - 鏡週刊 - 鏡週刊"}, {"url": "https://www.ettoday.net/news/20200204/1638027.htm", "t": "200204 1959", "title": "中山大學傑出一手！神操作吃掉2連假 網看傻：我全都要！ - ETtoday"}, {"url": "https://times.hinet.net/news/22762576", "t": "200201 0900", "title": "武漢肺炎被列為國際公衛緊急事件，對台灣有什麼影響？ - HiNet 新聞社群"}, {"url": "https://udn.com/news/story/7314/4317172", "t": "200202 1645", "title": "期刊是隱匿武漢肺炎疫情共犯？學者：期刊和中國學者都應踹共 - udn 聯合新聞網"}, {"url": "https://udn.com/news/story/6885/4222529", "t": "191212 1600", "title": "唐心北記過只撤一半？陽明大學：查到的處分都撤除 - udn 聯合新聞網"}, {"url": "https://tw.appledaily.com/forum/20200201/CRH7R65XWAZAYFEOA6P54VQ3TE/", "t": "200201 2159", "title": "張書森、陳映燁：巴拉刈終退場政府接著要做的事 - 台灣蘋果日報"}], "summary": "國立陽明大學（英語：National Yang Ming University），前身為「國立陽明醫學院」，是中華民國第一所，也是現時唯一一所，以醫學教育為主之國立大學，位於臺北市北投區，以醫學、生命科學、生物科技研究為主要研究領域。現設有醫學院、生物醫學暨工程學院、生命科學院、護理學院、牙醫學院、人文與社會科學院及藥物科學院，共計有7個學院、11個學士班（含1個學士學位學程及1個不分系）、33個碩士班（含3個碩士學位學程）、4個碩士在職專班（含1個碩士在職學位學程），以及31個博士班（含8個博士學位學程），並有5間大型教學醫院（臺北榮總、臺中榮總、高雄榮總、臺北市立聯合醫院、亞東醫院）及1間附設醫院（陽大附醫）。\n2000年，陽明大學成為「台灣聯合大學系統」創始成員之一。2002年，與國立政治大學、臺北市立聯合醫院締結學術結盟，成立「聯盟醫療系統」，並組成「政陽團隊」開設臺灣心智科學腦造影中心。陽明大學在各項指標排名中，皆榜上有名，在生醫領域內更有著深厚的學術基礎2019年9月18日，國立陽明大學及國立交通大學兩校校務會議皆通過合併計畫書，預計將合併為「國立陽明交通大學」（National Yang-Ming Chiao Tung University, YMCT），簡稱陽明交大，其合併計畫書將送教育部審查。　"}
{"term": "國台辦", "tdh": "2020020710", "tdate": "20200207", "links": [{"url": "https://www.cna.com.tw/news/firstnews/202002070025.aspx", "t": "200207 0853", "title": "國台辦稱助近千人返台3天飛5航班 陸委會：急就章 - 中央社即時新聞"}, {"url": "https://talk.ltn.com.tw/article/breakingnews/3060366", "t": "200207 0936", "title": "胡，怎麼說》以疫謀獨？木馬屠城！中國國台辦還在哈囉鬼扯！ - 自由電子報 自由評論網 - 自由時報電子報"}, {"url": "https://tw.news.yahoo.com/video/%E5%9C%8B%E5%8F%B0%E8%BE%A6-%E6%9D%B1%E8%88%AA%E7%94%B3%E8%AB%8B3%E5%A4%A9%E5%9F%B7%E9%A3%9B5%E8%88%AA%E7%8F%AD-979%E4%BA%BA%E8%BF%94%E5%8F%B0%E5%90%8D%E5%96%AE%E5%B7%B2%E6%8F%90%E4%BA%A4-054421888.html", "t": "200207 1357", "title": "國台辦：東航申請3天執飛5航班 979人返台名單已提交 - Yahoo奇摩新聞"}, {"url": "https://www.setn.com/News.aspx?NewsID=685203", "t": "200207 1247", "title": "返台民眾驚爆「根本沒檢疫」國台辦竟回：任務完成群組解散 - 三立新聞網"}, {"url": "https://udn.com/news/story/7331/4326677", "t": "200206 1929", "title": "國台辦：賴清德訪美 「台獨」卑鄙伎倆遭人唾棄 - udn 聯合新聞網"}, {"url": "https://www.chinatimes.com/realtimenews/20200205002929-260407", "t": "200205 1449", "title": "第2班武漢包機生變 國民黨：應由國台辦與陸委會溝通 - 中時電子報 Chinatimes.com"}, {"url": "https://news.ltn.com.tw/news/world/breakingnews/3060627", "t": "200207 1332", "title": "武漢肺炎》首批包機返台成員爆：沒抽血檢疫就登機、名單國台辦通知 - 自由電子報市場動態"}, {"url": "https://newtalk.tw/news/view/2020-02-05/362246", "t": "200205 1106", "title": "國台辦要民進黨停止炒作陳柏惟嗆：中共還有心力反過頭批台灣？ | 政治 - 新頭殼"}, {"url": "https://newtalk.tw/news/view/2020-01-29/359261", "t": "200129 1600", "title": "國台辦未同意讓台撤僑范雲：中共眼中的台灣人就只有統戰價值| 政治 - 新頭殼"}, {"url": "https://ent.ltn.com.tw/news/breakingnews/3058629", "t": "200205 1758", "title": "批徐正文與國台辦胡搞返台包機 黃光芹：偷渡者應原機遣返 - 自由娛樂"}, {"url": "https://www.chinatimes.com/realtimenews/20200204002480-260409", "t": "200204 1303", "title": "國台辦：民進黨應停止以疫情為藉口的政治炒作 - 中時電子報"}, {"url": "https://news.ltn.com.tw/news/life/breakingnews/3057673", "t": "200204 2027", "title": "國台辦批台操弄疫情 陸委會籲排除我參與WHO政治干擾 - 自由時報電子報"}, {"url": "https://tw.news.yahoo.com/%E5%8C%85%E6%A9%9F%E6%92%A4%E6%AD%A6%E6%BC%A2%E5%8F%B0%E8%83%9E-%E5%9C%8B%E5%8F%B0%E8%BE%A6%E7%B5%A6%E4%BA%86%E8%BB%9F%E9%87%98%E5%AD%90-063009631.html", "t": "200128 1600", "title": "包機撤武漢台胞？ 國台辦給了軟釘子 - Yahoo奇摩新聞"}, {"url": "https://news.ltn.com.tw/news/politics/breakingnews/3041002", "t": "200115 1600", "title": "被問「恐中牌」奏效…中國國台辦尷尬不回應 - 自由時報電子報"}, {"url": "https://news.ltn.com.tw/news/politics/breakingnews/3044215", "t": "200118 1600", "title": "國台辦「台灣前途由中國人決定」 王世堅一句話嗆爆 - 自由時報電子報"}, {"url": "https://www.mirrormedia.mg/story/20200130edi004", "t": "200129 1600", "title": "【疫情擴散】國台辦未同意撤僑 范雲：把在武漢台灣人當人質？ - 鏡週刊 - 鏡週刊"}, {"url": "https://www.ntdtv.com/b5/2020/01/12/a102751037.html", "t": "200112 1600", "title": "國台辦主任劉結一將被撤換？線索已送中紀委 - NTDTV"}, {"url": "https://www.storm.mg/article/2197885", "t": "200118 1600", "title": "國台辦前副主任王在希：未來4年兩岸關係「冷對抗」，北京5項作法應對台灣現況 - 風傳媒"}, {"url": "https://news.ltn.com.tw/news/politics/breakingnews/3043990", "t": "200118 1600", "title": "將對台商秋後算帳？傳國台辦嗆：挺藍綠絕對有「差別待遇」 - 自由時報電子報"}, {"url": "https://news.ltn.com.tw/news/politics/breakingnews/3038107", "t": "200111 1600", "title": "李戡諷國台辦「哭暈在廁所」 微博帳號竟「被消失」 - 自由時報電子報"}], "summary": "中共中央台湾工作办公室（简称中共中央台办、中央台办或中台办）和国务院台湾事务办公室（简称国务院台办或国台办）为一个机构两块牌子，列入中共中央直属机构序列。是中央对台工作领导小组的办事机构。是贯彻执行中共中央、国务院确定的对台工作的方针政策的机构。在不同情况使用不同名称，如对在中國大陆投資的台商及工作的台籍工人称“国台办”，对在中华民国政党使用“中共中央台湾工作办公室”的名义。"}
{"term": "吳欣岱", "tdh": "2020020710", "tdate": "20200207", "links": [{"url": "https://www.chinatimes.com/realtimenews/20200207003238-260407", "t": "200207 1556", "title": "罷韓擺桌遭驅趕 基進前不分區吳欣岱推堅守防疫連署 - 中時電子報"}, {"url": "https://udn.com/news/story/120940/4328089", "t": "200207 1204", "title": "基進黨不分區提名人 發起醫護連署支持政府防疫底線 - udn 聯合新聞網"}, {"url": "https://www.hk01.com/%E5%8F%B0%E7%81%A3%E6%96%B0%E8%81%9E/431602/%E6%AD%A6%E6%BC%A2%E8%82%BA%E7%82%8E-%E9%80%BE4%E8%90%AC%E5%8F%B0%E7%81%A3%E9%86%AB%E8%AD%B7%E4%BA%BA%E5%93%A1%E9%80%A3%E7%BD%B2-%E6%8B%92%E7%B5%95%E7%84%A1%E9%99%90%E5%88%B6%E5%8C%85%E6%A9%9F%E8%BF%94%E5%8F%B0", "t": "200207 1755", "title": "【武漢肺炎】逾4萬台灣醫護人員連署「拒絕無限制包機返台」 - 香港01"}, {"url": "https://newtalk.tw/news/view/2020-01-12/353681", "t": "200112 1600", "title": "陳增芝觀點》國民黨還要拖延第二次「土斷」嗎？ | 政治 - 新頭殼"}, {"url": "https://taronews.tw/2020/01/10/583891/", "t": "200110 1600", "title": "台灣基進選前之夜衝破萬人吳音寧呼籲政黨票投5號台灣基進 - 芋傳媒 TaroNews"}, {"url": "https://www.setn.com/News.aspx?NewsID=669833", "t": "200110 1600", "title": "力挺3Q陳柏惟…吳音寧：台派與中國的最大對決！ - 三立新聞網"}, {"url": "https://m.ltn.com.tw/news/politics/breakingnews/3059149", "t": "200206 0817", "title": "「還有貼紙嗎」？台灣基進今晚瑞豐夜市送罷韓貼紙 - 自由時報電子報"}, {"url": "https://newtalk.tw/news/view/2019-12-28/346840", "t": "191228 1600", "title": "郭台銘酸洪慈庸忙著生小孩基進黨吳欣岱抱不平| 政治 - 新頭殼"}, {"url": "https://www.soundofhope.org/post/340837?lang=b5", "t": "200207 1734", "title": "臺醫師發起醫療人員連署訴求篩選包機名單守護醫療資源 - 希望之聲電台"}, {"url": "https://news.ltn.com.tw/news/politics/breakingnews/3003352", "t": "191209 1600", "title": "國民黨道歉卻稱女警「怪阿姨」 吳欣岱：沒看過如此無恥政黨 - 自由時報電子報"}, {"url": "https://newtalk.tw/news/view/2019-12-02/334491", "t": "191202 1600", "title": "台灣基進不分區醫師嗆滕西華：動用立委喬病床| 政治 - 新頭殼"}, {"url": "https://www.setn.com/News.aspx?NewsID=659781", "t": "191224 1600", "title": "94要客訴／這樣估票很準？台灣基進吳欣岱：我看門診 - 三立新聞網"}, {"url": "https://taronews.tw/2019/11/26/541193/", "t": "191126 1600", "title": "盼翻轉男性沙文台灣基進吳欣岱：解放全台陳佩琪 - 芋傳媒 TaroNews"}, {"url": "https://www.dwnews.com/%E5%8F%B0%E6%B9%BE/60167527/%E5%8F%B0%E7%8B%AC%E6%94%BF%E5%85%9A%E5%A5%B3%E5%8C%BB%E5%B8%88%E5%8F%91%E8%B5%B7%E5%8C%BB%E6%8A%A4%E8%BF%9E%E7%BD%B2%E6%8B%92%E7%BB%9D%E6%97%A0%E9%99%90%E5%88%B6%E5%8C%85%E6%9C%BA%E8%BF%94%E5%8F%B0", "t": "200207 1650", "title": "台独政党女医师发起医护连署“拒绝无限制包机返台” - 多维新闻网"}, {"url": "https://taronews.tw/2019/11/23/538723/", "t": "191123 1600", "title": "柯文哲高雄掃街台灣基進醫生嗆：高雄不缺檳榔政客 - 芋傳媒 TaroNews"}, {"url": "https://newtalk.tw/news/view/2019-11-14/326867", "t": "191114 1600", "title": "台灣基進公布不分區名單第三名留空努力爭取「正確人選」 | 政治 - 新頭殼"}, {"url": "https://tw.appledaily.com/politics/20191226/3XG2KZOTCM26MA45FHMZGCWR5I/", "t": "191226 1600", "title": "爸媽是韓粉！「韓粉家屬」吳欣岱被出征後不氣了 - 台灣蘋果日報"}, {"url": "https://www.ettoday.net/news/20200204/1637556.htm", "t": "200204 1154", "title": "雲端最前線／公開收容所引恐慌？200多人武漢包機返台 - ETtoday 新聞雲"}, {"url": "https://news.ltn.com.tw/news/politics/breakingnews/3017839", "t": "191222 1600", "title": "韓國瑜抱嬰兒害狂哭仍造勢 美女醫批：氣憤與難過 - 自由時報電子報"}, {"url": "https://www.setn.com/News.aspx?NewsID=659029", "t": "191223 1600", "title": "被韓國瑜捧吻女嬰痛哭！美女醫師建議：抱孩前先洗手 - 三立新聞網"}], "summary": "馬岱（183年－?），司隸右扶風茂陵人，中國三国蜀漢重要將領，馬騰的侄輩，馬超的堂弟，官至蜀漢平北将军，封陈仓侯。"}
{"term": "1450", "tdh": "2020020710", "tdate": "20200207", "links": [{"url": "https://money.udn.com/money/story/7307/4328664", "t": "200207 1542", "title": "戴不戴口罩變政治角力？柯笑：不想跟1450纏鬥！ - 經濟日報"}, {"url": "https://www.nownews.com/news/20200206/3920498/", "t": "200206 1158", "title": "影／洩漏北市安置點有陰謀論？ 柯文哲：1450還在上班| 影音 - NOWnews"}, {"url": "https://tw.news.yahoo.com/%E5%BF%AB%E6%96%B0%E8%81%9E-1450%E4%B8%8D%E8%A6%81%E8%B7%9F%E6%88%91%E5%90%B5%E6%88%B4%E5%8F%A3%E7%BD%A9-%E6%9F%AF%E6%96%87%E5%93%B2-%E7%AC%AC%E4%BA%8C%E6%89%B9%E8%BF%94%E5%8F%B0%E7%8F%AD%E6%A9%9F%E8%A6%81%E6%88%91%E4%B9%9F%E7%B0%BD%E4%B8%8D%E4%B8%8B%E5%8E%BB-041508916.html", "t": "200207 1422", "title": "快新聞／「1450不要跟我吵戴口罩」 柯文哲：第二批返台班機要我也簽不下去 - Yahoo奇摩新聞"}, {"url": "https://www.storm.mg/article/2262841", "t": "200206 1900", "title": "侯友宜「口罩戴好戴滿」被批與中央不同調 羅智強：1450的雙標可以再無恥一點 - 風傳媒"}, {"url": "https://tw.news.yahoo.com/video/%E6%B4%A9%E9%9A%94%E9%9B%A2%E5%9C%B0%E7%88%86%E9%99%B0%E8%AC%80%E8%AB%96-%E6%9F%AFp%E9%85%B8-1450%E9%81%B8%E5%AE%8C%E9%82%84%E4%B8%8A%E7%8F%AD-085506692.html", "t": "200206 1655", "title": "洩隔離地爆陰謀論柯P酸:1450選完還上班? - Yahoo奇摩新聞 - Yahoo奇摩新聞"}, {"url": "https://tw.news.yahoo.com/video/%E7%B2%BE%E5%BF%83%E7%AE%97%E8%A8%88-%E6%9B%9D%E9%9A%94%E9%9B%A2%E9%BB%9E-%E6%9F%AFp-%E6%80%8E%E9%BA%BC%E9%81%B8%E8%88%89%E7%B5%90%E6%9D%9F1450%E9%82%84%E5%9C%A8%E4%B8%8A%E7%8F%AD-030347440.html", "t": "200206 1123", "title": "「精心算計」曝隔離點？柯P：怎麼選舉結束1450還在上班 - Yahoo奇摩新聞"}, {"url": "https://www.chinatimes.com/realtimenews/20200122000035-260407", "t": "200122 1600", "title": "苦苓不自殺聲明惹攻擊 1450帶風向？ - 中時電子報 Chinatimes.com"}, {"url": "https://www.chinatimes.com/realtimenews/20200110002071-260407", "t": "200110 1600", "title": "徐佳瑩臉書慘遭網軍出征 何庭歡怒批：只有1450有言論自由？ - 中時電子報 Chinatimes.com"}, {"url": "https://www.nownews.com/news/20200115/3886634/", "t": "200115 1600", "title": "熊海靈再噴「1450這些畜生」 網紅淡定回擊被讚爆| 娛樂 - NOWnews"}, {"url": "https://news.tvbs.com.tw/politics/1260400", "t": "200109 1600", "title": "陳樹菊挺韓遭辱罵 韓國瑜開嗆1450：人格卑劣│TVBS新聞網 - TVBS新聞"}, {"url": "https://ent.ltn.com.tw/news/breakingnews/3040250", "t": "200114 1600", "title": "韓粉崩潰！熊海靈爆氣幹譙「1450是畜生」 網紅一席話直接嗆翻 - 自由時報電子報"}, {"url": "https://tw.nextmgz.com/realtimenews/news/488674", "t": "200114 1600", "title": "宋慧喬也是韓粉！？鋼鐵正妹「一柱擎天姐」嗆爆1450醜化撂這話超狂 - 台灣壹週刊"}, {"url": "https://tw.news.yahoo.com/%E5%B4%A9%E6%BD%B0%E8%AD%991450%E7%95%9C%E7%94%9F-%E9%9F%93%E7%B2%89%E5%A5%B3%E6%98%9F%E8%A2%AB%E5%97%86%E7%88%86-102003006.html", "t": "200114 1600", "title": "崩潰譙1450畜生 韓粉女星被嗆爆 - Yahoo奇摩新聞"}, {"url": "https://www.chinatimes.com/realtimenews/20200112001587-260407", "t": "200112 1600", "title": "行動代號「1450」？ 藍委：下周立院臨時會 全面清查養網軍預算 - 中時電子報 Chinatimes.com"}, {"url": "https://udn.com/news/story/6656/4328664?from=udn-catelistnews_ch2", "t": "200207 1526", "title": "影／ 戴不戴口罩變政治角力？柯笑：不想跟1450纏鬥！ - udn 聯合新聞網"}, {"url": "https://www.ettoday.net/news/20200109/1620992.htm", "t": "200109 1600", "title": "若蔡英文連任 他預言…新潮流、1450、台獨份子超開心 - ETtoday 新聞雲"}, {"url": "https://www.chinatimes.com/realtimenews/20200110001201-260407", "t": "200110 1600", "title": "凱道造勢太恐怖 1450嚇死：韓用一面旗子幹掉陳其邁、蔡英文！ - 中時電子報 Chinatimes.com"}, {"url": "https://www.mirrormedia.mg/story/20200120edi003/", "t": "200119 1600", "title": "對付1450網軍 國民黨拚刪各部會廣告預算 - 鏡週刊 - 鏡週刊"}, {"url": "https://www.ettoday.net/news/20200110/1622374.htm", "t": "200110 1600", "title": "1450狂黑樹菊阿嬤！ 台南藍軍：11日用選票「死當」蔡英文 - ETtoday 新聞雲"}, {"url": "https://tw.news.yahoo.com/%E5%9C%8B%E6%B0%91%E9%BB%A8%E5%8F%8D%E6%93%8A%E9%8E%96%E5%AE%9A-1450-%E7%B6%B2%E8%BB%8D-%E6%93%AC%E5%A4%A7%E5%88%AA%E5%90%84%E9%83%A8%E6%9C%83%E5%BB%A3%E5%91%8A%E9%A0%90%E7%AE%97-065712913.html", "t": "200118 1600", "title": "國民黨反擊！鎖定1450網軍 擬大刪各部會廣告預算 - Yahoo奇摩新聞"}], "summary": ""}
