{"term": "iOS 13", "tdh": "2019060401", "tdate": "20190604", "links": [{"url": "https://news.xfastest.com/apple/65735/ios-13-miui/", "t": "190603 1212", "title": "iOS 13系統截圖曝光：全新音量調節器神似MIUI風格 - XFastest News"}, {"url": "https://www.hk01.com/%E6%95%B8%E7%A2%BC%E7%94%9F%E6%B4%BB/336424/itunes-%E9%80%80%E5%BD%B9-mac-pro-%E7%99%BB%E5%A0%B4-wwdc-2019-%E5%9C%96%E6%96%87%E7%9B%B4%E6%92%AD-%E7%8F%BE%E5%A0%B4%E7%9B%B4%E6%93%8A", "t": "190603 2230", "title": "iTunes 退役？Mac Pro 登場？ WWDC 2019 圖文直播現場直擊 - 香港01"}, {"url": "https://udn.com/news/story/11017/3841775", "t": "190529 2048", "title": "iOS 13新功能升級 WWDC預測亮點一次看 - udn 聯合新聞網"}, {"url": "https://www.ettoday.net/news/20190527/1451219.htm", "t": "190527 0810", "title": "iOS 13亮相倒數！最新20項重大功能爆料一次看 - ETtoday 新聞雲"}, {"url": "https://www.chinatimes.com/realtimenews/20190520001598-260412", "t": "190520 1138", "title": "可升級iOS 13清單再曝光 史上最暢銷iPhone慘遭排除 - 中時電子報 Chinatimes.com"}, {"url": "https://3c.ltn.com.tw/news/36684", "t": "190507 1500", "title": "新版iOS 13 系統將登場！將為iPhone、iPad 用戶帶來十大實用功能 - 自由時報電子報"}, {"url": "https://unwire.hk/2019/05/30/ios-13-rumors-dark-mode-photo/mobile-phone/", "t": "190530 1647", "title": "iPhone Dark Mode新介面？疑似 iOS 13 最新截圖流出 - UNWIRE.HK"}, {"url": "https://m.eprice.com.tw/mobile/talk/4544/5333283/1/", "t": "190523 1500", "title": "iOS 13 將在台灣時間6/4 凌晨與大家見面，帶來近20 種新功能！ - ePrice 比價王"}, {"url": "https://applealmond.com/posts/52483", "t": "190511 1500", "title": "傳iOS 13 將不支援iPhone 6？但消息疑點很多 - 蘋果仁"}, {"url": "https://www.sogi.com.tw/articles/apple_wwdc2019_ios13/6252899", "t": "190524 1426", "title": "iOS 13即將推出？蘋果WWDC 2019活動6月登場 - SOGI 手機王"}, {"url": "https://www.sogi.com.tw/articles/apple_iphone_ios13/6252908", "t": "190528 1500", "title": "iOS 13疑洩2019年iPhone規格多方位提升使用體驗 - SOGI 手機王"}, {"url": "https://www.hk01.com/%E6%95%B8%E7%A2%BC%E7%94%9F%E6%B4%BB/328004/%E6%AF%8B%E9%A0%88%E7%AD%89ios-13-5%E6%AD%A5%E5%8D%B3%E7%8E%A9apple-iphone-dark-mode%E9%A1%AF%E7%A4%BA", "t": "190513 1500", "title": "毋須等iOS 13！5步即玩Apple iPhone Dark Mode顯示 - 香港01"}, {"url": "https://36kr.com/p/5211377", "t": "190603 0925", "title": "苹果WWDC19 前瞻：iOS 13 和MacOS 10.15 将有哪些更新？ - 36kr"}, {"url": "https://www.nmplus.hk/697041/gadgets/ios-13-apple-wwdc/", "t": "190523 1655", "title": "iOS 13將於Apple WWDC面世全新macOS及Mac Pro將會同登場｜新蚊Gadgets｜ - 新Monday"}, {"url": "https://www.cnbeta.com/articles/tech/853453.htm", "t": "190603 1856", "title": "iOS 13全新《提醒》APP界面曝光：支持暗色模式、抽屉式UI - Apple iPhone - cnBeta"}, {"url": "http://globalnewstv.com.tw/201905/68530/", "t": "190513 1500", "title": "蘋果今年秋天推iOS 13 外媒：將不支援i6系列 - 寰宇新聞網"}, {"url": "https://www.chinatimes.com/realtimenews/20190514000003-260412", "t": "190514 0011", "title": "傳2019新iPhone機身更厚 相機變焦能力提升 - 中時電子報 Chinatimes.com"}, {"url": "https://www.cnbeta.com/articles/tech/851619.htm", "t": "190528 2338", "title": "iOS 13 截图曝光深色模式确认- Apple iPhone - cnBeta"}, {"url": "http://technews.tw/2019/04/17/apple-ios-13-wait-and-see/", "t": "190417 1500", "title": "除了期待已久的深色模式，還能從iOS 13 更新發現什麼 - 科技新報 TechNews"}, {"url": "https://news.cts.com.tw/cts/international/201905/201905281962425.html", "t": "190528 1936", "title": "2019/05/28 19:36蘋果iOS13系統6月發表5大亮點預測 - 華視新聞"}], "summary": "iOS（原名為iPhone OS）是蘋果公司為其流動裝置所開發的專有流動作業系統，為其公司的許多流動裝置提供操作界面，支援裝置包括iPhone、iPad和iPod touch。iPhone OS自iOS 4起便改名為iOS，它是繼Android後全球第二大最受歡迎的流動作業系統，市佔率已上升至約24.5% ，但仍遠低於Google開發的Android系統的72.2%。\niOS最初隨iPhone亮相於2007年推出，並擴展至支援其他蘋果公司的裝置，如iPod touch（2007年9月）及iPad（2010年1月）。截至2017年1月，蘋果公司的App Store已提供超過220萬個iOS應用程式，當中有100萬個是適用於iPad的原生應用程式。這些移動應用程序的下載總量已超過1,300億次。\niOS的用戶介面是使用多點觸控來直接操作。界面操控元素包括滑動條、開關及按鈕。跟操作界面的控制包括滑動、點擊、扭捏及反向扭捏。這些所有都在iOS操作系统及其多點觸控界面中有具體的定義。內置的速度傳感器能夠被某些應用程序使用，當裝置搖動時以的作出回應（一個常見的結果是還原指令），或以三維方式旋轉（常見於切換縱向及橫向之間的屏幕模式）。蘋果公司把輔助功能整合到iOS中，讓視力或聽力障礙的用戶能夠在無障礙環境下正確使用其產品而獲得極大的讚賞。\niOS的主要版本通常每年發布一次。目前的版本是2018年9月17日發布的iOS 12。它適用於所有備有64位處理器的iPhone 5s及以後的機型、iPad (第5代)、iPad Air和之後的型號、所有iPad Pro型號、iPad mini 2和之後型號，以及iPod touch (第六代) 的iOS裝置。"}
{"term": "賀一航", "tdh": "2019060401", "tdate": "20190604", "links": [{"url": "https://www.cna.com.tw/news/firstnews/201906035005.aspx", "t": "190603 2345", "title": "賀一航64歲癌逝冷面笑匠藝界人生悲喜交織| 娛樂| 重點新聞 - 中央社即時新聞"}, {"url": "https://stars.udn.com/star/story/10091/3851343", "t": "190604 0005", "title": "賀一航2個月短命婚 把妹無數今生最愛是她！ - udn 噓!星聞"}, {"url": "https://stars.udn.com/star/story/10091/3851293", "t": "190603 2345", "title": "中視長官10天前探病 賀一航堅稱「身體發炎」 - udn 噓!星聞"}, {"url": "https://stars.udn.com/star/story/10091/3851045", "t": "190603 2241", "title": "賀一航離世 吳慷仁悼：真的喜歡您演戲的樣子... - udn 噓!星聞"}, {"url": "https://star.ettoday.net/news/1459367", "t": "190603 2208", "title": "快訊／賀一航大腸癌病逝！享壽64歲 老婆悲痛大哭 - ETtoday 新聞雲"}, {"url": "https://news.tvbs.com.tw/eventsite/hottopic/2.html", "t": "190603 2326", "title": "資深藝人賀一航病逝享年64歲│TVBS新聞網 - TVBS旅食樂"}, {"url": "https://tw.news.yahoo.com/%E5%BF%AB%E8%A8%8A%E8%B3%80%E4%B8%80%E8%88%AA%E5%A4%A7%E8%85%B8%E7%99%8C%E9%81%8E%E4%B8%96-%E4%BA%AB%E5%A3%BD-64-%E6%AD%B2-141155740.html", "t": "190603 2211", "title": "快訊／賀一航大腸癌過世 享壽64歲 - Yahoo奇摩新聞"}, {"url": "https://tw.news.yahoo.com/%E8%B3%80%E4%B8%80%E8%88%AA%E9%80%9D%E4%B8%96%E5%89%8D4%E5%80%8B%E6%9C%88%E9%82%84%E4%B8%8A%E9%A3%A2%E9%A4%93%E9%81%8A%E6%88%B2%E8%B7%91%E8%B7%B3%E9%A4%93%E8%82%9A%E5%AD%90%E7%95%AB%E9%9D%A2%E6%83%B9%E9%BC%BB%E9%85%B8-151702431.html", "t": "190603 2317", "title": "賀一航逝世前4個月⋯還上《飢餓遊戲》跑跳餓肚子！ 抱病畫面惹鼻酸 - Yahoo奇摩新聞"}, {"url": "https://stars.udn.com/star/story/10091/3851288", "t": "190603 2334", "title": "獨／賀一航才剛說要搬新家竟傳離世 林美秀懷念他「可愛」的這些事 - udn 噓!星聞"}, {"url": "https://news.tvbs.com.tw/entertainment/1143708", "t": "190603 2358", "title": "召妓沾毒、被關！賀一航人生大起大落 浪子回頭敲響金鐘 - TVBS新聞"}, {"url": "https://www.ettoday.net/news/20190603/1459377.htm", "t": "190603 2252", "title": "賀一航等不及《鏡子森林》播出 議長角色海派被封「喬王」 - ETtoday 新聞雲"}, {"url": "https://stars.udn.com/star/story/10091/3851177", "t": "190603 2313", "title": "曝賀一航暖心面 李千那哀悼：你都會給我鼓勵 - udn 噓!星聞"}, {"url": "https://www.chinatimes.com/realtimenews/20190603003901-260404", "t": "190603 2307", "title": "歌廳秀起家 賀一航昔帥氣傘兵神龍 - 中時電子報 Chinatimes.com"}, {"url": "https://stars.udn.com/star/story/10091/3851297?from=udn-ch1_breaknews-1-cate8-news", "t": "190603 2351", "title": "「他才剛買房」白冰冰曝賀一航最大遺憾 - udn 聯合新聞網"}, {"url": "https://stars.udn.com/star/story/10091/3851103?from=udn-ch1_breaknews-1-cate8-news", "t": "190603 2252", "title": "賀一航驟逝 好友鄭進一難調適喊：不太相信 - udn 聯合新聞網"}, {"url": "https://tw.news.yahoo.com/%E8%B3%80-%E8%88%AA%E7%A5%9E%E7%AE%97-%E5%A0%B14%E5%AD%97%E6%98%8E%E7%89%8C%E9%A9%9A%E7%8F%BE%E6%81%90%E4%BD%88%E5%B7%A7%E5%90%88-160725710.html", "t": "190604 0007", "title": "賀一航神算？報4字明牌驚現恐佈巧合 - Yahoo奇摩新聞"}, {"url": "https://www.nownews.com/news/20190603/3424071/", "t": "190603 2237", "title": "賀一航驚傳大腸癌辭世搭檔白冰冰證實「剛得知」 | 娛樂 - NOWnews"}, {"url": "https://health.udn.com/health/story/5681/3850990", "t": "190603 2220", "title": "震驚！賀一航大腸癌病逝 享壽64歲 - udn 元氣網"}, {"url": "https://star.ettoday.net/news/1459417", "t": "190604 0000", "title": "吳慷仁8個月前才合作… 哀悼賀一航：喜歡您演戲的樣子 - ETtoday 新聞雲"}, {"url": "https://www.mirrormedia.mg/story/20190603ent036", "t": "190603 2354", "title": "【賀一航病逝】和豬哥亮心結未解？ 他倆都因大腸癌逝 - 鏡週刊"}], "summary": "賀一航（1954年7月31日－2019年6月3日），本名曾新民，為主持人、歌手、演員，成名曲《媽媽請您不通痛》。進入演藝圈之前，當了8年的傘兵，曾是中華民國陸軍神龍小組的一員，以士官長退伍。於2019年6月3日因大腸癌第三期病逝，享壽64歲。"}
{"term": "NBA", "tdh": "2019060401", "tdate": "20190604", "links": [{"url": "https://sports.ltn.com.tw/news/breakingnews/2810386", "t": "190603 1051", "title": "NBA》勇士4人進休息室！柯瑞、K湯轟48分驚險擊敗暴龍扳平戰局 - 自由時報電子報"}, {"url": "https://sports.ltn.com.tw/news/breakingnews/2807717", "t": "190531 0754", "title": "NBA》利多！衛冕軍首戰傳捷報「表弟」今天就復出 - 自由時報電子報"}, {"url": "https://nba.udn.com/nba/story/6780/3848341", "t": "190602 1236", "title": "今夏有望簽頂級合約 華克：首選仍是黃蜂 - NBA 台灣 | 聯合新聞網"}, {"url": "https://sports.ltn.com.tw/news/breakingnews/2810334", "t": "190603 1114", "title": "NBA》歐洲金童自爆爵士生涯恐畫下句點羨慕加索打進總冠軍戰 - 自由時報電子報"}, {"url": "https://nba.udn.com/nba/story/6780/3848651", "t": "190602 1612", "title": "衛斯特獲總統自由勳章 NBA史上第4人 - NBA 台灣 | 聯合新聞網"}, {"url": "https://sports.ltn.com.tw/news/breakingnews/2810264", "t": "190603 0831", "title": "NBA Live》總冠軍賽Game 2 勇士VS. 暴龍 - 自由時報電子報"}, {"url": "https://nba.udn.com/nba/story/6780/3846662", "t": "190601 0946", "title": "總冠軍賽出師不利 湯普森：會像冠軍作出回應 - NBA 台灣 | 聯合新聞網"}, {"url": "https://nba.udn.com/nba/story/6780/3847188", "t": "190601 1446", "title": "澳籃隊伍抓內鬼 安東尼意外成主角 - NBA 台灣 | 聯合新聞網"}, {"url": "https://www.chinatimes.com/realtimenews/20190603000918-260403", "t": "190603 0808", "title": "NBA》真假？火箭差點送保羅去公牛 - 中時電子報 Chinatimes.com"}, {"url": "https://sports.ettoday.net/news/1458975", "t": "190603 1257", "title": "NBA冠軍戰／5.05萬美元一張G4場邊！ NBA門票創最貴紀錄 - ETtoday 新聞雲"}, {"url": "https://www.dongtw.com/nba/20190602/946672.html", "t": "190602 1846", "title": "都還沒進NBA呢！大熱新秀拒絕灰熊試訓邀約，鐵了心要去尼克| NBA - DONGTW動網"}, {"url": "https://tw.news.yahoo.com/nba-%E6%AD%90%E5%B7%B4%E9%A6%AC%E7%9C%8Bg2-%E6%B2%92%E7%A9%BF%E5%8C%97%E5%9C%8B%E7%B4%85%E8%A1%A3-021709776.html", "t": "190603 1117", "title": "NBA／歐巴馬看G2 沒穿北國紅衣 - Yahoo奇摩新聞"}, {"url": "https://nba.udn.com/nba/story/6780/3845326", "t": "190531 1425", "title": "多倫多迎接決賽首戰 暴龍舊將齊聚一堂 - NBA 台灣 | 聯合新聞網"}, {"url": "https://udn.com/news/story/7002/3845043", "t": "190531 1228", "title": "NBA／隊史首場冠軍賽就贏球 暴龍成史上第四隊 - udn 聯合新聞網"}, {"url": "https://udn.com/news/story/7002/3847133", "t": "190601 1425", "title": "NBA／湖人下季熱身賽行程曝光 預計與勇士4度交手 - udn 聯合新聞網"}, {"url": "https://sports.ltn.com.tw/news/breakingnews/2809599", "t": "190602 1054", "title": "NBA》巴特勒將成自由球員傳七六人將開出豪華大約留人 - 自由時報電子報"}, {"url": "https://nba.udn.com/nba/story/6780/3848146", "t": "190602 1000", "title": "利物浦歐冠聯賽奪金盃 詹姆斯股份暴漲7倍 - NBA 台灣 | 聯合新聞網"}, {"url": "https://udn.com/news/story/7002/3842717", "t": "190530 1137", "title": "NBA／只留哈登重建？ 火箭恐掀換人潮 - udn 聯合新聞網"}, {"url": "https://udn.com/news/story/7489/3838895", "t": "190528 1454", "title": "NBA／對決生涯起點球隊 林書豪拚首枚總冠軍戒 - udn 聯合新聞網"}, {"url": "https://tw.sports.yahoo.com/news/nba-%E5%88%A9%E7%89%A9%E6%B5%A6%E5%A5%AA%E5%86%A0-%E8%A9%B9%E7%9A%87%E8%82%A1%E4%BB%BD%E7%BF%BB7%E5%80%8D-105130638.html", "t": "190602 1901", "title": "NBA／利物浦奪冠 詹皇股份翻7倍 - Yahoo奇摩運動"}], "summary": "國家籃球協會（英语：National Basketball Association，缩写：NBA）是北美的男子職業籃球組織，拥有30支球队，分属两个分區（Conference）：东部联盟和西部联盟；而每个分區各由三个赛区（Division）组成，每个赛区有五支球队。所屬球隊中除了一支来自加拿大的多伦多速龍之外，其餘均位於美國。其赛事美国职业篮球联赛（或称美国篮球联赛，简称美職籃）也被直接称为NBA。\nNBA正式赛季於每年10月中开始，分为常規賽、季後賽兩大部分。常规赛为循环赛制，每支球队都要完成82场比赛；常规赛到次年的4月结束，每个联盟的前八名将有资格进入接下来进行的季后赛。季后赛采用七戰四勝赛制，共分四轮；季后赛的最后一轮也称为总决赛，由两个联盟的冠军争夺NBA的最高荣誉──总冠军。整個NBA賽季當中，常規賽完結之後分区冠军不設獎盃，只給予得獎球隊錦旗一個，但联盟冠军及总冠军均設有獎盃加錦旗。\nNBA前身是1946年成立的全美籃球協會（簡稱BAA），1949年改為現名。协会总部位于纽约市第五大道645号的奥林匹克塔大厦，现任总裁为亞當·萧華。NBA是北美四大職業運動之一，又因美國在世界籃球界的領導地位，而被視為全世界水準最高的職業籃球賽事。"}
{"term": "Uniqlo", "tdh": "2019060401", "tdate": "20190604", "links": [{"url": "https://www.hk01.com/%E7%86%B1%E7%88%86%E8%A9%B1%E9%A1%8C/336297/uniqlo%E8%81%AF%E4%B9%98kaws-ut%E7%B3%BB%E5%88%97%E9%96%8B%E8%B3%A3-%E5%85%A7%E5%9C%B0%E5%AE%A2%E7%98%8B%E6%90%B6%E5%A6%82%E5%B1%8D%E6%AE%BA%E5%88%97%E8%BB%8A-%E5%A0%B4%E9%9D%A2%E8%B6%85%E9%9C%87%E6%92%BC", "t": "190603 2046", "title": "Uniqlo聯乘KAWS UT系列開賣內地客瘋搶如屍殺列車場面超震撼 - 香港01"}, {"url": "https://www.hk01.com/%E4%B8%80%E7%89%A9/336290/uniqlo-%E9%80%B2%E8%BB%8D%E6%84%8F%E5%A4%A7%E5%88%A9%E9%96%8B%E8%A8%AD%E6%97%97%E8%89%A6%E5%BA%97-%E8%B5%B0%E5%90%91%E5%85%A8%E7%90%83%E5%8C%96%E5%8B%A2%E8%B6%85%E8%B6%8Azara-h-m", "t": "190603 1739", "title": "【UNIQLO】進軍意大利開設旗艦店走向全球化勢超越Zara、H&M？ - 香港01"}, {"url": "https://tw.news.yahoo.com/kaws%E8%88%87uniqlo%E6%8E%A8%E5%87%BA%E6%9C%80%E5%BE%8C%E8%81%AF%E5%90%8D-035505301.html", "t": "190531 1255", "title": "KAWS與UNIQLO推出最後聯名 - Yahoo奇摩新聞"}, {"url": "https://www.hk01.com/%E7%A9%BF%E6%90%AD%E7%AD%86%E8%A8%98/334524/%E6%97%A5%E6%9C%AC%E5%B8%AB%E5%A5%B6-%E8%B2%B7%E9%A4%B8look-%E5%90%B8%E5%BC%95uniqlo%E5%AE%98%E6%96%B9%E7%95%99%E8%A8%80-%E6%B0%A3%E8%B3%AA%E8%88%87%E6%B1%82%E5%85%B6%E4%B8%80%E7%B7%9A%E4%B9%8B%E5%B7%AE", "t": "190603 0800", "title": "日本師奶「買餸look」吸引Uniqlo官方留言氣質與求其一線之差 - 香港01"}, {"url": "https://www.4gamers.com.tw/news/detail/38947/uniqlo-new-manga-ut-coming-to-taiwan-this-week", "t": "190524 1900", "title": "24日開賣！UNIQLO「MANGA UT」台灣上架款分享，名場面、台詞全部穿上身 - 4Gamers"}, {"url": "https://udn.com/news/story/7270/3841023", "t": "190529 1516", "title": "潮流迷注意！KAWS再度攜手UNIQLO 聯名系列6月開賣 - udn 聯合新聞網"}, {"url": "https://ec.ltn.com.tw/article/breakingnews/2789513", "t": "190514 1500", "title": "Uniqlo母公司日本網站遭駭客入侵46萬帳戶個資遭洩 - 自由時報電子報"}, {"url": "https://tw.esports.yahoo.com/uniqlo-093613362.html", "t": "190523 1500", "title": "不給過！Uniqlo 取消中國參賽者《寶可夢》設計大賞冠軍資格 - Yahoo奇摩電競"}, {"url": "https://tw.esports.yahoo.com/%E6%BC%AB%E7%95%AB%E8%BF%B7%E6%B3%A8%E6%84%8F-uniqlo%E6%8E%A8%E6%BC%AB%E7%95%AB%E7%B3%BB%E5%88%97ut-%E7%B6%93%E5%85%B8%E8%A7%92%E8%89%B2%E9%80%9A%E9%80%9A%E7%A9%BF%E4%B8%8A%E8%BA%AB-083445477.html", "t": "190515 1500", "title": "漫畫迷注意！Uniqlo推漫畫系列UT 經典角色通通穿上身 - Yahoo奇摩電競"}, {"url": "https://www.weekendhk.com/947841/lifestyle/%E8%B3%BC%E7%89%A9%E5%84%AA%E6%83%A0%E6%83%85%E5%A0%B1/toy-story-uniqlo-%E5%8F%8D%E6%96%97%E5%A5%87%E5%85%B5/", "t": "190531 1555", "title": "TOY STORY x UNIQLO聯乘系列今日開賣買滿$200換埋扭蛋| 購物優惠情報 - 新假期周刊"}, {"url": "https://udn.com/news/story/7321/3834140", "t": "190525 1500", "title": "得不償失！她為滿足幼子洗劫Uniqlo被判刑 - udn 聯合新聞網"}, {"url": "https://www.gq.com.tw/fashion/fashion-news/content-39567.html", "t": "190515 1824", "title": "UNIQLO X KAWS 聯名曝光！COMPANION 與 BFF 接連登場！ - GQ Taiwan"}, {"url": "https://ysolife.com/uniqlo-x-fender-ut/", "t": "190523 1500", "title": "吉他迷必備UNIQLO x Fender聯名T，穿著你最愛的吉他一起搖滾 - 樂手巢 YSOLIFE"}, {"url": "https://hk.news.yahoo.com/%E5%86%8D%E6%B6%89uniqlo%E5%81%B7%E8%A1%AB-%E4%BC%91%E7%8F%AD%E8%AD%A6%E9%81%AD%E5%8A%A0%E6%8E%A7%E7%9B%9C%E7%AB%8A%E7%BD%AA-083423177.html", "t": "190603 1634", "title": "再涉UNIQLO偷衫休班警遭加控盜竊罪| 新聞- Yahoo雅虎香港 - 雅虎香港新聞"}, {"url": "https://www.4gamers.com.tw/news/detail/38882/2019-blizzard-overwatch-wow-diablo-cooperate-with-uniqlo-available-on-may-17", "t": "190517 1500", "title": "暴雪x Uniqlo「UT」T恤台灣17日開賣，衝一波信仰上架款全部看 - 4Gamers"}, {"url": "https://www.techbang.com/posts/70159-from-year-seven-to-generation-z-you-have-to-have-the-blood-memories", "t": "190517 1500", "title": "UNIQLO推漫畫UT系列，名偵探柯南、航海王、獵人、火影忍者超多經典角色登場 - T客邦"}, {"url": "https://www.4gamers.com.tw/news/detail/38933/uniqlo-ut-grand-prix-2019-pokemon-t-shirt-revealed", "t": "190520 1500", "title": "Uniqlo x 精靈寶可夢UTGP 2019 獲獎T恤6月開賣，冠軍作品將在《寶可夢劍／盾》登場 - 4Gamers"}, {"url": "https://hypebeast.com/zh/2019/5/uniqlo-ut-x-verdy-rise-again-by-verdy-hk-release-info", "t": "190527 1536", "title": "UNIQLO UT x Verdy「Rise Again By Verdy」系列香港區發售情報 - HYPEBEAST"}, {"url": "https://tw.news.yahoo.com/uniqlo%E8%88%87%E5%AF%B6%E5%8F%AF%E5%A4%A2t%E6%81%A4%E8%A8%AD%E8%A8%88%E5%A4%A7%E8%B3%BD-%E5%86%A0%E8%BB%8D%E8%A2%AB%E7%88%86%E6%B7%98%E5%AF%B6%E6%97%A9%E6%9C%89%E5%90%8C%E6%AC%BE-043030612.html", "t": "190521 1500", "title": "Uniqlo與寶可夢T恤設計大賽 冠軍被爆淘寶早有同款 - Yahoo奇摩新聞"}, {"url": "https://mf.techbang.com/posts/7853-american-fashion-tooling-wind-hits-uniqlo-x-engineered-garments-joint-series-wear-classic-new-taste", "t": "190513 1500", "title": "美式時尚工裝風來襲！UNIQLO x Engineered Garments 聯名系列穿出經典新滋味 - MF變型男"}], "summary": "Uniqlo（日語：ユニクロ）是經營休閒、運動服裝設計、製造和零售的日本公司，由柳井正創立。原本隸屬迅銷公司旗下，在2005年11月1日公司重整後，UNIQLO現在為迅銷的100%全資附屬公司，1999年2月該公司股票在東京證券交易所第一部上市。定位為“快時尚”的Uniqlo.目前為全球知名服裝品牌之一，除了日本之外目前在全球十七個地區展開業務。"}
{"term": "東大門夜市", "tdh": "2019060401", "tdate": "20190604", "links": [{"url": "https://newtalk.tw/news/view/2019-06-03/255051", "t": "190603 1501", "title": "東大門夜市起火影響韓國瑜8日造勢？婦女會：活動照常| 政治 - 新頭殼"}, {"url": "https://www.mirrormedia.mg/story/20190603edi004", "t": "190603 1108", "title": "韓國瑜才剛說要來 花蓮東大門夜市凌晨就傳火警 - 鏡週刊"}, {"url": "https://tw.news.yahoo.com/%E8%8A%B1%E8%93%AE%E6%9D%B1%E5%A4%A7%E9%96%80%E5%A4%9C%E5%B8%82%E7%81%AB%E8%AD%A6-1-%E5%9C%96-020647421.html", "t": "190603 1006", "title": "花蓮東大門夜市火警（1） (圖) - Yahoo奇摩新聞"}, {"url": "https://tw.news.yahoo.com/%E6%9D%B1%E5%A4%A7%E9%96%80%E5%A4%9C%E5%B8%82%E5%A4%A7%E7%81%AB-%E9%9F%93%E5%9C%8B%E7%91%9C-%E7%85%A7%E9%A1%A7%E6%94%A4%E5%95%86%E7%94%9F%E6%B4%BB%E6%9C%80%E9%87%8D%E8%A6%81-021818267.html", "t": "190603 1018", "title": "東大門夜市大火 韓國瑜：照顧攤商生活最重要 - Yahoo奇摩新聞"}, {"url": "https://www.ttv.com.tw/news/view/10806030012400I/579", "t": "190603 1400", "title": "火燒東大門夜市攤商驚恐:很多爆炸聲韓國瑜週六造勢東大門夜市44攤焚燬 - 台視新聞"}, {"url": "https://tw.news.yahoo.com/%E8%8A%B1%E8%93%AE%E6%9D%B1%E5%A4%A7%E9%96%80%E5%A4%9C%E5%B8%8240%E6%94%A4%E4%BD%8D%E9%99%B7%E5%85%A5%E7%81%AB%E6%B5%B7-%E7%96%91%E6%9D%9C%E8%A9%A9%E6%A2%85%E7%87%92%E7%83%A4%E5%BA%97%E5%BC%95%E8%B5%B7-230639704.html", "t": "190603 0713", "title": "韓國瑜花蓮造勢前！東大門凌晨冒大火 40攤位陷火海 - Yahoo奇摩新聞"}, {"url": "https://stars.udn.com/star/story/10091/3849447?from=udn-ch1_breaknews-1-cate8-news", "t": "190603 0155", "title": "花蓮東大門夜市半夜爆大火！杜詩梅老公急衝現場搬瓦斯 - udn 聯合新聞網"}, {"url": "https://udn.com/news/story/6656/3849713?from=udn-catebreaknews_ch2", "t": "190603 1129", "title": "花蓮東大門失火 韓國瑜：擔心攤販如何謀生 - udn 聯合新聞網"}, {"url": "https://news.sina.com.tw/article/20190603/31502484.html", "t": "190603 1007", "title": "花蓮東大門夜市火警（2）-社會新聞 - 臺灣新浪網"}, {"url": "https://tw.news.yahoo.com/%E6%83%A1%E7%81%AB%E6%AF%8030%E6%94%A4%E4%BD%8D-%E6%94%A4%E8%B2%A9%E9%A9%9A-%E7%88%86%E7%82%B8%E8%81%B2%E5%BE%88%E5%A4%9A-032544375.html", "t": "190603 1355", "title": "惡火毀30攤位 攤販驚：爆炸聲很多 - Yahoo奇摩新聞"}, {"url": "https://tw.news.yahoo.com/%E5%9B%A0%E6%9D%B1%E5%A4%A7%E9%96%80%E5%A4%9C%E5%B8%82%E8%88%88%E8%B5%B7-%E6%98%94%E8%8A%B1%E8%93%AE%E7%86%B1%E9%AC%A7%E5%95%86%E5%9C%88%E9%87%91%E4%B8%89%E8%A7%92%E6%B2%92%E8%90%BD-044558786.html", "t": "190504 1500", "title": "因東大門夜市興起？昔花蓮熱鬧商圈金三角沒落 - Yahoo奇摩新聞"}, {"url": "https://tw.news.yahoo.com/%E8%8A%B1%E8%93%AE%E5%A4%9C%E5%B8%82%E5%A4%A7%E7%81%AB-%E9%9F%93%E5%9C%8B%E7%91%9C-%E6%87%89%E6%9F%A5%E6%98%8E%E5%8E%9F%E5%9B%A0-053444469.html", "t": "190603 1334", "title": "花蓮夜市大火 韓國瑜：應查明原因 - Yahoo奇摩新聞"}, {"url": "https://udn.com/news/story/6656/3849629?from=udn-ch1_breaknews-1-cate1-news", "t": "190603 1049", "title": "不畏東大門惡火 韓國瑜6月8日將前進花蓮 - udn 聯合新聞網"}, {"url": "https://news.sina.com.tw/article/20190603/31509124.html", "t": "190603 1833", "title": "東大門夜市火警惹關注花蓮縣府高度重視 - 臺灣新浪網"}, {"url": "https://news.sina.com.tw/article/20190603/31509122.html", "t": "190603 1833", "title": "東大門夜市火警消防署鑑識專家將助調查 - 臺灣新浪網"}, {"url": "https://www.ttv.com.tw/news/view/108060300002001/568", "t": "190603 0845", "title": "韓國瑜花蓮造勢有望重現國瑜夜市榮景六期重劃區腹地廣攤商忙備料搶賺選舉財 - 台視新聞"}, {"url": "https://tw.news.yahoo.com/%E5%A4%A7%E5%9D%915-1%E8%99%9F%E6%AD%A5%E9%81%93%E7%99%BC%E7%8F%BE%E7%9C%BC%E9%8F%A1%E8%9B%87-%E5%B1%B1%E5%8F%8B%E7%95%B6%E5%BF%83-215007138.html", "t": "190603 0550", "title": "大坑5-1號步道發現眼鏡蛇 山友當心 - Yahoo奇摩新聞"}, {"url": "https://tw.news.yahoo.com/video/%E9%AB%98%E4%B8%89%E6%B3%B3%E5%B0%87%E5%85%A5%E6%B0%B4%E6%92%9E%E6%B1%A0%E5%BA%95-%E9%A0%B8%E6%A4%8E%E9%AA%A8%E6%8A%98%E9%80%81%E9%86%AB%E7%99%B1%E7%98%93-121801367.html", "t": "190602 2018", "title": "高三泳將入水撞池底 頸椎骨折送醫癱瘓 - Yahoo奇摩新聞"}, {"url": "https://tw.news.yahoo.com/video/%E5%BE%A9%E8%82%B2%E6%88%90%E5%8A%9F-%E8%88%B9%E9%95%B7%E5%B8%B6%E6%A2%85%E8%8A%B1%E9%B9%BF%E9%80%9B%E5%A2%BE%E4%B8%81%E5%A4%A7%E8%A1%97-121700612.html", "t": "190602 2017", "title": "復育成功! 船長帶梅花鹿逛墾丁大街 - Yahoo奇摩新聞"}, {"url": "https://tw.news.yahoo.com/%E6%96%B0%E6%9C%88%E6%B2%99%E7%81%98%E6%BA%BA%E6%B0%B4%E6%84%8F%E5%A4%96-1%E7%94%B7%E6%95%91%E8%B5%B7%E4%B8%8D%E6%B2%BB-010400158.html", "t": "190603 0904", "title": "新月沙灘溺水意外 1男救起不治 - Yahoo奇摩新聞"}], "summary": "本文列出臺灣的主要夜市："}
{"term": "星巴克買一送一", "tdh": "2019060401", "tdate": "20190604", "links": [{"url": "https://applealmond.com/posts/53599", "t": "190603 1515", "title": "星巴克買一送一來囉！6 月連續4 天，咖啡買一杯送一杯優惠 - 蘋果仁"}, {"url": "https://udn.com/news/story/7185/3844857", "t": "190603 0736", "title": "星巴克買一送一又來了！「星光+晨光」今起連續4天好友分享揪一波 - udn 聯合新聞網"}, {"url": "https://www.upmedia.mg/news_info.php?SerialNo=64391", "t": "190531 1200", "title": "星巴克買一送一又來啦！伯朗、85度C、cama、黑浮5/31~6/10 飲品優惠總整理--上報 - 上報"}, {"url": "https://applealmond.com/posts/52655", "t": "190515 1500", "title": "星巴克買一送一、第二杯半價等優惠，連續16天線上領取免費飲料！ - 蘋果仁"}, {"url": "https://applealmond.com/posts/52589", "t": "190513 1500", "title": "星巴克買一送一活動：這次還有多款新飲料上市！ - 蘋果仁"}, {"url": "https://applealmond.com/posts/52201", "t": "190507 1500", "title": "星巴克買一送一/ 5 月份買一送一活動來了，連續五天都有優惠喔！ - 蘋果仁"}, {"url": "https://www.chinatimes.com/realtimenews/20190513001963-260405", "t": "190513 1307", "title": "星巴克今買一送一 人氣飲品回歸 - 中時電子報 Chinatimes.com"}, {"url": "https://www.ettoday.net/news/20190510/1441509.htm", "t": "190510 1447", "title": "迎接夏天「買一送一」優惠來了！星巴克好友分享日限定這天 - ETtoday 新聞雲"}, {"url": "https://www.ettoday.net/news/20190530/1456330.htm", "t": "190530 1527", "title": "「全台最醜星巴克」突然掰了！憑今年度發票可享鄰近門市買1送1 - ETtoday 新聞雲"}, {"url": "https://www.walkerland.com.tw/subject/view/222261", "t": "190516 1500", "title": "星巴克買一送一強勢再加碼！星巴克大人味「提拉米蘇星蕨餅」新上市，連續19天買就直接送「星巴克好友分享券」。 - WalkerLand窩客島 - WalkerLand窩客島"}, {"url": "https://udn.com/news/story/7185/3836303", "t": "190527 1130", "title": "「星巴克續杯優惠」又來了！ 當天續杯打七折 好康一路持續到今年底！ - udn 聯合新聞網"}, {"url": "https://udn.com/news/story/7185/3802268", "t": "190509 1500", "title": "母親節飲品買一送一！西雅圖咖啡限期一天優惠活動 - udn 聯合新聞網"}, {"url": "https://n.yam.com/Article/20190515471452", "t": "190515 1500", "title": "星巴克端午優惠！全新禮盒享咖啡買一送一 - yamNews蕃新聞"}, {"url": "https://www.businesstoday.com.tw/article/category/80392/post/201904010012/%E9%99%90%E6%99%82%E5%9B%9B%E5%B0%8F%E6%99%82%EF%BC%81%E6%98%9F%E5%B7%B4%E5%85%8B%E8%B2%B7%E4%B8%80%E9%80%81%E4%B8%80%E5%8F%88%E4%BE%86%E4%BA%86", "t": "190401 1500", "title": "限時四小時！星巴克買一送一又來了 - 今周刊"}, {"url": "https://applealmond.com/posts/48082", "t": "190210 1600", "title": "【星巴克買一送一】開工日好友優惠，咖啡飲料買一杯送一杯！ - 蘋果仁"}, {"url": "https://applealmond.com/posts/51509", "t": "190423 1500", "title": "四月最後一次星巴克買一送一，「星光好友分享日」僅有四小時請把握機會！ - 蘋果仁"}, {"url": "https://udn.com/news/story/7185/3744776", "t": "190409 1500", "title": "太瘋狂了！星巴克「買一送一」連續21天獎不完 今日下午4點、12日加碼優惠贈送 - udn 聯合新聞網"}, {"url": "https://applealmond.com/posts/50262", "t": "190328 1500", "title": "星巴克買一送一活動，活動時間僅限4 小時！另有新產品上市 - 蘋果仁"}, {"url": "https://applealmond.com/posts/49874", "t": "190321 1500", "title": "星巴克買一送一！今天推出「限時4 小時」的買一送一優惠 - 蘋果仁"}, {"url": "https://topick.hket.com/article/2355815/Starbucks%E5%BF%AB%E9%96%83%E5%84%AA%E6%83%A0%E5%8F%AA%E9%99%90%E4%BB%8A%E5%A4%A9%E3%80%80%E6%9C%83%E5%93%A1%E5%8F%AF%E4%BA%AB%E6%98%9F%E5%86%B0%E6%A8%82%E8%B2%B7%E4%B8%80%E9%80%81%E4%B8%80%E5%84%AA%E6%83%A0%E3%80%90%E5%85%A7%E9%99%84%E7%99%BB%E8%A8%98%E6%88%90%E6%9C%83%E5%93%A1%E6%96%B9%E6%B3%95%E3%80%91", "t": "190522 1500", "title": "Starbucks快閃優惠只限今天會員可享星冰樂買一送一優惠【內附登記成會員方法】 - 香港經濟日報- TOPick - 精明消費 - 香港經濟日報 - TOPick"}], "summary": "巴拉克·奥巴马（英语：Barack Obama，1961年8月4日－），全名巴拉克·侯赛因·奥巴马二世（英语：Barack Hussein Obama II，美國 /bəˈrɑːk huːˈseɪn oʊˈbɑːmə/），是美國政治人物，从2009年至2017年任第44任美國總統。他是首位擁有非裔血統的美国总统。2005年至2008年代表伊利诺伊州担任美國聯邦參議員，从1997年至2004年担任伊利诺伊州参议员，居於芝加哥。現定居首都华府。\n奥巴马生於美国夏威夷州檀香山，他在夏威夷长大，但童年时期也在华盛顿州和印度尼西亚分别生活一年和四年。在1983年从哥伦比亚大学毕业之后，他在芝加哥做一名社区活动组织者。1988年奥巴马进入哈佛法学院，在那成为哈佛法律评论的第一名非裔总编辑。毕业后他成为一名民权律师，并从1997年至2004年在芝加哥大学法学院任宪制性法律教授。1997年当选伊利诺州参议员，并担任职务直至2004年参选联邦参议员。同年因意想不到的参议员初选胜利，在美国民主党全国代表大会上发表主题演讲和以绝对优势胜出参议员选举，成为全美知名的政治人物。2007年2月10日，他正式宣佈参加2008年美國總統選舉。同年6月赢得民主党初选，並在联邦选举中战胜共和党总统候选人約翰·麥凱恩获得胜利。2009年10月9日，获頒诺贝尔和平奖。\n2017年1月，奧巴馬以60%的民意支持率结束任期。"}
{"term": "李喬如", "tdh": "2019060401", "tdate": "20190604", "links": [{"url": "https://newtalk.tw/news/view/2019-06-03/254978", "t": "190603 1200", "title": "高市府官員全被請出場李喬如單挑韓國瑜互批不適任| 政治 - 新頭殼"}, {"url": "https://news.cts.com.tw/cts/politics/201906/201906031962948.html", "t": "190603 1241", "title": "被問是否辭市長選總統韓國瑜拒回應 - 華視新聞"}, {"url": "https://tw.news.yahoo.com/%E6%BD%98%E6%81%86%E6%97%AD%E6%9D%8E%E5%96%AC%E5%A6%82%E8%AD%B0%E4%BA%8B%E5%BB%B3%E5%B0%8D%E7%BD%B5-%E8%83%A1%E8%AA%AA%E5%85%AB%E9%81%93-104448588.html", "t": "190603 1844", "title": "潘恆旭李喬如議事廳對罵「胡說八道」 - Yahoo奇摩新聞"}, {"url": "https://udn.com/news/story/6656/3849810", "t": "190603 1218", "title": "綠營議會猛批 韓國瑜、李四川動怒 - udn 聯合新聞網"}, {"url": "https://www.ttv.com.tw/news/view/10806030010900N/579", "t": "190603 1300", "title": "李喬如請出所有官員與韓單挑火爆對嗆 - 台視新聞"}, {"url": "https://news.tvbs.com.tw/politics/1143477", "t": "190603 1710", "title": "韓國瑜與議員言詞交鋒 賴清德：想送他兩本書│TVBS新聞網 - TVBS新聞"}, {"url": "https://m.ltn.com.tw/news/politics/breakingnews/2810438", "t": "190603 1147", "title": "韓國瑜火氣大！總質詢最後一天跟議員大聲對嗆 - 自由時報電子報"}, {"url": "https://www.ttv.com.tw/news/view/10806030027900N/579", "t": "190603 2200", "title": "高市議會質詢砲火猛議員單挑市長互罵砲火連連! 韓批不及格議員李喬如:別當王X蛋 - 台視新聞"}, {"url": "https://www.ttv.com.tw/news/view/10806030013600I/568", "t": "190603 1400", "title": "局處首長被請出議場韓國瑜垮臉舌戰議員韓:這種議員不及格李喬如:別當王X蛋好好做 - 台視新聞"}, {"url": "https://tw.news.yahoo.com/%E9%9F%93%E5%9C%8B%E7%91%9C%E5%97%86%E8%AD%B0%E5%93%A1-%E5%B8%82%E9%95%B7%E5%89%8D%E8%BC%A9%E8%B3%B4%E6%B8%85%E5%BE%B7%E8%AA%AA%E8%A9%B1%E4%BA%86-074034881.html", "t": "190603 1655", "title": "韓國瑜嗆議員！市長前輩賴清德說話了 - Yahoo奇摩新聞"}, {"url": "https://udn.com/news/story/7327/3849681", "t": "190603 1145", "title": "民進黨議員總質詢鎖定韓國瑜 請官員退席 - udn 聯合新聞網"}, {"url": "https://tw.news.yahoo.com/%E6%99%9A%E9%96%93%E6%90%B6%E5%85%88%E5%A0%B1-%E9%98%B2%E5%BD%88%E5%B0%91%E5%B9%B4%E5%9C%98%E8%8B%B1%E5%9C%8B%E9%96%8B%E5%94%B1-%E5%90%B8%E5%BC%956%E8%90%AC%E6%AD%8C%E8%BF%B7-102000349.html", "t": "190603 1820", "title": "【晚間搶先報】防彈少年團英國開唱 吸引6萬歌迷 - Yahoo奇摩新聞"}, {"url": "https://news.ebc.net.tw/News/Article/165903", "t": "190603 1505", "title": "揭韓國瑜藍襯衫4秘密！學者曝：有高手設計 - 東森新聞"}, {"url": "https://tw.news.yahoo.com/video/%E6%8B%9A%E5%88%9D%E9%81%B8%E5%A4%A7%E5%8B%95%E5%93%A1-%E9%9F%93%E9%80%A0%E5%8B%A26-8%E8%8A%B1%E8%93%AE%E6%9C%83%E5%B8%AB%E8%80%83%E9%A9%97-053004086.html", "t": "190603 1352", "title": "拚初選大動員！ 韓造勢6/8花蓮會師考驗 - Yahoo奇摩新聞"}, {"url": "https://tw.news.yahoo.com/%E5%B7%B7%E4%BB%94%E5%85%A7-%E5%BE%9E%E9%9F%93%E5%9C%8B%E7%91%9C%E7%9A%84%E6%9A%B4%E6%80%92-%E7%9C%8B%E5%88%B0%E5%8F%B0%E7%81%A3%E6%94%BF%E6%B2%BB%E7%9A%84%E8%8D%92%E8%AC%AC-100329175.html", "t": "190603 1803", "title": "巷仔內／從韓國瑜的暴怒 看到台灣政治的荒謬 - Yahoo奇摩新聞"}, {"url": "https://tw.news.yahoo.com/%E5%94%90%E7%8D%8E%E5%BE%97%E4%B8%BB%E4%BF%83%E8%B7%A8%E5%9C%8B%E5%90%88%E4%BD%9C-%E4%BF%9D%E9%9A%9C%E4%B8%96%E7%95%8C%E7%A7%BB%E6%B0%91%E6%AC%8A%E7%9B%8A-%E5%9C%96-114459882.html", "t": "190603 1944", "title": "唐獎得主促跨國合作 保障世界移民權益 (圖) - Yahoo奇摩新聞"}, {"url": "https://tw.news.yahoo.com/%E6%9C%B1%E7%AB%8B%E5%80%AB%E9%AB%98%E9%9B%84%E5%90%83%E6%97%A9%E9%A4%90-2-%E5%9C%96-051750241.html", "t": "190603 1317", "title": "朱立倫高雄吃早餐（2） (圖) - Yahoo奇摩新聞"}, {"url": "https://tw.news.yahoo.com/video/%E5%B7%9D%E6%99%AE%E5%AE%8C%E5%85%A8%E6%89%93%E7%A0%B4%E5%A4%96%E4%BA%A4%E6%85%A3%E4%BE%8B-%E5%A4%A7%E6%96%B9%E5%B9%B2%E9%A0%90%E8%8B%B1%E5%9C%8B%E5%85%A7%E6%94%BF-043940996.html", "t": "190603 1251", "title": "川普完全打破外交慣例 大方干預英國內政 - Yahoo奇摩新聞"}, {"url": "https://tw.news.yahoo.com/%E7%BE%8E%E9%98%B2%E9%95%B7-%E7%9B%AE%E5%89%8D%E5%B0%9A%E7%84%A1%E5%BF%85%E8%A6%81%E6%81%A2%E5%BE%A9%E7%BE%8E%E9%9F%93%E8%81%AF%E5%90%88%E8%BB%8D%E6%BC%94-233501417.html", "t": "190603 0735", "title": "美防長：目前尚無必要恢復美韓聯合軍演 - Yahoo奇摩新聞"}, {"url": "https://tw.news.yahoo.com/%E9%99%B8%E5%95%86%E5%93%81%E6%81%90%E7%B6%93%E5%8F%B0%E6%B4%97%E7%94%A2%E5%9C%B0-%E7%B6%93%E9%83%A8-%E5%BC%B7%E5%8C%96%E7%AE%A1%E7%90%86-160000795.html", "t": "190603 0000", "title": "陸商品恐經台洗產地 經部：強化管理 - Yahoo奇摩新聞"}], "summary": "李喬如（Lee Chiao-Ju，1957年6月24日－），臺灣政治人物、民進黨籍議員，出生於屏東縣，畢業於國立中山大學修讀高階公共政策研究所碩士，1987年開始投身民主運動，曾經參與1993年高雄三一四事件，至1994年12月25日開始連任第4、5、6、7屆高雄市議會議員，2010年年高雄縣市合併之後，繼續擔任鹽埕、旗津、鼓山區議員至今。"}
{"term": "朗朗", "tdh": "2019060401", "tdate": "20190604", "links": [{"url": "https://www.worldjournal.com/6315667/article-%E6%9C%97%E6%9C%97%E9%82%A3%E5%85%A9%E6%AE%B5%E7%B7%8B%E8%81%9E-%E5%85%A9%E5%A5%B3%E6%98%9F%E6%95%97%E5%9C%A8%E6%9C%97%E5%AA%BD%E4%B8%8D%E8%AA%8D%E5%8F%AF/", "t": "190603 1142", "title": "朗朗那兩段緋聞兩女星敗在朗媽不認可- 世界新聞網 - 世界日報"}, {"url": "https://tw.news.yahoo.com/%E6%9C%97%E6%9C%97%E6%B3%95%E5%9C%8B%E9%96%83%E5%A9%9A%E7%94%9C%E5%A8%B6%E5%B0%8F12%E6%AD%B2%E6%96%B0%E5%A8%98%E5%A9%9A%E7%B4%97%E7%85%A7%E5%8F%AA%E9%81%AE%E4%B8%89%E8%A7%92%E5%9C%B0%E5%B8%B6%E8%BE%A3%E7%88%86-104459681.html", "t": "190602 1844", "title": "郎朗法國閃婚！ 甜娶小12歲新娘⋯婚紗照「只遮三角地帶」辣爆 - Yahoo奇摩新聞"}, {"url": "https://ent.ltn.com.tw/news/breakingnews/2810073", "t": "190602 1852", "title": "鋼琴家郎朗結婚了！新娘是24歲超正德韓混血美女 - 自由時報電子報"}, {"url": "https://tw.news.yahoo.com/%E9%83%8E%E6%9C%97%E5%87%A1%E7%88%BE%E8%B3%BD%E5%AE%AE%E5%A4%A7%E5%A9%9A-%E8%88%87%E5%91%A8%E8%91%A3%E8%81%AF%E5%BD%88-%E9%9D%92%E8%8A%B1%E7%93%B7-050709932.html", "t": "190603 1307", "title": "郎朗凡爾賽宮大婚！ 與周董聯彈《青花瓷》 - Yahoo奇摩新聞"}, {"url": "https://www.businesstimes.cn/articles-239738-20190603-6128735682.htm", "t": "190603 1823", "title": "朗朗老婆童年照曝光 德韩混血也太美了！ - 财经时报"}, {"url": "http://www.sohu.com/a/318145461_100125049", "t": "190602 2049", "title": "国宝级钢琴家朗朗结婚，新娘酷似Angelababy和张靓颖的结合体_刘亦菲 - 搜狐"}, {"url": "https://www.singtaousa.com/home/11-%E5%9C%8B%E9%9A%9B/2363790-%E7%BE%8E%E5%A5%B3%E9%9F%B3%E6%A8%82%E5%AE%B6%E6%89%8D%E8%8F%AF%E6%A9%AB%E6%BA%A2/?fromG=1", "t": "190603 2035", "title": "美女音樂家才華橫溢 - 星島日報-美國版"}, {"url": "https://udn.com/news/story/7040/3850183", "t": "190603 1514", "title": "從理髮廳到音樂廳的動人美聲－克利葛斯特姆 - udn 聯合新聞網"}, {"url": "https://tw.news.yahoo.com/%E7%B6%93%E5%85%B8%E9%84%A7%E9%BA%97%E5%90%9B-%E6%AD%8C%E6%9B%B2%E5%85%A5%E8%81%AF%E5%90%88%E5%9C%8B%E4%B8%AD%E6%96%87%E6%95%99%E6%9D%90-115409122.html", "t": "190530 0959", "title": "經典鄧麗君 歌曲入聯合國中文教材 - Yahoo奇摩新聞"}, {"url": "https://udn.com/news/story/10930/3850709?from=udn-ch1_breaknews-1-cate1-news", "t": "190603 1906", "title": "影／聽得到絕望聲的舊軍糧掰 國軍新野戰口糧搶救官兵口感 - udn 聯合新聞網"}, {"url": "https://www.hk01.com/%E9%81%8A%E6%88%B2%E5%8B%95%E6%BC%AB/335861/cytus-ii-%E9%99%90%E6%99%82%E5%85%8D%E8%B2%BB%E4%B8%8B%E8%BC%89-%E5%90%8C%E6%AD%A5%E6%8E%A8%E5%87%BA%E5%88%9D%E9%9F%B3%E6%9C%AA%E4%BE%86%E5%90%88%E4%BD%9C%E8%A7%92%E8%89%B2-miku", "t": "190603 1200", "title": "《Cytus II》限時免費下載！同步推出初音未來合作角色「Miku」 - 香港01"}, {"url": "https://www.hk01.com/%E7%A4%BE%E6%9C%83%E6%96%B0%E8%81%9E/335489/%E4%B8%AD%E8%B3%87%E7%99%BC%E5%B1%95%E5%95%86%E6%90%B6%E5%85%88%E7%94%B3%E8%AB%8B%E6%90%9E%E5%85%83%E6%9C%97%E5%85%AC%E7%A7%81%E5%90%88%E7%87%9F%E9%A0%85%E7%9B%AE-%E4%B8%89%E5%88%86%E4%BA%8C%E5%96%AE%E4%BD%8D%E4%BD%9C%E9%A6%96%E7%BD%AE%E7%9B%A4%E5%85%AC%E5%B1%8B", "t": "190531 2020", "title": "中資發展商搶先申請搞元朗公私合營項目三分二單位作首置盤公屋 - 香港01"}, {"url": "https://udn.com/news/story/6656/3849814?from=udn-catelistnews_ch2", "t": "190603 1221", "title": "學者點評藍總統參選人 朱立倫最適合韓國瑜口才太厲害 - udn 聯合新聞網"}, {"url": "https://tw.news.yahoo.com/-yahoo%E8%AB%96%E5%A3%87%E5%B8%83%E5%80%92%E7%BF%81%E9%9F%93%E6%B5%81%E7%B4%85%E8%A1%AB%E8%BB%8D-%E9%80%BC%E5%87%BA%E8%94%A1%E8%8B%B1%E6%96%87%E6%9C%80%E5%89%89%E7%9A%84%E4%B8%89%E4%BB%B6%E4%BA%8B-090700265.html", "t": "190603 1707", "title": "【Yahoo論壇／布倒翁】韓流紅衫軍 逼出蔡英文最剉的三件事 - Yahoo奇摩新聞"}, {"url": "http://jxfz.jxnews.com.cn/system/2019/06/03/017517428.shtml", "t": "190603 1206", "title": "东乡区马圩小学国学经典诵读校园书声朗朗（图）-抚州频道-中国江西网首页 - 大江网"}, {"url": "https://news.ltn.com.tw/news/politics/breakingnews/2792820", "t": "190516 1500", "title": "郭董批只會說「發大財」......韓國瑜：我們用「念力」 - 自由時報電子報"}, {"url": "https://udn.com/news/story/11091/3846863", "t": "190601 1157", "title": "【即時短評】韓國瑜口才聚人氣 土包子內在更重要 - udn 聯合新聞網"}, {"url": "https://tw.news.yahoo.com/%E5%A4%A7%E9%A0%AD%E5%A4%A7%E9%A0%AD%E4%B8%8B%E9%9B%A8%E4%B8%8D%E6%84%81%E4%BB%96%E5%AF%AB%E7%9A%84-95%E6%AD%B2%E5%85%A8%E5%8F%B0%E6%9C%80%E9%AB%98%E9%BD%A1%E5%8D%9A%E5%A3%AB%E4%BB%8A%E7%95%A2%E6%A5%AD-095825245.html", "t": "190601 1758", "title": "大頭大頭下雨不愁他寫的 95歲全台最高齡博士今畢業 - Yahoo奇摩新聞"}, {"url": "http://hznews.hangzhou.com.cn/wenti/content/2019-05/05/content_7188058.htm", "t": "190505 1500", "title": "今天杭州上演超震撼一幕！朗朗来了！七地同奏一首歌！ - 杭州网- 杭州新闻中心 - 杭州网"}, {"url": "https://www.taiwannews.com.tw/ch/news/3715342", "t": "190601 1605", "title": "台南新銳製琴師獨愛牽亡歌深耕台灣傳統文化獲表揚| 台灣英文新聞 - 台灣英文新聞"}], "summary": "勒格朗朗普（法语：Le Grand-Lemps）是法国伊泽尔省的一个市镇，属于拉图迪潘区（La Tour-du-Pin）勒格朗朗普县（Le Grand-Lemps）。该市镇总面积12.9平方公里，2009年时的人口为2935人。"}
{"term": "鄭聚然", "tdh": "2019060401", "tdate": "20190604", "links": [{"url": "https://tw.appledaily.com/new/realtime/20190603/1577788/", "t": "190603 1928", "title": "【叫爸爸大戰】鄭聚然嗆「把臭錢收回去」 館長反酸「不知恥近乎神勇」｜即時｜蘋果新聞網｜蘋果日報 - 蘋果日報"}, {"url": "https://news.ltn.com.tw/news/politics/breakingnews/2808415", "t": "190531 1857", "title": "館長捐60萬槓苗縣議員鄭聚然 南庄國中婉拒 - 自由時報電子報"}, {"url": "https://news.ltn.com.tw/news/politics/breakingnews/2807544", "t": "190530 2102", "title": "真的捐60萬！ 館長霸氣嗆鄭聚然：你自稱賣國賊就好 - 自由時報電子報"}, {"url": "https://www.nownews.com/news/20190603/3423289/", "t": "190603 1754", "title": "炮火猛烈！館長回嗆鄭聚然「1540字」怒噴：是我教子無方| 政治 - NOWnews"}, {"url": "https://www.ettoday.net/news/20190529/1455816.htm", "t": "190529 2025", "title": "館長要找鄭聚然直播了 「10萬元給你，叫3天爸爸來聽聽」 - ETtoday 新聞雲"}, {"url": "https://taronews.tw/2019/06/01/359453/", "t": "190601 2137", "title": "《台灣賦格專欄》等鄭聚然叫爸爸 - 芋傳媒 TaroNews"}, {"url": "https://tw.news.yahoo.com/video/%E6%88%91%E4%B8%8D%E7%AE%A1%E7%B5%B1%E6%88%B0-%E8%97%8D%E8%AD%B0%E5%93%A1-%E8%AA%B0%E7%B5%A6%E9%8C%A2%E5%B0%B1%E6%98%AF%E7%88%B8%E5%AA%BD-104633287.html", "t": "190529 2239", "title": "「我不管統戰」 國民黨議員鄭聚然：誰給錢就是爸媽 - Yahoo奇摩新聞"}, {"url": "https://buzzorange.com/2019/05/29/how-miaoli-poeple-being-united-by-china-bit-by-bit/", "t": "190529 1154", "title": "【苗栗の荒謬統戰日常】中國經濟綁架，國民黨議員鄭聚然：管他什麼統戰誰給錢誰就是爸媽 - TechOrange"}, {"url": "http://www.epochtimes.com/b5/19/5/31/n11291916.htm", "t": "190531 2202", "title": "蔡英文：台灣的民主 絕對不是金錢可以收買 - 大紀元"}, {"url": "https://udn.com/news/story/6656/3850244?from=udn-catebreaknews_ch2", "t": "190603 1534", "title": "嗆館長給臭錢？陳之漢：有沒有下限？ - udn 聯合新聞網"}, {"url": "https://udn.com/news/story/6656/3843472", "t": "190530 1615", "title": "苗栗議員願喚館長一聲爸：只要捐60萬給南庄國中 - udn 聯合新聞網"}, {"url": "https://news.cts.com.tw/cts/general/201905/201905291962468.html", "t": "190529 1135", "title": "【午間搶先報】\"給錢是爸媽\" 藍議員鄭聚然發言惹議 - 華視新聞"}, {"url": "https://tw.news.yahoo.com/%E8%97%8D%E7%87%9F%E8%AD%B0%E5%93%A1%E8%AD%B0%E6%9C%83%E8%B6%95%E5%AD%B8%E7%94%9F-%E7%81%AB%E5%A4%A7%E6%A7%93%E6%99%82%E5%8A%9B%E8%AD%B0%E5%93%A1-054515019.html", "t": "190506 1500", "title": "藍營議員議會趕學生 火大槓時力議員 - Yahoo奇摩新聞"}, {"url": "https://news.ltn.com.tw/news/politics/breakingnews/2807339", "t": "190530 2219", "title": "扯！「認中國父母」議員再嗆：男同志做愛不洗屁眼 - 自由時報電子報"}, {"url": "https://tw.news.yahoo.com/%E4%B8%AD%E5%9C%8B%E7%B5%A6%E9%8C%A2-%E8%97%8D%E8%AD%B0%E5%93%A1-%E7%B5%A6%E9%8C%A2%E6%98%AF%E7%88%B8%E5%AA%BD-123033752.html", "t": "190528 2140", "title": "中國酒商給錢 藍議員：給錢是爸媽 - Yahoo奇摩新聞"}, {"url": "https://news.cts.com.tw/cts/politics/201905/201905071960252.html", "t": "190507 1500", "title": "學生進苗議會遭趕時力議員槓藍議員 - 華視新聞"}, {"url": "https://www.mirrormedia.mg/story/20190529edi019", "t": "190529 1847", "title": "苗議員狂言「給錢就是爸媽」 館長：我匯10萬叫3天爸來聽聽 - 鏡週刊"}, {"url": "https://tw.news.yahoo.com/%E7%88%AD%E8%AD%B0%E5%8D%81%E8%B6%B3-%E5%A5%B9%E7%9B%A4%E9%BB%9E%E5%9C%8B%E9%BB%A8%E6%B0%91%E4%BB%A3%E5%8F%8D%E5%90%8C%E7%8B%82%E8%AA%9E%E9%8C%84-123544963.html", "t": "190530 2035", "title": "爭議十足！她盤點國黨民代反同狂語錄 - Yahoo奇摩新聞"}, {"url": "https://news.ltn.com.tw/news/politics/breakingnews/2810708", "t": "190603 1550", "title": "支持性平遭議員霸凌 時力籲正視地方教育問題 - 自由時報電子報"}, {"url": "https://tw.news.yahoo.com/video/%E7%B8%BD%E8%B3%AA%E8%A9%A2%E6%9C%80%E5%BE%8C%E6%97%A5-%E9%9F%93%E5%9C%8B%E7%91%9C-%E8%AD%B0%E5%93%A1%E6%BF%80%E7%83%88%E5%B0%8D%E5%97%86-052859992.html", "t": "190603 1342", "title": "總質詢最後日 韓國瑜.議員激烈對嗆 - Yahoo奇摩新聞"}], "summary": "明鄭時期是指1662年～1683年間，由奉大明正朔的延平王鄭成功于南臺灣所建立之政權統治時期。明郑時期前後歷經鄭成功、鄭經及鄭克塽三世統治21年。\n明末，战乱频起，内有流寇作乱，外有满清窥视中原。1644年甲申之變，北京被李自成农民军占领，江南地区的明朝宗室建立南明政权，此時清兵入關，擊退李自成，入主中原，更意在統一中國。1645年，弘光政权瓦解，不久之后鄭芝龙家族在福建拥立隆武帝与清兵抗争。郑芝龙降清后，其子鄭成功高举反清复明大旗，继续斗争，后因北伐失利，退守东南沿海地区。随着清军的不断“围剿”，鄭成功的势力范围也逐步缩小，为了寻找反清复明的基地，1661年郑成功东征，佔领荷属台湾。\n明鄭為臺灣歷史上第一個漢人（閩南民系）政權，鄭成功登陸臺灣後將該地改名為「東都」，仿照大陆的郡县制，将赤崁地方更名“东都明京”設置承天府為地方府治行政中心，作为臺灣最高的行政机构，效仿明朝中央官制，设六官；府城分为东安、西安、宋南、镇北四坊，各设首领，管理事务；府之下设二县，承天府以北叫天兴县、以南叫万年县，同时各种民生工作也逐步展开，例如：查户口、报田产、征劳力、纳税银等。鄭成功抵臺後，在廈門駐防的其子鄭經發生婚外情，遭致鄭成功的不滿，於是鄭成功死後，鄭成功之弟鄭襲在臺自立，鄭經不干示弱，接受眾臣擁立為「世藩」，出兵擊敗鄭襲，入主台灣，史稱鄭經克台。\n鄭經認為永曆帝已被吳三桂殺死，台灣日後已無稱行都的必要了，故改「东都明京」为「東寧」，建都安平鎮於熱蘭遮城，經過加以翻修稱之後稱為「王城」。对内奉南明永历帝正朔，对外与占据大陆的清朝互不统属，所谓“东宁建国，别立乾坤”，始有开国长治之想，经营成效斐然。明鄭政權的有效統治地區僅限於臺灣西南部地區，其他地方則有大肚王國、大龜文王國、瑪家王國等原住民政權管轄。\n郑经去世后，明郑内部爆发权力之争，馮錫範借口监国郑克𡒉不是郑经亲生子，拥立自己的女婿郑克塽为延平王，聯合刘国轩發動東寧之變，殺害了郑克𡒉，最终大权旁落，民心涣散，明郑从此一蹶不振。1682年，施琅师法郑成功收台之法，攻克澎湖岛，於1683年占领台湾，明郑结束。為防止台灣的東寧遺民以東寧王室的名義反叛，康熙帝下令将鄭成功、鄭經等郑氏在台王室陵墓悉数掘發，迁葬中国内陆。\n鄭成功受封明朝爵位「延平王」，在正式文告中皆謹守藩王的身份，多自稱「本藩」（英语：Pun Poin；西班牙語：Pumpuan；闽南语：Pún-phuan），曆法上，始終奉南明永历帝的永曆年號為其正朔，因此，永曆帝死後亦持續使用；於現存對其他政權的諸多外交文書中皆以「大明招討大將軍」的官職與「延平王」的爵位（鄭經則稱世子）作為其官方身分号召恢复明朝，有人指出明郑应为南明的延续；亦禮遇眾多流寓明朝宗室，如寧靖王朱術桂、魯王世子朱弘桓等人，並於重要冊封儀式中邀請明朝宗室於旁觀禮以維持宗藩體統；但實際上明郑未再拥立明朝宗室為皇帝或监国，國家元首即是延平王，是一個獨立行政、以延平王為實際領導者的政治實體，即使對內、外遵行明朝體制禮法的鄭經也曾經自認東寧從來不內屬中土，而是另新闢的海外領土。明太祖祖訓曾提到不征之國，要求後世不可征服內容中的藩屬國，其中台灣列屬藩屬國中的小琉球。而清世宗雍正提到乃是其父將台灣拓入中國版圖等語。"}
{"term": "唐從聖", "tdh": "2019060401", "tdate": "20190604", "links": [{"url": "https://ent.ltn.com.tw/news/breakingnews/2809902", "t": "190602 1533", "title": "（影音）唐從聖臉冒腫塊怪病纏身求助中西醫無解 - 自由時報電子報"}, {"url": "https://www.mirrormedia.mg/story/20190603ent001", "t": "190603 0827", "title": "拍戲又投資千萬兼2副業 唐從聖自曝壓力大怪病纏身 - 鏡週刊"}, {"url": "https://tw.news.yahoo.com/%E5%BE%97%E6%80%AA%E7%97%85%E9%86%AB%E7%94%9F%E7%84%A1%E8%A7%A3-%E5%94%90%E5%BE%9E%E8%81%96%E6%88%91%E6%99%82%E9%96%93%E4%B8%8D%E5%A4%9A%E4%BA%86-102257784.html", "t": "190602 1822", "title": "得怪病醫生無解 唐從聖：我時間不多了 - Yahoo奇摩新聞"}, {"url": "https://tw.news.yahoo.com/video/%E5%9C%8B%E9%9A%9B%E6%A9%8B%E7%89%8C%E7%A4%BE%E5%89%8D%E9%80%B2%E7%AB%8B%E9%99%A2%E6%8B%8D%E6%94%9D-%E5%94%90%E5%BE%9E%E8%81%96%E9%87%8D%E7%8F%BE%E7%B6%93%E5%85%B8-%E9%9F%93%E6%89%81%E5%A4%A7%E6%88%B0-111331670.html", "t": "190602 2110", "title": "國際橋牌社前進立院拍攝 唐從聖重現經典「韓扁大戰」 - Yahoo奇摩新聞"}, {"url": "https://tw.news.yahoo.com/%E5%9C%8B%E9%9A%9B%E6%A9%8B%E7%89%8C%E7%A4%BE%E7%AB%8B%E6%B3%95%E9%99%A2%E6%8B%8D%E6%94%9D-%E5%94%90%E5%BE%9E%E8%81%96%E6%89%AE%E6%BC%94%E9%99%B3%E6%B0%B4%E6%89%81-%E5%9C%96-084025823.html", "t": "190602 1640", "title": "國際橋牌社立法院拍攝 唐從聖扮演陳水扁 (圖) - Yahoo奇摩新聞"}, {"url": "https://stars.udn.com/star/story/10091/3848731", "t": "190602 1718", "title": "韓國瑜打陳水扁再現！立委嗆：應道歉 - udn 噓!星聞"}, {"url": "https://tw.news.yahoo.com/%E8%B3%AD%E5%A0%B4%E4%B9%83%E5%93%A5%E5%AE%B6%E5%89%8D%E5%82%B3-%E9%96%8B%E8%A8%98%E8%80%85%E6%9C%83%E5%8F%8D%E9%A7%81%E8%A9%90%E8%B2%A1-%E5%BE%90%E4%B9%83%E9%BA%9F-%E5%87%BA%E9%81%9337%E5%B9%B4%E5%8F%AA%E5%B0%8D%E4%B8%8D%E8%B5%B7%E5%94%90%E5%BE%9E%E8%81%96-091901940.html", "t": "190522 1500", "title": "【賭場乃哥家前傳】開記者會反駁詐財 徐乃麟：出道37年只對不起唐從聖 - Yahoo奇摩新聞"}, {"url": "https://tw.news.yahoo.com/%E5%BE%90%E4%B9%83%E9%BA%9F%E4%B8%BB%E6%8C%81%E6%83%B9%E8%AD%B0-%E7%AF%80%E7%9B%AE%E5%89%A9-%E5%80%8B%E6%94%B6%E5%85%A5%E7%A0%8D%E5%8D%8A-140004832.html", "t": "190523 1500", "title": "徐乃麟主持惹議 節目剩一個收入砍半 - Yahoo奇摩新聞"}, {"url": "https://tw.news.yahoo.com/%E5%8F%B0%E7%89%88%E7%B4%99%E7%89%8C%E5%B1%8B%E7%AB%8B%E9%99%A2%E6%8B%8D%E6%94%9D-%E9%82%84%E5%8E%9F%E7%88%AD%E5%9F%B7%E5%A0%B4%E6%99%AF-091139764.html", "t": "190602 1711", "title": "台版紙牌屋立院拍攝 還原爭執場景 - Yahoo奇摩新聞"}, {"url": "https://tw.news.yahoo.com/video/%E6%90%8F%E5%91%BD%E6%90%B6%E9%8C%A2-%E6%9B%BE%E5%9C%8B%E5%9F%8E%E9%A9%9A%E8%A6%BA-%E9%95%B7%E5%9B%8A%E8%85%AB-%E6%80%A5%E5%B0%B1%E9%86%AB-050018723.html", "t": "190602 1346", "title": "搏命搶錢！ 曾國城驚覺「長囊腫」急就醫 - Yahoo奇摩新聞"}, {"url": "https://tw.news.yahoo.com/video/%E9%AB%94%E9%A9%97%E9%90%B5%E9%81%93%E8%85%B3%E8%B8%8F%E8%BB%8A%E4%B8%8D%E7%94%A8%E8%A1%9D%E9%9F%93%E5%9C%8B-%E9%A8%8E%E9%80%B2%E5%9F%BA%E9%9A%86%E6%B7%B1%E6%BE%B3%E9%90%B5%E9%81%93%E6%9C%9D%E8%81%96%E7%84%A1%E6%95%B5%E6%B5%B7%E6%99%AF-100807884.html", "t": "190531 1808", "title": "體驗鐵道腳踏車不用衝韓國 騎進基隆深澳鐵道朝聖無敵海景！ - Yahoo奇摩新聞"}, {"url": "https://tw.news.yahoo.com/%E8%AC%9D%E9%BE%8D%E4%BB%8B%E7%99%BB-%E9%A3%9F%E5%B0%9A%E7%8E%A9%E5%AE%B6-%E7%95%B6%E9%9A%8A%E9%95%B7%E8%A7%A3%E5%8F%B0%E8%AA%9E%E6%A8%A3%E6%A8%A3%E8%A1%8C-150241119.html", "t": "190524 1500", "title": "謝龍介登《食尚玩家》 當隊長解台語樣樣行 - Yahoo奇摩新聞"}, {"url": "https://tw.news.yahoo.com/%E8%B3%B4%E6%B8%85%E5%BE%B7%E5%87%BA%E5%B8%AD%E5%85%AD%E5%9B%9B%E7%9B%B8%E9%97%9C%E7%B4%80%E5%BF%B5%E6%B4%BB%E5%8B%95-1-%E5%9C%96-073824174.html", "t": "190602 1538", "title": "賴清德出席六四相關紀念活動（1） (圖) - Yahoo奇摩新聞"}, {"url": "https://tw.news.yahoo.com/%E5%85%A7%E6%B9%96737%E5%B7%B7%E4%BA%BA%E6%B0%A3%E7%BE%8E%E9%A3%9F-%E7%94%9C%E9%B9%B9%E8%B7%AF%E7%B7%9A%E5%A4%A7pk-122300635.html", "t": "190601 2023", "title": "內湖737巷人氣美食 甜鹹路線大PK - Yahoo奇摩新聞"}, {"url": "https://tw.news.yahoo.com/video/%E5%93%A5%E5%90%89%E6%8B%892-%E6%80%AA%E7%8D%B8%E4%B9%8B%E7%8E%8B-%E9%87%8D%E5%87%BA%E6%B1%9F%E6%B9%96-%E5%B0%BE%E6%B4%BB%E9%BE%8D-093559763.html", "t": "190529 1735", "title": "《哥吉拉2：怪獸之王》 重出江湖「一尾活龍」 - Yahoo奇摩新聞"}, {"url": "https://news.ebc.net.tw/News/Article/162726", "t": "190507 1500", "title": "徐乃麟硬拗沒這詞！網轟沒知識：多讀點書 - 東森新聞"}, {"url": "https://tw.news.yahoo.com/%E5%B0%8F%E5%AD%A9%E6%98%AF%E6%8B%BF%E4%BE%86%E5%AF%B5%E7%9A%84-%E7%88%B8%E5%AA%BD%E8%A8%98%E5%BE%97-%E5%AF%B5%E6%84%9B%E4%BD%BF%E7%94%A8%E8%AA%AA%E6%98%8E-023900294.html", "t": "190529 1039", "title": "小孩是拿來寵的？爸媽記得「寵愛使用說明」！ - Yahoo奇摩新聞"}, {"url": "https://tw.news.yahoo.com/video/5%E6%AC%BE%E8%97%8D%E7%93%B6%E5%92%96%E5%95%A1%E8%B1%86%E7%BD%90%E8%93%8B%E6%81%90%E5%82%B7%E4%BA%BA-%E5%AE%98%E7%B6%B2%E5%85%AC%E5%91%8A%E5%9B%9E%E6%94%B6-043847492.html", "t": "190602 1303", "title": "5款藍瓶咖啡豆罐蓋恐傷人 官網公告回收 - Yahoo奇摩新聞"}, {"url": "https://tw.news.yahoo.com/video/%E9%A6%AC%E8%A1%93%E8%B3%BD%E7%99%BB%E5%A0%B4%E5%B1%95%E6%B1%BA%E5%BF%83-%E9%9F%93%E5%9C%8B%E7%91%9C-%E5%BE%88%E5%B8%8C%E6%9C%9B%E6%8E%A8%E5%8B%95%E9%A6%AC%E8%A1%93-084050013.html", "t": "190525 1500", "title": "馬術賽登場展決心 韓國瑜：很希望推動馬術 - Yahoo奇摩新聞"}, {"url": "https://tw.news.yahoo.com/%E5%9C%8B%E6%97%97%E8%88%87%E5%B7%9D%E6%99%AE%E5%90%8C%E6%A1%86-%E8%94%A1%E7%B8%BD%E7%B5%B1-%E5%9C%8B%E8%BB%8D%E7%9A%84%E6%A6%AE%E8%80%80%E4%B9%9F%E8%A2%AB%E4%B8%96%E7%95%8C%E7%9C%8B%E8%A6%8B-230715342.html", "t": "190602 0707", "title": "國旗與川普同框 蔡總統：國軍的榮耀也被世界看見 - Yahoo奇摩新聞"}], "summary": "唐從聖（1970年12月12日－），暱稱從從，臺灣主持人、演員、填詞人、作曲家、配音員，出生於臺灣臺南永康。"}
